%!PS-Adobe-3.0 EPSF-3.0 
%%BoundingBox: 0 0 422 353
%%Pages: 0
%%Creator: Sun Microsystems, Inc.
%%Title: none
%%CreationDate: none
%%LanguageLevel: 2
%%EndComments
%%BeginProlog
%%BeginResource: procset SDRes-Prolog 1.0 0
/b4_inc_state save def
/dict_count countdictstack def
/op_count count 1 sub def
userdict begin
0 setgray 0 setlinecap 1 setlinewidth 0 setlinejoin 10 setmiterlimit[] 0 setdash newpath
/languagelevel where {pop languagelevel 1 ne {false setstrokeadjust false setoverprint} if} if
/bdef {bind def} bind def
/c {setrgbcolor} bdef
/l {neg lineto} bdef
/rl {neg rlineto} bdef
/lc {setlinecap} bdef
/lj {setlinejoin} bdef
/lw {setlinewidth} bdef
/ml {setmiterlimit} bdef
/ld {setdash} bdef
/m {neg moveto} bdef
/ct {6 2 roll neg 6 2 roll neg 6 2 roll neg curveto} bdef
/r {rotate} bdef
/t {neg translate} bdef
/s {scale} bdef
/sw {show} bdef
/gs {gsave} bdef
/gr {grestore} bdef
/f {findfont dup length dict begin
{1 index /FID ne {def} {pop pop} ifelse} forall /Encoding ISOLatin1Encoding def
currentdict end /NFont exch definefont pop /NFont findfont} bdef
/p {closepath} bdef
/sf {scalefont setfont} bdef
/ef {eofill}bdef
/pc {closepath stroke}bdef
/ps {stroke}bdef
/pum {matrix currentmatrix}bdef
/pom {setmatrix}bdef
/bs {/aString exch def /nXOfs exch def /nWidth exch def currentpoint nXOfs 0 rmoveto pum nWidth aString stringwidth pop div 1 scale aString show pom moveto} bdef
%%EndResource
%%EndProlog
%%BeginSetup
%%EndSetup
%%Page: 1 1
%%BeginPageSetup
%%EndPageSetup
pum
0.02831 0.02831 s 
0 -12465 t
/tm matrix currentmatrix def
tm setmatrix
-3099 -1899 t 
1 1 s 
0 lw 1 lj 0.003 0.003 0.003 c 7600 5250 m  7100 5250 l  7100 4000 l  8100 4000 l 
8100 5250 l  7600 5250 l  pc
pum
7350 4701 t
128 6 m  95 6 69 -3 52 -21 ct 35 -39 27 -63 27 -94 ct 27 -117 31 -135 40 -149 ct 
48 -163 59 -174 72 -183 ct 86 -191 101 -196 119 -199 ct 136 -203 154 -204 172 -204 ct 
247 -204 l  247 -223 l  247 -237 246 -248 243 -258 ct 240 -268 235 -276 229 -282 ct 
223 -288 216 -292 207 -295 ct 198 -298 187 -299 175 -299 ct 164 -299 155 -299 146 -297 ct 
137 -296 130 -293 123 -289 ct 117 -285 112 -279 108 -272 ct 104 -265 101 -257 100 -246 ct 
42 -251 l  44 -265 48 -277 54 -288 ct 59 -299 68 -309 78 -317 ct 89 -325 102 -331 118 -335 ct 
134 -340 154 -342 176 -342 ct 219 -342 250 -332 272 -313 ct 293 -294 304 -266 304 -229 ct 
304 -85 l  304 -68 306 -55 310 -47 ct 314 -39 323 -35 335 -35 ct 338 -35 341 -35 344 -35 ct 
347 -36 350 -36 353 -37 ct 353 -2 l  346 0 339 1 332 2 ct 325 3 318 3 310 3 ct 
300 3 290 2 283 -1 ct 275 -4 269 -8 264 -14 ct 260 -20 256 -27 254 -35 ct 251 -43 250 -53 249 -64 ct 
247 -64 l  241 -54 235 -44 227 -35 ct 220 -27 212 -19 202 -13 ct 193 -7 182 -2 170 1 ct 
158 4 144 6 128 6 ct p
141 -36 m  159 -36 174 -39 188 -46 ct 201 -52 212 -60 221 -70 ct 230 -80 236 -91 241 -103 ct 
245 -115 247 -127 247 -138 ct 247 -165 l  186 -165 l  172 -165 159 -164 147 -162 ct 
135 -161 124 -157 115 -152 ct 105 -147 98 -139 93 -130 ct 87 -121 84 -108 84 -93 ct 
84 -75 89 -61 99 -51 ct 109 -41 123 -36 141 -36 ct p ef
pom
9000 5250 m  8500 5250 l  8500 4000 l  9500 4000 l  9500 5250 l  9000 5250 l 
pc
pum
8750 4701 t
326 -169 m  326 -52 285 7 203 7 ct 178 7 157 2 140 -7 ct 123 -16 109 -31 99 -51 ct 
98 -51 l  98 -46 98 -40 98 -35 ct 97 -29 97 -24 97 -19 ct 96 -14 96 -9 96 -6 ct 
95 -2 95 0 95 1 ct 41 1 l  41 -1 41 -4 42 -9 ct 42 -13 42 -19 42 -25 ct 42 -31 43 -38 43 -45 ct 
43 -53 43 -61 43 -69 ct 43 -460 l  99 -460 l  99 -328 l  99 -322 99 -316 98 -311 ct 
98 -305 98 -300 98 -296 ct 98 -290 98 -286 97 -281 ct 99 -281 l  109 -302 123 -318 140 -327 ct 
157 -336 178 -341 203 -341 ct 245 -341 277 -327 297 -298 ct 317 -270 326 -227 326 -169 ct 
p
268 -167 m  268 -190 266 -210 264 -226 ct 261 -243 256 -256 250 -267 ct 243 -278 235 -286 225 -291 ct 
215 -296 203 -298 189 -298 ct 174 -298 161 -296 150 -291 ct 139 -286 129 -278 122 -268 ct 
114 -257 108 -243 104 -226 ct 101 -209 99 -188 99 -163 ct 99 -139 101 -119 104 -103 ct 
108 -87 114 -73 122 -63 ct 129 -53 139 -45 150 -41 ct 161 -36 174 -34 188 -34 ct 
202 -34 214 -37 224 -41 ct 233 -46 242 -54 248 -64 ct 255 -75 260 -89 263 -105 ct 
266 -122 268 -143 268 -167 ct p ef
pom
10400 5250 m  9900 5250 l  9900 4000 l  10900 4000 l  10900 5250 l  10400 5250 l 
pc
pum
10150 4701 t
85 -170 m  85 -150 87 -133 89 -117 ct 92 -100 97 -86 104 -75 ct 110 -63 119 -54 130 -48 ct 
141 -41 154 -38 170 -38 ct 190 -38 206 -43 220 -54 ct 233 -64 241 -80 244 -102 ct 
301 -102 l  299 -88 295 -74 289 -61 ct 282 -48 274 -37 263 -27 ct 253 -17 240 -9 224 -3 ct 
209 3 192 6 171 6 ct 145 6 123 2 104 -7 ct 86 -16 71 -28 60 -44 ct 48 -60 40 -78 35 -99 ct 
30 -121 27 -144 27 -168 ct 27 -191 29 -211 33 -228 ct 36 -245 42 -260 48 -273 ct 
55 -286 63 -297 72 -306 ct 81 -315 91 -322 102 -327 ct 112 -332 123 -336 135 -338 ct 
147 -341 159 -342 171 -342 ct 190 -342 206 -339 221 -334 ct 236 -329 248 -322 259 -313 ct 
270 -304 278 -293 285 -281 ct 292 -269 296 -256 299 -242 ct 242 -237 l  239 -256 231 -271 220 -282 ct 
208 -293 191 -298 169 -298 ct 153 -298 140 -296 129 -290 ct 119 -285 110 -277 104 -266 ct 
97 -256 92 -242 89 -226 ct 87 -210 85 -191 85 -170 ct p ef
pom
9000 3150 m  8500 3150 l  8500 1900 l  9500 1900 l  9500 3150 l  9000 3150 l 
pc
7500 7900 m  7000 7900 l  7000 6650 l  8000 6650 l  8000 7900 l  7500 7900 l 
pc
pum
7250 7351 t
128 6 m  95 6 69 -3 52 -21 ct 35 -39 27 -63 27 -94 ct 27 -117 31 -135 40 -149 ct 
48 -163 59 -174 72 -183 ct 86 -191 101 -196 119 -199 ct 136 -203 154 -204 172 -204 ct 
247 -204 l  247 -223 l  247 -237 246 -248 243 -258 ct 240 -268 235 -276 229 -282 ct 
223 -288 216 -292 207 -295 ct 198 -298 187 -299 175 -299 ct 164 -299 155 -299 146 -297 ct 
137 -296 130 -293 123 -289 ct 117 -285 112 -279 108 -272 ct 104 -265 101 -257 100 -246 ct 
42 -251 l  44 -265 48 -277 54 -288 ct 59 -299 68 -309 78 -317 ct 89 -325 102 -331 118 -335 ct 
134 -340 154 -342 176 -342 ct 219 -342 250 -332 272 -313 ct 293 -294 304 -266 304 -229 ct 
304 -85 l  304 -68 306 -55 310 -47 ct 314 -39 323 -35 335 -35 ct 338 -35 341 -35 344 -35 ct 
347 -36 350 -36 353 -37 ct 353 -2 l  346 0 339 1 332 2 ct 325 3 318 3 310 3 ct 
300 3 290 2 283 -1 ct 275 -4 269 -8 264 -14 ct 260 -20 256 -27 254 -35 ct 251 -43 250 -53 249 -64 ct 
247 -64 l  241 -54 235 -44 227 -35 ct 220 -27 212 -19 202 -13 ct 193 -7 182 -2 170 1 ct 
158 4 144 6 128 6 ct p
141 -36 m  159 -36 174 -39 188 -46 ct 201 -52 212 -60 221 -70 ct 230 -80 236 -91 241 -103 ct 
245 -115 247 -127 247 -138 ct 247 -165 l  186 -165 l  172 -165 159 -164 147 -162 ct 
135 -161 124 -157 115 -152 ct 105 -147 98 -139 93 -130 ct 87 -121 84 -108 84 -93 ct 
84 -75 89 -61 99 -51 ct 109 -41 123 -36 141 -36 ct p ef
pom
[ 51 51 51 51 ] 0 ld
8900 7900 m  8400 7900 l  8400 6650 l  9400 6650 l  9400 7900 l  8900 7900 l 
pc
pum
8650 7351 t
326 -169 m  326 -52 285 7 203 7 ct 178 7 157 2 140 -7 ct 123 -16 109 -31 99 -51 ct 
98 -51 l  98 -46 98 -40 98 -35 ct 97 -29 97 -24 97 -19 ct 96 -14 96 -9 96 -6 ct 
95 -2 95 0 95 1 ct 41 1 l  41 -1 41 -4 42 -9 ct 42 -13 42 -19 42 -25 ct 42 -31 43 -38 43 -45 ct 
43 -53 43 -61 43 -69 ct 43 -460 l  99 -460 l  99 -328 l  99 -322 99 -316 98 -311 ct 
98 -305 98 -300 98 -296 ct 98 -290 98 -286 97 -281 ct 99 -281 l  109 -302 123 -318 140 -327 ct 
157 -336 178 -341 203 -341 ct 245 -341 277 -327 297 -298 ct 317 -270 326 -227 326 -169 ct 
p
268 -167 m  268 -190 266 -210 264 -226 ct 261 -243 256 -256 250 -267 ct 243 -278 235 -286 225 -291 ct 
215 -296 203 -298 189 -298 ct 174 -298 161 -296 150 -291 ct 139 -286 129 -278 122 -268 ct 
114 -257 108 -243 104 -226 ct 101 -209 99 -188 99 -163 ct 99 -139 101 -119 104 -103 ct 
108 -87 114 -73 122 -63 ct 129 -53 139 -45 150 -41 ct 161 -36 174 -34 188 -34 ct 
202 -34 214 -37 224 -41 ct 233 -46 242 -54 248 -64 ct 255 -75 260 -89 263 -105 ct 
266 -122 268 -143 268 -167 ct p ef
pom
10300 7900 m  9800 7900 l  9800 6650 l  10800 6650 l  10800 7900 l  10300 7900 l 
pc
pum
10050 7351 t
85 -170 m  85 -150 87 -133 89 -117 ct 92 -100 97 -86 104 -75 ct 110 -63 119 -54 130 -48 ct 
141 -41 154 -38 170 -38 ct 190 -38 206 -43 220 -54 ct 233 -64 241 -80 244 -102 ct 
301 -102 l  299 -88 295 -74 289 -61 ct 282 -48 274 -37 263 -27 ct 253 -17 240 -9 224 -3 ct 
209 3 192 6 171 6 ct 145 6 123 2 104 -7 ct 86 -16 71 -28 60 -44 ct 48 -60 40 -78 35 -99 ct 
30 -121 27 -144 27 -168 ct 27 -191 29 -211 33 -228 ct 36 -245 42 -260 48 -273 ct 
55 -286 63 -297 72 -306 ct 81 -315 91 -322 102 -327 ct 112 -332 123 -336 135 -338 ct 
147 -341 159 -342 171 -342 ct 190 -342 206 -339 221 -334 ct 236 -329 248 -322 259 -313 ct 
270 -304 278 -293 285 -281 ct 292 -269 296 -256 299 -242 ct 242 -237 l  239 -256 231 -271 220 -282 ct 
208 -293 191 -298 169 -298 ct 153 -298 140 -296 129 -290 ct 119 -285 110 -277 104 -266 ct 
97 -256 92 -242 89 -226 ct 87 -210 85 -191 85 -170 ct p ef
pom
[ ] 0 ld
5600 10400 m  5100 10400 l  5100 9150 l  6100 9150 l  6100 10400 l  5600 10400 l 
pc
pum
5350 9851 t
326 -169 m  326 -52 285 7 203 7 ct 178 7 157 2 140 -7 ct 123 -16 109 -31 99 -51 ct 
98 -51 l  98 -46 98 -40 98 -35 ct 97 -29 97 -24 97 -19 ct 96 -14 96 -9 96 -6 ct 
95 -2 95 0 95 1 ct 41 1 l  41 -1 41 -4 42 -9 ct 42 -13 42 -19 42 -25 ct 42 -31 43 -38 43 -45 ct 
43 -53 43 -61 43 -69 ct 43 -460 l  99 -460 l  99 -328 l  99 -322 99 -316 98 -311 ct 
98 -305 98 -300 98 -296 ct 98 -290 98 -286 97 -281 ct 99 -281 l  109 -302 123 -318 140 -327 ct 
157 -336 178 -341 203 -341 ct 245 -341 277 -327 297 -298 ct 317 -270 326 -227 326 -169 ct 
p
268 -167 m  268 -190 266 -210 264 -226 ct 261 -243 256 -256 250 -267 ct 243 -278 235 -286 225 -291 ct 
215 -296 203 -298 189 -298 ct 174 -298 161 -296 150 -291 ct 139 -286 129 -278 122 -268 ct 
114 -257 108 -243 104 -226 ct 101 -209 99 -188 99 -163 ct 99 -139 101 -119 104 -103 ct 
108 -87 114 -73 122 -63 ct 129 -53 139 -45 150 -41 ct 161 -36 174 -34 188 -34 ct 
202 -34 214 -37 224 -41 ct 233 -46 242 -54 248 -64 ct 255 -75 260 -89 263 -105 ct 
266 -122 268 -143 268 -167 ct p ef
pom
7000 10400 m  6500 10400 l  6500 9150 l  7500 9150 l  7500 10400 l  7000 10400 l 
pc
pum
6750 9851 t
85 -170 m  85 -150 87 -133 89 -117 ct 92 -100 97 -86 104 -75 ct 110 -63 119 -54 130 -48 ct 
141 -41 154 -38 170 -38 ct 190 -38 206 -43 220 -54 ct 233 -64 241 -80 244 -102 ct 
301 -102 l  299 -88 295 -74 289 -61 ct 282 -48 274 -37 263 -27 ct 253 -17 240 -9 224 -3 ct 
209 3 192 6 171 6 ct 145 6 123 2 104 -7 ct 86 -16 71 -28 60 -44 ct 48 -60 40 -78 35 -99 ct 
30 -121 27 -144 27 -168 ct 27 -191 29 -211 33 -228 ct 36 -245 42 -260 48 -273 ct 
55 -286 63 -297 72 -306 ct 81 -315 91 -322 102 -327 ct 112 -332 123 -336 135 -338 ct 
147 -341 159 -342 171 -342 ct 190 -342 206 -339 221 -334 ct 236 -329 248 -322 259 -313 ct 
270 -304 278 -293 285 -281 ct 292 -269 296 -256 299 -242 ct 242 -237 l  239 -256 231 -271 220 -282 ct 
208 -293 191 -298 169 -298 ct 153 -298 140 -296 129 -290 ct 119 -285 110 -277 104 -266 ct 
97 -256 92 -242 89 -226 ct 87 -210 85 -191 85 -170 ct p ef
pom
9000 3150 m  9000 4000 l  ps
9000 5250 m  7500 6650 l  ps
7500 7900 m  7000 9150 l  ps
7500 7900 m  5600 9150 l  ps
4200 13500 m  3700 13500 l  3700 12250 l  4700 12250 l  4700 13500 l  4200 13500 l 
pc
pum
3950 12951 t
128 6 m  95 6 69 -3 52 -21 ct 35 -39 27 -63 27 -94 ct 27 -117 31 -135 40 -149 ct 
48 -163 59 -174 72 -183 ct 86 -191 101 -196 119 -199 ct 136 -203 154 -204 172 -204 ct 
247 -204 l  247 -223 l  247 -237 246 -248 243 -258 ct 240 -268 235 -276 229 -282 ct 
223 -288 216 -292 207 -295 ct 198 -298 187 -299 175 -299 ct 164 -299 155 -299 146 -297 ct 
137 -296 130 -293 123 -289 ct 117 -285 112 -279 108 -272 ct 104 -265 101 -257 100 -246 ct 
42 -251 l  44 -265 48 -277 54 -288 ct 59 -299 68 -309 78 -317 ct 89 -325 102 -331 118 -335 ct 
134 -340 154 -342 176 -342 ct 219 -342 250 -332 272 -313 ct 293 -294 304 -266 304 -229 ct 
304 -85 l  304 -68 306 -55 310 -47 ct 314 -39 323 -35 335 -35 ct 338 -35 341 -35 344 -35 ct 
347 -36 350 -36 353 -37 ct 353 -2 l  346 0 339 1 332 2 ct 325 3 318 3 310 3 ct 
300 3 290 2 283 -1 ct 275 -4 269 -8 264 -14 ct 260 -20 256 -27 254 -35 ct 251 -43 250 -53 249 -64 ct 
247 -64 l  241 -54 235 -44 227 -35 ct 220 -27 212 -19 202 -13 ct 193 -7 182 -2 170 1 ct 
158 4 144 6 128 6 ct p
141 -36 m  159 -36 174 -39 188 -46 ct 201 -52 212 -60 221 -70 ct 230 -80 236 -91 241 -103 ct 
245 -115 247 -127 247 -138 ct 247 -165 l  186 -165 l  172 -165 159 -164 147 -162 ct 
135 -161 124 -157 115 -152 ct 105 -147 98 -139 93 -130 ct 87 -121 84 -108 84 -93 ct 
84 -75 89 -61 99 -51 ct 109 -41 123 -36 141 -36 ct p ef
pom
5600 10400 m  4200 12250 l  ps

pum
6750 11001 t
0.402 0.800 0.402 c 231 -342 m  247 -342 262 -340 275 -334 ct 288 -329 298 -322 307 -312 ct 
316 -303 322 -291 327 -278 ct 331 -264 334 -249 334 -232 ct 334 -222 333 -211 332 -198 ct 
331 -186 330 -173 327 -160 ct 322 -131 314 -106 305 -85 ct 296 -64 285 -47 272 -33 ct 
259 -20 245 -10 228 -3 ct 212 3 193 6 173 6 ct 147 6 127 1 111 -10 ct 95 -21 84 -36 77 -55 ct 
76 -55 l  75 -50 74 -44 72 -38 ct 71 -32 69 -26 68 -21 ct 67 -16 66 -11 65 -7 ct 
64 -3 63 -1 63 0 ct 9 0 l  10 -2 10 -5 11 -10 ct 13 -14 14 -19 15 -26 ct 16 -32 18 -39 20 -46 ct 
21 -54 23 -61 24 -69 ct 100 -461 l  156 -461 l  130 -329 l  129 -323 128 -318 127 -312 ct 
125 -307 124 -302 123 -298 ct 122 -294 121 -290 120 -286 ct 121 -286 l  128 -296 136 -304 144 -311 ct 
151 -318 160 -324 169 -329 ct 177 -333 187 -337 197 -339 ct 207 -341 218 -342 231 -342 ct 
p
215 -299 m  201 -299 189 -297 177 -293 ct 165 -289 154 -282 144 -273 ct 134 -263 125 -250 117 -234 ct 
109 -218 103 -197 98 -172 ct 94 -152 92 -134 92 -117 ct 92 -104 94 -92 98 -82 ct 
101 -72 106 -63 113 -56 ct 119 -49 127 -44 136 -41 ct 145 -37 156 -35 167 -35 ct 
180 -35 191 -37 202 -41 ct 212 -45 221 -51 230 -61 ct 238 -70 245 -83 252 -99 ct 
258 -115 264 -134 268 -158 ct 273 -183 275 -205 275 -222 ct 275 -248 270 -267 261 -280 ct 
251 -293 236 -299 215 -299 ct p ef
678 -2 m  672 -1 666 1 659 2 ct 652 2 645 3 638 3 ct 619 3 605 -1 596 -9 ct 588 -17 583 -29 583 -45 ct 
583 -48 583 -51 584 -55 ct 584 -58 585 -62 585 -65 ct 583 -65 l  576 -54 568 -44 560 -35 ct 
553 -26 544 -19 535 -13 ct 525 -7 515 -2 503 1 ct 492 4 478 6 463 6 ct 447 6 433 3 421 -2 ct 
409 -7 398 -14 390 -23 ct 382 -31 376 -41 371 -52 ct 367 -64 365 -75 365 -87 ct 
365 -104 368 -118 373 -131 ct 377 -143 384 -153 392 -162 ct 401 -171 411 -178 422 -183 ct 
433 -189 445 -193 458 -196 ct 471 -199 484 -202 497 -203 ct 511 -204 524 -205 537 -205 ct 
609 -205 l  611 -216 l  612 -221 613 -226 614 -231 ct 615 -236 615 -240 615 -244 ct 
615 -263 610 -277 599 -286 ct 588 -295 573 -299 553 -299 ct 543 -299 534 -299 525 -297 ct 
516 -296 508 -293 501 -289 ct 494 -285 488 -279 483 -272 ct 478 -266 473 -257 470 -246 ct 
415 -255 l  419 -268 424 -280 431 -290 ct 438 -301 447 -310 458 -318 ct 469 -325 483 -331 499 -336 ct 
515 -340 534 -342 556 -342 ct 575 -342 591 -340 605 -335 ct 620 -331 632 -324 641 -316 ct 
651 -308 658 -299 663 -287 ct 668 -276 671 -264 671 -251 ct 671 -244 670 -236 669 -227 ct 
668 -218 667 -210 665 -202 ct 642 -85 l  641 -80 640 -75 640 -71 ct 639 -66 639 -61 639 -57 ct 
639 -50 641 -44 645 -40 ct 649 -37 655 -35 664 -35 ct 667 -35 670 -35 673 -35 ct 
677 -36 680 -36 682 -37 ct 678 -2 l  p
602 -165 m  540 -165 l  532 -165 523 -165 514 -165 ct 506 -165 497 -164 488 -162 ct 
480 -160 471 -157 464 -154 ct 456 -151 449 -146 443 -140 ct 438 -135 433 -128 430 -119 ct 
426 -111 424 -101 424 -90 ct 424 -83 426 -76 428 -70 ct 430 -64 433 -58 438 -53 ct 
442 -48 448 -44 455 -41 ct 461 -38 469 -37 478 -37 ct 496 -37 512 -40 526 -46 ct 
539 -52 550 -59 560 -68 ct 570 -77 577 -87 582 -98 ct 588 -108 592 -118 593 -127 ct 
602 -165 l  p ef
848 -38 m  860 -38 870 -40 880 -43 ct 889 -47 897 -51 905 -58 ct 912 -64 918 -71 924 -80 ct 
929 -89 934 -99 938 -109 ct 986 -94 l  981 -79 974 -65 965 -52 ct 957 -40 947 -30 935 -21 ct 
924 -12 911 -6 896 -1 ct 882 4 865 6 847 6 ct 826 6 807 3 792 -4 ct 776 -10 763 -19 753 -30 ct 
743 -42 736 -56 731 -71 ct 726 -87 724 -104 724 -123 ct 724 -131 724 -140 725 -150 ct 
726 -159 727 -169 729 -178 ct 733 -201 739 -221 746 -238 ct 753 -255 761 -270 770 -282 ct 
779 -294 788 -304 799 -312 ct 809 -319 819 -326 830 -330 ct 841 -335 852 -338 863 -339 ct 
875 -341 886 -342 897 -342 ct 915 -342 931 -340 945 -335 ct 959 -330 971 -323 981 -315 ct 
991 -306 998 -296 1004 -284 ct 1009 -271 1012 -258 1013 -243 ct 958 -236 l  958 -245 956 -253 953 -261 ct 
950 -269 946 -275 941 -281 ct 936 -286 929 -290 922 -294 ct 914 -297 905 -298 895 -298 ct 
881 -298 868 -296 856 -292 ct 845 -288 835 -281 826 -272 ct 817 -263 809 -250 803 -235 ct 
796 -220 791 -202 787 -180 ct 785 -170 783 -160 782 -149 ct 781 -138 781 -129 781 -121 ct 
781 -95 786 -74 797 -60 ct 807 -45 825 -38 848 -38 ct p ef
pom

pum
3350 14101 t
231 -342 m  247 -342 262 -340 275 -334 ct 288 -329 298 -322 307 -312 ct 316 -303 322 -291 327 -278 ct 
331 -264 334 -249 334 -232 ct 334 -222 333 -211 332 -198 ct 331 -186 330 -173 327 -160 ct 
322 -131 314 -106 305 -85 ct 296 -64 285 -47 272 -33 ct 259 -20 245 -10 228 -3 ct 
212 3 193 6 173 6 ct 147 6 127 1 111 -10 ct 95 -21 84 -36 77 -55 ct 76 -55 l  75 -50 74 -44 72 -38 ct 
71 -32 69 -26 68 -21 ct 67 -16 66 -11 65 -7 ct 64 -3 63 -1 63 0 ct 9 0 l  10 -2 10 -5 11 -10 ct 
13 -14 14 -19 15 -26 ct 16 -32 18 -39 20 -46 ct 21 -54 23 -61 24 -69 ct 100 -461 l 
156 -461 l  130 -329 l  129 -323 128 -318 127 -312 ct 125 -307 124 -302 123 -298 ct 
122 -294 121 -290 120 -286 ct 121 -286 l  128 -296 136 -304 144 -311 ct 151 -318 160 -324 169 -329 ct 
177 -333 187 -337 197 -339 ct 207 -341 218 -342 231 -342 ct p
215 -299 m  201 -299 189 -297 177 -293 ct 165 -289 154 -282 144 -273 ct 134 -263 125 -250 117 -234 ct 
109 -218 103 -197 98 -172 ct 94 -152 92 -134 92 -117 ct 92 -104 94 -92 98 -82 ct 
101 -72 106 -63 113 -56 ct 119 -49 127 -44 136 -41 ct 145 -37 156 -35 167 -35 ct 
180 -35 191 -37 202 -41 ct 212 -45 221 -51 230 -61 ct 238 -70 245 -83 252 -99 ct 
258 -115 264 -134 268 -158 ct 273 -183 275 -205 275 -222 ct 275 -248 270 -267 261 -280 ct 
251 -293 236 -299 215 -299 ct p ef
678 -2 m  672 -1 666 1 659 2 ct 652 2 645 3 638 3 ct 619 3 605 -1 596 -9 ct 588 -17 583 -29 583 -45 ct 
583 -48 583 -51 584 -55 ct 584 -58 585 -62 585 -65 ct 583 -65 l  576 -54 568 -44 560 -35 ct 
553 -26 544 -19 535 -13 ct 525 -7 515 -2 503 1 ct 492 4 478 6 463 6 ct 447 6 433 3 421 -2 ct 
409 -7 398 -14 390 -23 ct 382 -31 376 -41 371 -52 ct 367 -64 365 -75 365 -87 ct 
365 -104 368 -118 373 -131 ct 377 -143 384 -153 392 -162 ct 401 -171 411 -178 422 -183 ct 
433 -189 445 -193 458 -196 ct 471 -199 484 -202 497 -203 ct 511 -204 524 -205 537 -205 ct 
609 -205 l  611 -216 l  612 -221 613 -226 614 -231 ct 615 -236 615 -240 615 -244 ct 
615 -263 610 -277 599 -286 ct 588 -295 573 -299 553 -299 ct 543 -299 534 -299 525 -297 ct 
516 -296 508 -293 501 -289 ct 494 -285 488 -279 483 -272 ct 478 -266 473 -257 470 -246 ct 
415 -255 l  419 -268 424 -280 431 -290 ct 438 -301 447 -310 458 -318 ct 469 -325 483 -331 499 -336 ct 
515 -340 534 -342 556 -342 ct 575 -342 591 -340 605 -335 ct 620 -331 632 -324 641 -316 ct 
651 -308 658 -299 663 -287 ct 668 -276 671 -264 671 -251 ct 671 -244 670 -236 669 -227 ct 
668 -218 667 -210 665 -202 ct 642 -85 l  641 -80 640 -75 640 -71 ct 639 -66 639 -61 639 -57 ct 
639 -50 641 -44 645 -40 ct 649 -37 655 -35 664 -35 ct 667 -35 670 -35 673 -35 ct 
677 -36 680 -36 682 -37 ct 678 -2 l  p
602 -165 m  540 -165 l  532 -165 523 -165 514 -165 ct 506 -165 497 -164 488 -162 ct 
480 -160 471 -157 464 -154 ct 456 -151 449 -146 443 -140 ct 438 -135 433 -128 430 -119 ct 
426 -111 424 -101 424 -90 ct 424 -83 426 -76 428 -70 ct 430 -64 433 -58 438 -53 ct 
442 -48 448 -44 455 -41 ct 461 -38 469 -37 478 -37 ct 496 -37 512 -40 526 -46 ct 
539 -52 550 -59 560 -68 ct 570 -77 577 -87 582 -98 ct 588 -108 592 -118 593 -127 ct 
602 -165 l  p ef
934 -342 m  950 -342 965 -340 978 -334 ct 991 -329 1001 -322 1010 -312 ct 1019 -303 1025 -291 1030 -278 ct 
1034 -264 1037 -249 1037 -232 ct 1037 -222 1036 -211 1035 -198 ct 1034 -186 1033 -173 1030 -160 ct 
1025 -131 1017 -106 1008 -85 ct 999 -64 988 -47 975 -33 ct 962 -20 948 -10 931 -3 ct 
915 3 896 6 876 6 ct 850 6 830 1 814 -10 ct 798 -21 787 -36 780 -55 ct 779 -55 l 
778 -50 777 -44 775 -38 ct 774 -32 772 -26 771 -21 ct 770 -16 769 -11 768 -7 ct 
767 -3 766 -1 766 0 ct 712 0 l  713 -2 713 -5 714 -10 ct 716 -14 717 -19 718 -26 ct 
719 -32 721 -39 723 -46 ct 724 -54 726 -61 727 -69 ct 803 -461 l  859 -461 l 
833 -329 l  832 -323 831 -318 830 -312 ct 828 -307 827 -302 826 -298 ct 825 -294 824 -290 823 -286 ct 
824 -286 l  831 -296 839 -304 847 -311 ct 854 -318 863 -324 872 -329 ct 880 -333 890 -337 900 -339 ct 
910 -341 921 -342 934 -342 ct p
918 -299 m  904 -299 892 -297 880 -293 ct 868 -289 857 -282 847 -273 ct 837 -263 828 -250 820 -234 ct 
812 -218 806 -197 801 -172 ct 797 -152 795 -134 795 -117 ct 795 -104 797 -92 801 -82 ct 
804 -72 809 -63 816 -56 ct 822 -49 830 -44 839 -41 ct 848 -37 859 -35 870 -35 ct 
883 -35 894 -37 905 -41 ct 915 -45 924 -51 933 -61 ct 941 -70 948 -83 955 -99 ct 
961 -115 967 -134 971 -158 ct 976 -183 978 -205 978 -222 ct 978 -248 973 -267 964 -280 ct 
954 -293 939 -299 918 -299 ct p ef
1381 -2 m  1375 -1 1369 1 1362 2 ct 1355 2 1348 3 1341 3 ct 1322 3 1308 -1 1299 -9 ct 
1291 -17 1286 -29 1286 -45 ct 1286 -48 1286 -51 1287 -55 ct 1287 -58 1288 -62 1288 -65 ct 
1286 -65 l  1279 -54 1271 -44 1263 -35 ct 1256 -26 1247 -19 1238 -13 ct 1228 -7 1218 -2 1206 1 ct 
1195 4 1181 6 1166 6 ct 1150 6 1136 3 1124 -2 ct 1112 -7 1101 -14 1093 -23 ct 1085 -31 1079 -41 1074 -52 ct 
1070 -64 1068 -75 1068 -87 ct 1068 -104 1071 -118 1076 -131 ct 1080 -143 1087 -153 1095 -162 ct 
1104 -171 1114 -178 1125 -183 ct 1136 -189 1148 -193 1161 -196 ct 1174 -199 1187 -202 1200 -203 ct 
1214 -204 1227 -205 1240 -205 ct 1312 -205 l  1314 -216 l  1315 -221 1316 -226 1317 -231 ct 
1318 -236 1318 -240 1318 -244 ct 1318 -263 1313 -277 1302 -286 ct 1291 -295 1276 -299 1256 -299 ct 
1246 -299 1237 -299 1228 -297 ct 1219 -296 1211 -293 1204 -289 ct 1197 -285 1191 -279 1186 -272 ct 
1181 -266 1176 -257 1173 -246 ct 1118 -255 l  1122 -268 1127 -280 1134 -290 ct 
1141 -301 1150 -310 1161 -318 ct 1172 -325 1186 -331 1202 -336 ct 1218 -340 1237 -342 1259 -342 ct 
1278 -342 1294 -340 1308 -335 ct 1323 -331 1335 -324 1344 -316 ct 1354 -308 1361 -299 1366 -287 ct 
1371 -276 1374 -264 1374 -251 ct 1374 -244 1373 -236 1372 -227 ct 1371 -218 1370 -210 1368 -202 ct 
1345 -85 l  1344 -80 1343 -75 1343 -71 ct 1342 -66 1342 -61 1342 -57 ct 1342 -50 1344 -44 1348 -40 ct 
1352 -37 1358 -35 1367 -35 ct 1370 -35 1373 -35 1376 -35 ct 1380 -36 1383 -36 1385 -37 ct 
1381 -2 l  p
1305 -165 m  1243 -165 l  1235 -165 1226 -165 1217 -165 ct 1209 -165 1200 -164 1191 -162 ct 
1183 -160 1174 -157 1167 -154 ct 1159 -151 1152 -146 1146 -140 ct 1141 -135 1136 -128 1133 -119 ct 
1129 -111 1127 -101 1127 -90 ct 1127 -83 1129 -76 1131 -70 ct 1133 -64 1136 -58 1141 -53 ct 
1145 -48 1151 -44 1158 -41 ct 1164 -38 1172 -37 1181 -37 ct 1199 -37 1215 -40 1229 -46 ct 
1242 -52 1253 -59 1263 -68 ct 1273 -77 1280 -87 1285 -98 ct 1291 -108 1295 -118 1296 -127 ct 
1305 -165 l  p ef
pom

pum
6550 5901 t
327 -2 m  321 -1 315 1 308 2 ct 301 2 294 3 287 3 ct 268 3 254 -1 245 -9 ct 237 -17 232 -29 232 -45 ct 
232 -48 232 -51 233 -55 ct 233 -58 234 -62 234 -65 ct 232 -65 l  225 -54 217 -44 209 -35 ct 
202 -26 193 -19 184 -13 ct 174 -7 164 -2 152 1 ct 141 4 127 6 112 6 ct 96 6 82 3 70 -2 ct 
58 -7 47 -14 39 -23 ct 31 -31 25 -41 20 -52 ct 16 -64 14 -75 14 -87 ct 14 -104 17 -118 22 -131 ct 
26 -143 33 -153 41 -162 ct 50 -171 60 -178 71 -183 ct 82 -189 94 -193 107 -196 ct 
120 -199 133 -202 146 -203 ct 160 -204 173 -205 186 -205 ct 258 -205 l  260 -216 l 
261 -221 262 -226 263 -231 ct 264 -236 264 -240 264 -244 ct 264 -263 259 -277 248 -286 ct 
237 -295 222 -299 202 -299 ct 192 -299 183 -299 174 -297 ct 165 -296 157 -293 150 -289 ct 
143 -285 137 -279 132 -272 ct 127 -266 122 -257 119 -246 ct 64 -255 l  68 -268 73 -280 80 -290 ct 
87 -301 96 -310 107 -318 ct 118 -325 132 -331 148 -336 ct 164 -340 183 -342 205 -342 ct 
224 -342 240 -340 254 -335 ct 269 -331 281 -324 290 -316 ct 300 -308 307 -299 312 -287 ct 
317 -276 320 -264 320 -251 ct 320 -244 319 -236 318 -227 ct 317 -218 316 -210 314 -202 ct 
291 -85 l  290 -80 289 -75 289 -71 ct 288 -66 288 -61 288 -57 ct 288 -50 290 -44 294 -40 ct 
298 -37 304 -35 313 -35 ct 316 -35 319 -35 322 -35 ct 326 -36 329 -36 331 -37 ct 
327 -2 l  p
251 -165 m  189 -165 l  181 -165 172 -165 163 -165 ct 155 -165 146 -164 137 -162 ct 
129 -160 120 -157 113 -154 ct 105 -151 98 -146 92 -140 ct 87 -135 82 -128 79 -119 ct 
75 -111 73 -101 73 -90 ct 73 -83 75 -76 77 -70 ct 79 -64 82 -58 87 -53 ct 91 -48 97 -44 104 -41 ct 
110 -38 118 -37 127 -37 ct 145 -37 161 -40 175 -46 ct 188 -52 199 -59 209 -68 ct 
219 -77 226 -87 231 -98 ct 237 -108 241 -118 242 -127 ct 251 -165 l  p ef
pom
0.003 0.003 0.003 c 9000 3150 m  7600 4000 l  ps
12000 7900 m  11500 7900 l  11500 6650 l  12500 6650 l  12500 7900 l  12000 7900 l 
pc
pum
11750 7351 t
128 6 m  95 6 69 -3 52 -21 ct 35 -39 27 -63 27 -94 ct 27 -117 31 -135 40 -149 ct 
48 -163 59 -174 72 -183 ct 86 -191 101 -196 119 -199 ct 136 -203 154 -204 172 -204 ct 
247 -204 l  247 -223 l  247 -237 246 -248 243 -258 ct 240 -268 235 -276 229 -282 ct 
223 -288 216 -292 207 -295 ct 198 -298 187 -299 175 -299 ct 164 -299 155 -299 146 -297 ct 
137 -296 130 -293 123 -289 ct 117 -285 112 -279 108 -272 ct 104 -265 101 -257 100 -246 ct 
42 -251 l  44 -265 48 -277 54 -288 ct 59 -299 68 -309 78 -317 ct 89 -325 102 -331 118 -335 ct 
134 -340 154 -342 176 -342 ct 219 -342 250 -332 272 -313 ct 293 -294 304 -266 304 -229 ct 
304 -85 l  304 -68 306 -55 310 -47 ct 314 -39 323 -35 335 -35 ct 338 -35 341 -35 344 -35 ct 
347 -36 350 -36 353 -37 ct 353 -2 l  346 0 339 1 332 2 ct 325 3 318 3 310 3 ct 
300 3 290 2 283 -1 ct 275 -4 269 -8 264 -14 ct 260 -20 256 -27 254 -35 ct 251 -43 250 -53 249 -64 ct 
247 -64 l  241 -54 235 -44 227 -35 ct 220 -27 212 -19 202 -13 ct 193 -7 182 -2 170 1 ct 
158 4 144 6 128 6 ct p
141 -36 m  159 -36 174 -39 188 -46 ct 201 -52 212 -60 221 -70 ct 230 -80 236 -91 241 -103 ct 
245 -115 247 -127 247 -138 ct 247 -165 l  186 -165 l  172 -165 159 -164 147 -162 ct 
135 -161 124 -157 115 -152 ct 105 -147 98 -139 93 -130 ct 87 -121 84 -108 84 -93 ct 
84 -75 89 -61 99 -51 ct 109 -41 123 -36 141 -36 ct p ef
pom
[ 51 51 51 51 ] 0 ld
13400 7900 m  12900 7900 l  12900 6650 l  13900 6650 l  13900 7900 l  13400 7900 l 
pc
pum
13150 7351 t
326 -169 m  326 -52 285 7 203 7 ct 178 7 157 2 140 -7 ct 123 -16 109 -31 99 -51 ct 
98 -51 l  98 -46 98 -40 98 -35 ct 97 -29 97 -24 97 -19 ct 96 -14 96 -9 96 -6 ct 
95 -2 95 0 95 1 ct 41 1 l  41 -1 41 -4 42 -9 ct 42 -13 42 -19 42 -25 ct 42 -31 43 -38 43 -45 ct 
43 -53 43 -61 43 -69 ct 43 -460 l  99 -460 l  99 -328 l  99 -322 99 -316 98 -311 ct 
98 -305 98 -300 98 -296 ct 98 -290 98 -286 97 -281 ct 99 -281 l  109 -302 123 -318 140 -327 ct 
157 -336 178 -341 203 -341 ct 245 -341 277 -327 297 -298 ct 317 -270 326 -227 326 -169 ct 
p
268 -167 m  268 -190 266 -210 264 -226 ct 261 -243 256 -256 250 -267 ct 243 -278 235 -286 225 -291 ct 
215 -296 203 -298 189 -298 ct 174 -298 161 -296 150 -291 ct 139 -286 129 -278 122 -268 ct 
114 -257 108 -243 104 -226 ct 101 -209 99 -188 99 -163 ct 99 -139 101 -119 104 -103 ct 
108 -87 114 -73 122 -63 ct 129 -53 139 -45 150 -41 ct 161 -36 174 -34 188 -34 ct 
202 -34 214 -37 224 -41 ct 233 -46 242 -54 248 -64 ct 255 -75 260 -89 263 -105 ct 
266 -122 268 -143 268 -167 ct p ef
pom
14800 7900 m  14300 7900 l  14300 6650 l  15300 6650 l  15300 7900 l  14800 7900 l 
pc
pum
14550 7351 t
85 -170 m  85 -150 87 -133 89 -117 ct 92 -100 97 -86 104 -75 ct 110 -63 119 -54 130 -48 ct 
141 -41 154 -38 170 -38 ct 190 -38 206 -43 220 -54 ct 233 -64 241 -80 244 -102 ct 
301 -102 l  299 -88 295 -74 289 -61 ct 282 -48 274 -37 263 -27 ct 253 -17 240 -9 224 -3 ct 
209 3 192 6 171 6 ct 145 6 123 2 104 -7 ct 86 -16 71 -28 60 -44 ct 48 -60 40 -78 35 -99 ct 
30 -121 27 -144 27 -168 ct 27 -191 29 -211 33 -228 ct 36 -245 42 -260 48 -273 ct 
55 -286 63 -297 72 -306 ct 81 -315 91 -322 102 -327 ct 112 -332 123 -336 135 -338 ct 
147 -341 159 -342 171 -342 ct 190 -342 206 -339 221 -334 ct 236 -329 248 -322 259 -313 ct 
270 -304 278 -293 285 -281 ct 292 -269 296 -256 299 -242 ct 242 -237 l  239 -256 231 -271 220 -282 ct 
208 -293 191 -298 169 -298 ct 153 -298 140 -296 129 -290 ct 119 -285 110 -277 104 -266 ct 
97 -256 92 -242 89 -226 ct 87 -210 85 -191 85 -170 ct p ef
pom
[ ] 0 ld
12100 10400 m  11600 10400 l  11600 9150 l  12600 9150 l  12600 10400 l 
12100 10400 l  pc
pum
11850 9851 t
326 -169 m  326 -52 285 7 203 7 ct 178 7 157 2 140 -7 ct 123 -16 109 -31 99 -51 ct 
98 -51 l  98 -46 98 -40 98 -35 ct 97 -29 97 -24 97 -19 ct 96 -14 96 -9 96 -6 ct 
95 -2 95 0 95 1 ct 41 1 l  41 -1 41 -4 42 -9 ct 42 -13 42 -19 42 -25 ct 42 -31 43 -38 43 -45 ct 
43 -53 43 -61 43 -69 ct 43 -460 l  99 -460 l  99 -328 l  99 -322 99 -316 98 -311 ct 
98 -305 98 -300 98 -296 ct 98 -290 98 -286 97 -281 ct 99 -281 l  109 -302 123 -318 140 -327 ct 
157 -336 178 -341 203 -341 ct 245 -341 277 -327 297 -298 ct 317 -270 326 -227 326 -169 ct 
p
268 -167 m  268 -190 266 -210 264 -226 ct 261 -243 256 -256 250 -267 ct 243 -278 235 -286 225 -291 ct 
215 -296 203 -298 189 -298 ct 174 -298 161 -296 150 -291 ct 139 -286 129 -278 122 -268 ct 
114 -257 108 -243 104 -226 ct 101 -209 99 -188 99 -163 ct 99 -139 101 -119 104 -103 ct 
108 -87 114 -73 122 -63 ct 129 -53 139 -45 150 -41 ct 161 -36 174 -34 188 -34 ct 
202 -34 214 -37 224 -41 ct 233 -46 242 -54 248 -64 ct 255 -75 260 -89 263 -105 ct 
266 -122 268 -143 268 -167 ct p ef
pom
13500 10400 m  13000 10400 l  13000 9150 l  14000 9150 l  14000 10400 l 
13500 10400 l  pc
pum
13250 9851 t
85 -170 m  85 -150 87 -133 89 -117 ct 92 -100 97 -86 104 -75 ct 110 -63 119 -54 130 -48 ct 
141 -41 154 -38 170 -38 ct 190 -38 206 -43 220 -54 ct 233 -64 241 -80 244 -102 ct 
301 -102 l  299 -88 295 -74 289 -61 ct 282 -48 274 -37 263 -27 ct 253 -17 240 -9 224 -3 ct 
209 3 192 6 171 6 ct 145 6 123 2 104 -7 ct 86 -16 71 -28 60 -44 ct 48 -60 40 -78 35 -99 ct 
30 -121 27 -144 27 -168 ct 27 -191 29 -211 33 -228 ct 36 -245 42 -260 48 -273 ct 
55 -286 63 -297 72 -306 ct 81 -315 91 -322 102 -327 ct 112 -332 123 -336 135 -338 ct 
147 -341 159 -342 171 -342 ct 190 -342 206 -339 221 -334 ct 236 -329 248 -322 259 -313 ct 
270 -304 278 -293 285 -281 ct 292 -269 296 -256 299 -242 ct 242 -237 l  239 -256 231 -271 220 -282 ct 
208 -293 191 -298 169 -298 ct 153 -298 140 -296 129 -290 ct 119 -285 110 -277 104 -266 ct 
97 -256 92 -242 89 -226 ct 87 -210 85 -191 85 -170 ct p ef
pom
9700 13400 m  9200 13400 l  9200 12150 l  10200 12150 l  10200 13400 l 
9700 13400 l  pc
pum
9450 12851 t
128 6 m  95 6 69 -3 52 -21 ct 35 -39 27 -63 27 -94 ct 27 -117 31 -135 40 -149 ct 
48 -163 59 -174 72 -183 ct 86 -191 101 -196 119 -199 ct 136 -203 154 -204 172 -204 ct 
247 -204 l  247 -223 l  247 -237 246 -248 243 -258 ct 240 -268 235 -276 229 -282 ct 
223 -288 216 -292 207 -295 ct 198 -298 187 -299 175 -299 ct 164 -299 155 -299 146 -297 ct 
137 -296 130 -293 123 -289 ct 117 -285 112 -279 108 -272 ct 104 -265 101 -257 100 -246 ct 
42 -251 l  44 -265 48 -277 54 -288 ct 59 -299 68 -309 78 -317 ct 89 -325 102 -331 118 -335 ct 
134 -340 154 -342 176 -342 ct 219 -342 250 -332 272 -313 ct 293 -294 304 -266 304 -229 ct 
304 -85 l  304 -68 306 -55 310 -47 ct 314 -39 323 -35 335 -35 ct 338 -35 341 -35 344 -35 ct 
347 -36 350 -36 353 -37 ct 353 -2 l  346 0 339 1 332 2 ct 325 3 318 3 310 3 ct 
300 3 290 2 283 -1 ct 275 -4 269 -8 264 -14 ct 260 -20 256 -27 254 -35 ct 251 -43 250 -53 249 -64 ct 
247 -64 l  241 -54 235 -44 227 -35 ct 220 -27 212 -19 202 -13 ct 193 -7 182 -2 170 1 ct 
158 4 144 6 128 6 ct p
141 -36 m  159 -36 174 -39 188 -46 ct 201 -52 212 -60 221 -70 ct 230 -80 236 -91 241 -103 ct 
245 -115 247 -127 247 -138 ct 247 -165 l  186 -165 l  172 -165 159 -164 147 -162 ct 
135 -161 124 -157 115 -152 ct 105 -147 98 -139 93 -130 ct 87 -121 84 -108 84 -93 ct 
84 -75 89 -61 99 -51 ct 109 -41 123 -36 141 -36 ct p ef
pom
[ 51 51 51 51 ] 0 ld
11100 13400 m  10600 13400 l  10600 12150 l  11600 12150 l  11600 13400 l 
11100 13400 l  pc
pum
10850 12851 t
326 -169 m  326 -52 285 7 203 7 ct 178 7 157 2 140 -7 ct 123 -16 109 -31 99 -51 ct 
98 -51 l  98 -46 98 -40 98 -35 ct 97 -29 97 -24 97 -19 ct 96 -14 96 -9 96 -6 ct 
95 -2 95 0 95 1 ct 41 1 l  41 -1 41 -4 42 -9 ct 42 -13 42 -19 42 -25 ct 42 -31 43 -38 43 -45 ct 
43 -53 43 -61 43 -69 ct 43 -460 l  99 -460 l  99 -328 l  99 -322 99 -316 98 -311 ct 
98 -305 98 -300 98 -296 ct 98 -290 98 -286 97 -281 ct 99 -281 l  109 -302 123 -318 140 -327 ct 
157 -336 178 -341 203 -341 ct 245 -341 277 -327 297 -298 ct 317 -270 326 -227 326 -169 ct 
p
268 -167 m  268 -190 266 -210 264 -226 ct 261 -243 256 -256 250 -267 ct 243 -278 235 -286 225 -291 ct 
215 -296 203 -298 189 -298 ct 174 -298 161 -296 150 -291 ct 139 -286 129 -278 122 -268 ct 
114 -257 108 -243 104 -226 ct 101 -209 99 -188 99 -163 ct 99 -139 101 -119 104 -103 ct 
108 -87 114 -73 122 -63 ct 129 -53 139 -45 150 -41 ct 161 -36 174 -34 188 -34 ct 
202 -34 214 -37 224 -41 ct 233 -46 242 -54 248 -64 ct 255 -75 260 -89 263 -105 ct 
266 -122 268 -143 268 -167 ct p ef
pom
12500 13400 m  12000 13400 l  12000 12150 l  13000 12150 l  13000 13400 l 
12500 13400 l  pc
pum
12250 12851 t
85 -170 m  85 -150 87 -133 89 -117 ct 92 -100 97 -86 104 -75 ct 110 -63 119 -54 130 -48 ct 
141 -41 154 -38 170 -38 ct 190 -38 206 -43 220 -54 ct 233 -64 241 -80 244 -102 ct 
301 -102 l  299 -88 295 -74 289 -61 ct 282 -48 274 -37 263 -27 ct 253 -17 240 -9 224 -3 ct 
209 3 192 6 171 6 ct 145 6 123 2 104 -7 ct 86 -16 71 -28 60 -44 ct 48 -60 40 -78 35 -99 ct 
30 -121 27 -144 27 -168 ct 27 -191 29 -211 33 -228 ct 36 -245 42 -260 48 -273 ct 
55 -286 63 -297 72 -306 ct 81 -315 91 -322 102 -327 ct 112 -332 123 -336 135 -338 ct 
147 -341 159 -342 171 -342 ct 190 -342 206 -339 221 -334 ct 236 -329 248 -322 259 -313 ct 
270 -304 278 -293 285 -281 ct 292 -269 296 -256 299 -242 ct 242 -237 l  239 -256 231 -271 220 -282 ct 
208 -293 191 -298 169 -298 ct 153 -298 140 -296 129 -290 ct 119 -285 110 -277 104 -266 ct 
97 -256 92 -242 89 -226 ct 87 -210 85 -191 85 -170 ct p ef
pom
[ ] 0 ld
14700 13400 m  14200 13400 l  14200 12150 l  15200 12150 l  15200 13400 l 
14700 13400 l  pc
pum
14450 12851 t
128 6 m  95 6 69 -3 52 -21 ct 35 -39 27 -63 27 -94 ct 27 -117 31 -135 40 -149 ct 
48 -163 59 -174 72 -183 ct 86 -191 101 -196 119 -199 ct 136 -203 154 -204 172 -204 ct 
247 -204 l  247 -223 l  247 -237 246 -248 243 -258 ct 240 -268 235 -276 229 -282 ct 
223 -288 216 -292 207 -295 ct 198 -298 187 -299 175 -299 ct 164 -299 155 -299 146 -297 ct 
137 -296 130 -293 123 -289 ct 117 -285 112 -279 108 -272 ct 104 -265 101 -257 100 -246 ct 
42 -251 l  44 -265 48 -277 54 -288 ct 59 -299 68 -309 78 -317 ct 89 -325 102 -331 118 -335 ct 
134 -340 154 -342 176 -342 ct 219 -342 250 -332 272 -313 ct 293 -294 304 -266 304 -229 ct 
304 -85 l  304 -68 306 -55 310 -47 ct 314 -39 323 -35 335 -35 ct 338 -35 341 -35 344 -35 ct 
347 -36 350 -36 353 -37 ct 353 -2 l  346 0 339 1 332 2 ct 325 3 318 3 310 3 ct 
300 3 290 2 283 -1 ct 275 -4 269 -8 264 -14 ct 260 -20 256 -27 254 -35 ct 251 -43 250 -53 249 -64 ct 
247 -64 l  241 -54 235 -44 227 -35 ct 220 -27 212 -19 202 -13 ct 193 -7 182 -2 170 1 ct 
158 4 144 6 128 6 ct p
141 -36 m  159 -36 174 -39 188 -46 ct 201 -52 212 -60 221 -70 ct 230 -80 236 -91 241 -103 ct 
245 -115 247 -127 247 -138 ct 247 -165 l  186 -165 l  172 -165 159 -164 147 -162 ct 
135 -161 124 -157 115 -152 ct 105 -147 98 -139 93 -130 ct 87 -121 84 -108 84 -93 ct 
84 -75 89 -61 99 -51 ct 109 -41 123 -36 141 -36 ct p ef
pom
[ 51 51 51 51 ] 0 ld
16100 13400 m  15600 13400 l  15600 12150 l  16600 12150 l  16600 13400 l 
16100 13400 l  pc
pum
15850 12851 t
326 -169 m  326 -52 285 7 203 7 ct 178 7 157 2 140 -7 ct 123 -16 109 -31 99 -51 ct 
98 -51 l  98 -46 98 -40 98 -35 ct 97 -29 97 -24 97 -19 ct 96 -14 96 -9 96 -6 ct 
95 -2 95 0 95 1 ct 41 1 l  41 -1 41 -4 42 -9 ct 42 -13 42 -19 42 -25 ct 42 -31 43 -38 43 -45 ct 
43 -53 43 -61 43 -69 ct 43 -460 l  99 -460 l  99 -328 l  99 -322 99 -316 98 -311 ct 
98 -305 98 -300 98 -296 ct 98 -290 98 -286 97 -281 ct 99 -281 l  109 -302 123 -318 140 -327 ct 
157 -336 178 -341 203 -341 ct 245 -341 277 -327 297 -298 ct 317 -270 326 -227 326 -169 ct 
p
268 -167 m  268 -190 266 -210 264 -226 ct 261 -243 256 -256 250 -267 ct 243 -278 235 -286 225 -291 ct 
215 -296 203 -298 189 -298 ct 174 -298 161 -296 150 -291 ct 139 -286 129 -278 122 -268 ct 
114 -257 108 -243 104 -226 ct 101 -209 99 -188 99 -163 ct 99 -139 101 -119 104 -103 ct 
108 -87 114 -73 122 -63 ct 129 -53 139 -45 150 -41 ct 161 -36 174 -34 188 -34 ct 
202 -34 214 -37 224 -41 ct 233 -46 242 -54 248 -64 ct 255 -75 260 -89 263 -105 ct 
266 -122 268 -143 268 -167 ct p ef
pom
17500 13400 m  17000 13400 l  17000 12150 l  18000 12150 l  18000 13400 l 
17500 13400 l  pc
pum
17250 12851 t
85 -170 m  85 -150 87 -133 89 -117 ct 92 -100 97 -86 104 -75 ct 110 -63 119 -54 130 -48 ct 
141 -41 154 -38 170 -38 ct 190 -38 206 -43 220 -54 ct 233 -64 241 -80 244 -102 ct 
301 -102 l  299 -88 295 -74 289 -61 ct 282 -48 274 -37 263 -27 ct 253 -17 240 -9 224 -3 ct 
209 3 192 6 171 6 ct 145 6 123 2 104 -7 ct 86 -16 71 -28 60 -44 ct 48 -60 40 -78 35 -99 ct 
30 -121 27 -144 27 -168 ct 27 -191 29 -211 33 -228 ct 36 -245 42 -260 48 -273 ct 
55 -286 63 -297 72 -306 ct 81 -315 91 -322 102 -327 ct 112 -332 123 -336 135 -338 ct 
147 -341 159 -342 171 -342 ct 190 -342 206 -339 221 -334 ct 236 -329 248 -322 259 -313 ct 
270 -304 278 -293 285 -281 ct 292 -269 296 -256 299 -242 ct 242 -237 l  239 -256 231 -271 220 -282 ct 
208 -293 191 -298 169 -298 ct 153 -298 140 -296 129 -290 ct 119 -285 110 -277 104 -266 ct 
97 -256 92 -242 89 -226 ct 87 -210 85 -191 85 -170 ct p ef
pom
[ ] 0 ld
9000 3150 m  10400 4000 l  ps
10400 5250 m  12000 6650 l  ps
12000 7900 m  12100 9150 l  ps
12100 10400 m  9700 12150 l  ps
12000 7900 m  13500 9150 l  ps
13500 10400 m  14700 12150 l  ps

pum
11250 8439 t
0.402 0.800 0.402 c 145 -38 m  157 -38 167 -40 177 -43 ct 186 -47 194 -51 202 -58 ct 
209 -64 215 -71 221 -80 ct 226 -89 231 -99 235 -109 ct 283 -94 l  278 -79 271 -65 262 -52 ct 
254 -40 244 -30 232 -21 ct 221 -12 208 -6 193 -1 ct 179 4 162 6 144 6 ct 123 6 104 3 89 -4 ct 
73 -10 60 -19 50 -30 ct 40 -42 33 -56 28 -71 ct 23 -87 21 -104 21 -123 ct 21 -131 21 -140 22 -150 ct 
23 -159 24 -169 26 -178 ct 30 -201 36 -221 43 -238 ct 50 -255 58 -270 67 -282 ct 
76 -294 85 -304 96 -312 ct 106 -319 116 -326 127 -330 ct 138 -335 149 -338 160 -339 ct 
172 -341 183 -342 194 -342 ct 212 -342 228 -340 242 -335 ct 256 -330 268 -323 278 -315 ct 
288 -306 295 -296 301 -284 ct 306 -271 309 -258 310 -243 ct 255 -236 l  255 -245 253 -253 250 -261 ct 
247 -269 243 -275 238 -281 ct 233 -286 226 -290 219 -294 ct 211 -297 202 -298 192 -298 ct 
178 -298 165 -296 153 -292 ct 142 -288 132 -281 123 -272 ct 114 -263 106 -250 100 -235 ct 
93 -220 88 -202 84 -180 ct 82 -170 80 -160 79 -149 ct 78 -138 78 -129 78 -121 ct 
78 -95 83 -74 94 -60 ct 104 -45 122 -38 145 -38 ct p ef
645 -2 m  639 -1 633 1 626 2 ct 619 2 612 3 605 3 ct 586 3 572 -1 563 -9 ct 555 -17 550 -29 550 -45 ct 
550 -48 550 -51 551 -55 ct 551 -58 552 -62 552 -65 ct 550 -65 l  543 -54 535 -44 527 -35 ct 
520 -26 511 -19 502 -13 ct 492 -7 482 -2 470 1 ct 459 4 445 6 430 6 ct 414 6 400 3 388 -2 ct 
376 -7 365 -14 357 -23 ct 349 -31 343 -41 338 -52 ct 334 -64 332 -75 332 -87 ct 
332 -104 335 -118 340 -131 ct 344 -143 351 -153 359 -162 ct 368 -171 378 -178 389 -183 ct 
400 -189 412 -193 425 -196 ct 438 -199 451 -202 464 -203 ct 478 -204 491 -205 504 -205 ct 
576 -205 l  578 -216 l  579 -221 580 -226 581 -231 ct 582 -236 582 -240 582 -244 ct 
582 -263 577 -277 566 -286 ct 555 -295 540 -299 520 -299 ct 510 -299 501 -299 492 -297 ct 
483 -296 475 -293 468 -289 ct 461 -285 455 -279 450 -272 ct 445 -266 440 -257 437 -246 ct 
382 -255 l  386 -268 391 -280 398 -290 ct 405 -301 414 -310 425 -318 ct 436 -325 450 -331 466 -336 ct 
482 -340 501 -342 523 -342 ct 542 -342 558 -340 572 -335 ct 587 -331 599 -324 608 -316 ct 
618 -308 625 -299 630 -287 ct 635 -276 638 -264 638 -251 ct 638 -244 637 -236 636 -227 ct 
635 -218 634 -210 632 -202 ct 609 -85 l  608 -80 607 -75 607 -71 ct 606 -66 606 -61 606 -57 ct 
606 -50 608 -44 612 -40 ct 616 -37 622 -35 631 -35 ct 634 -35 637 -35 640 -35 ct 
644 -36 647 -36 649 -37 ct 645 -2 l  p
569 -165 m  507 -165 l  499 -165 490 -165 481 -165 ct 473 -165 464 -164 455 -162 ct 
447 -160 438 -157 431 -154 ct 423 -151 416 -146 410 -140 ct 405 -135 400 -128 397 -119 ct 
393 -111 391 -101 391 -90 ct 391 -83 393 -76 395 -70 ct 397 -64 400 -58 405 -53 ct 
409 -48 415 -44 422 -41 ct 428 -38 436 -37 445 -37 ct 463 -37 479 -40 493 -46 ct 
506 -52 517 -59 527 -68 ct 537 -77 544 -87 549 -98 ct 555 -108 559 -118 560 -127 ct 
569 -165 l  p ef
pom

pum
9151 14039 t
145 -38 m  157 -38 167 -40 177 -43 ct 186 -47 194 -51 202 -58 ct 209 -64 215 -71 221 -80 ct 
226 -89 231 -99 235 -109 ct 283 -94 l  278 -79 271 -65 262 -52 ct 254 -40 244 -30 232 -21 ct 
221 -12 208 -6 193 -1 ct 179 4 162 6 144 6 ct 123 6 104 3 89 -4 ct 73 -10 60 -19 50 -30 ct 
40 -42 33 -56 28 -71 ct 23 -87 21 -104 21 -123 ct 21 -131 21 -140 22 -150 ct 23 -159 24 -169 26 -178 ct 
30 -201 36 -221 43 -238 ct 50 -255 58 -270 67 -282 ct 76 -294 85 -304 96 -312 ct 
106 -319 116 -326 127 -330 ct 138 -335 149 -338 160 -339 ct 172 -341 183 -342 194 -342 ct 
212 -342 228 -340 242 -335 ct 256 -330 268 -323 278 -315 ct 288 -306 295 -296 301 -284 ct 
306 -271 309 -258 310 -243 ct 255 -236 l  255 -245 253 -253 250 -261 ct 247 -269 243 -275 238 -281 ct 
233 -286 226 -290 219 -294 ct 211 -297 202 -298 192 -298 ct 178 -298 165 -296 153 -292 ct 
142 -288 132 -281 123 -272 ct 114 -263 106 -250 100 -235 ct 93 -220 88 -202 84 -180 ct 
82 -170 80 -160 79 -149 ct 78 -138 78 -129 78 -121 ct 78 -95 83 -74 94 -60 ct 104 -45 122 -38 145 -38 ct 
p ef
645 -2 m  639 -1 633 1 626 2 ct 619 2 612 3 605 3 ct 586 3 572 -1 563 -9 ct 555 -17 550 -29 550 -45 ct 
550 -48 550 -51 551 -55 ct 551 -58 552 -62 552 -65 ct 550 -65 l  543 -54 535 -44 527 -35 ct 
520 -26 511 -19 502 -13 ct 492 -7 482 -2 470 1 ct 459 4 445 6 430 6 ct 414 6 400 3 388 -2 ct 
376 -7 365 -14 357 -23 ct 349 -31 343 -41 338 -52 ct 334 -64 332 -75 332 -87 ct 
332 -104 335 -118 340 -131 ct 344 -143 351 -153 359 -162 ct 368 -171 378 -178 389 -183 ct 
400 -189 412 -193 425 -196 ct 438 -199 451 -202 464 -203 ct 478 -204 491 -205 504 -205 ct 
576 -205 l  578 -216 l  579 -221 580 -226 581 -231 ct 582 -236 582 -240 582 -244 ct 
582 -263 577 -277 566 -286 ct 555 -295 540 -299 520 -299 ct 510 -299 501 -299 492 -297 ct 
483 -296 475 -293 468 -289 ct 461 -285 455 -279 450 -272 ct 445 -266 440 -257 437 -246 ct 
382 -255 l  386 -268 391 -280 398 -290 ct 405 -301 414 -310 425 -318 ct 436 -325 450 -331 466 -336 ct 
482 -340 501 -342 523 -342 ct 542 -342 558 -340 572 -335 ct 587 -331 599 -324 608 -316 ct 
618 -308 625 -299 630 -287 ct 635 -276 638 -264 638 -251 ct 638 -244 637 -236 636 -227 ct 
635 -218 634 -210 632 -202 ct 609 -85 l  608 -80 607 -75 607 -71 ct 606 -66 606 -61 606 -57 ct 
606 -50 608 -44 612 -40 ct 616 -37 622 -35 631 -35 ct 634 -35 637 -35 640 -35 ct 
644 -36 647 -36 649 -37 ct 645 -2 l  p
569 -165 m  507 -165 l  499 -165 490 -165 481 -165 ct 473 -165 464 -164 455 -162 ct 
447 -160 438 -157 431 -154 ct 423 -151 416 -146 410 -140 ct 405 -135 400 -128 397 -119 ct 
393 -111 391 -101 391 -90 ct 391 -83 393 -76 395 -70 ct 397 -64 400 -58 405 -53 ct 
409 -48 415 -44 422 -41 ct 428 -38 436 -37 445 -37 ct 463 -37 479 -40 493 -46 ct 
506 -52 517 -59 527 -68 ct 537 -77 544 -87 549 -98 ct 555 -108 559 -118 560 -127 ct 
569 -165 l  p ef
900 -342 m  916 -342 931 -340 944 -334 ct 957 -329 967 -322 976 -312 ct 985 -303 991 -291 996 -278 ct 
1000 -264 1003 -249 1003 -232 ct 1003 -222 1002 -211 1001 -198 ct 1000 -186 999 -173 996 -160 ct 
991 -131 983 -106 974 -85 ct 965 -64 954 -47 941 -33 ct 928 -20 914 -10 897 -3 ct 
881 3 862 6 842 6 ct 816 6 796 1 780 -10 ct 764 -21 753 -36 746 -55 ct 745 -55 l 
744 -50 743 -44 741 -38 ct 740 -32 738 -26 737 -21 ct 736 -16 735 -11 734 -7 ct 
733 -3 732 -1 732 0 ct 678 0 l  679 -2 679 -5 680 -10 ct 682 -14 683 -19 684 -26 ct 
685 -32 687 -39 689 -46 ct 690 -54 692 -61 693 -69 ct 769 -461 l  825 -461 l 
799 -329 l  798 -323 797 -318 796 -312 ct 794 -307 793 -302 792 -298 ct 791 -294 790 -290 789 -286 ct 
790 -286 l  797 -296 805 -304 813 -311 ct 820 -318 829 -324 838 -329 ct 846 -333 856 -337 866 -339 ct 
876 -341 887 -342 900 -342 ct p
884 -299 m  870 -299 858 -297 846 -293 ct 834 -289 823 -282 813 -273 ct 803 -263 794 -250 786 -234 ct 
778 -218 772 -197 767 -172 ct 763 -152 761 -134 761 -117 ct 761 -104 763 -92 767 -82 ct 
770 -72 775 -63 782 -56 ct 788 -49 796 -44 805 -41 ct 814 -37 825 -35 836 -35 ct 
849 -35 860 -37 871 -41 ct 881 -45 890 -51 899 -61 ct 907 -70 914 -83 921 -99 ct 
927 -115 933 -134 937 -158 ct 942 -183 944 -205 944 -222 ct 944 -248 939 -267 930 -280 ct 
920 -293 905 -299 884 -299 ct p ef
1347 -2 m  1341 -1 1335 1 1328 2 ct 1321 2 1314 3 1307 3 ct 1288 3 1274 -1 1265 -9 ct 
1257 -17 1252 -29 1252 -45 ct 1252 -48 1252 -51 1253 -55 ct 1253 -58 1254 -62 1254 -65 ct 
1252 -65 l  1245 -54 1237 -44 1229 -35 ct 1222 -26 1213 -19 1204 -13 ct 1194 -7 1184 -2 1172 1 ct 
1161 4 1147 6 1132 6 ct 1116 6 1102 3 1090 -2 ct 1078 -7 1067 -14 1059 -23 ct 1051 -31 1045 -41 1040 -52 ct 
1036 -64 1034 -75 1034 -87 ct 1034 -104 1037 -118 1042 -131 ct 1046 -143 1053 -153 1061 -162 ct 
1070 -171 1080 -178 1091 -183 ct 1102 -189 1114 -193 1127 -196 ct 1140 -199 1153 -202 1166 -203 ct 
1180 -204 1193 -205 1206 -205 ct 1278 -205 l  1280 -216 l  1281 -221 1282 -226 1283 -231 ct 
1284 -236 1284 -240 1284 -244 ct 1284 -263 1279 -277 1268 -286 ct 1257 -295 1242 -299 1222 -299 ct 
1212 -299 1203 -299 1194 -297 ct 1185 -296 1177 -293 1170 -289 ct 1163 -285 1157 -279 1152 -272 ct 
1147 -266 1142 -257 1139 -246 ct 1084 -255 l  1088 -268 1093 -280 1100 -290 ct 
1107 -301 1116 -310 1127 -318 ct 1138 -325 1152 -331 1168 -336 ct 1184 -340 1203 -342 1225 -342 ct 
1244 -342 1260 -340 1274 -335 ct 1289 -331 1301 -324 1310 -316 ct 1320 -308 1327 -299 1332 -287 ct 
1337 -276 1340 -264 1340 -251 ct 1340 -244 1339 -236 1338 -227 ct 1337 -218 1336 -210 1334 -202 ct 
1311 -85 l  1310 -80 1309 -75 1309 -71 ct 1308 -66 1308 -61 1308 -57 ct 1308 -50 1310 -44 1314 -40 ct 
1318 -37 1324 -35 1333 -35 ct 1336 -35 1339 -35 1342 -35 ct 1346 -36 1349 -36 1351 -37 ct 
1347 -2 l  p
1271 -165 m  1209 -165 l  1201 -165 1192 -165 1183 -165 ct 1175 -165 1166 -164 1157 -162 ct 
1149 -160 1140 -157 1133 -154 ct 1125 -151 1118 -146 1112 -140 ct 1107 -135 1102 -128 1099 -119 ct 
1095 -111 1093 -101 1093 -90 ct 1093 -83 1095 -76 1097 -70 ct 1099 -64 1102 -58 1107 -53 ct 
1111 -48 1117 -44 1124 -41 ct 1130 -38 1138 -37 1147 -37 ct 1165 -37 1181 -40 1195 -46 ct 
1208 -52 1219 -59 1229 -68 ct 1239 -77 1246 -87 1251 -98 ct 1257 -108 1261 -118 1262 -127 ct 
1271 -165 l  p ef
pom

pum
14351 14039 t
145 -38 m  157 -38 167 -40 177 -43 ct 186 -47 194 -51 202 -58 ct 209 -64 215 -71 221 -80 ct 
226 -89 231 -99 235 -109 ct 283 -94 l  278 -79 271 -65 262 -52 ct 254 -40 244 -30 232 -21 ct 
221 -12 208 -6 193 -1 ct 179 4 162 6 144 6 ct 123 6 104 3 89 -4 ct 73 -10 60 -19 50 -30 ct 
40 -42 33 -56 28 -71 ct 23 -87 21 -104 21 -123 ct 21 -131 21 -140 22 -150 ct 23 -159 24 -169 26 -178 ct 
30 -201 36 -221 43 -238 ct 50 -255 58 -270 67 -282 ct 76 -294 85 -304 96 -312 ct 
106 -319 116 -326 127 -330 ct 138 -335 149 -338 160 -339 ct 172 -341 183 -342 194 -342 ct 
212 -342 228 -340 242 -335 ct 256 -330 268 -323 278 -315 ct 288 -306 295 -296 301 -284 ct 
306 -271 309 -258 310 -243 ct 255 -236 l  255 -245 253 -253 250 -261 ct 247 -269 243 -275 238 -281 ct 
233 -286 226 -290 219 -294 ct 211 -297 202 -298 192 -298 ct 178 -298 165 -296 153 -292 ct 
142 -288 132 -281 123 -272 ct 114 -263 106 -250 100 -235 ct 93 -220 88 -202 84 -180 ct 
82 -170 80 -160 79 -149 ct 78 -138 78 -129 78 -121 ct 78 -95 83 -74 94 -60 ct 104 -45 122 -38 145 -38 ct 
p ef
645 -2 m  639 -1 633 1 626 2 ct 619 2 612 3 605 3 ct 586 3 572 -1 563 -9 ct 555 -17 550 -29 550 -45 ct 
550 -48 550 -51 551 -55 ct 551 -58 552 -62 552 -65 ct 550 -65 l  543 -54 535 -44 527 -35 ct 
520 -26 511 -19 502 -13 ct 492 -7 482 -2 470 1 ct 459 4 445 6 430 6 ct 414 6 400 3 388 -2 ct 
376 -7 365 -14 357 -23 ct 349 -31 343 -41 338 -52 ct 334 -64 332 -75 332 -87 ct 
332 -104 335 -118 340 -131 ct 344 -143 351 -153 359 -162 ct 368 -171 378 -178 389 -183 ct 
400 -189 412 -193 425 -196 ct 438 -199 451 -202 464 -203 ct 478 -204 491 -205 504 -205 ct 
576 -205 l  578 -216 l  579 -221 580 -226 581 -231 ct 582 -236 582 -240 582 -244 ct 
582 -263 577 -277 566 -286 ct 555 -295 540 -299 520 -299 ct 510 -299 501 -299 492 -297 ct 
483 -296 475 -293 468 -289 ct 461 -285 455 -279 450 -272 ct 445 -266 440 -257 437 -246 ct 
382 -255 l  386 -268 391 -280 398 -290 ct 405 -301 414 -310 425 -318 ct 436 -325 450 -331 466 -336 ct 
482 -340 501 -342 523 -342 ct 542 -342 558 -340 572 -335 ct 587 -331 599 -324 608 -316 ct 
618 -308 625 -299 630 -287 ct 635 -276 638 -264 638 -251 ct 638 -244 637 -236 636 -227 ct 
635 -218 634 -210 632 -202 ct 609 -85 l  608 -80 607 -75 607 -71 ct 606 -66 606 -61 606 -57 ct 
606 -50 608 -44 612 -40 ct 616 -37 622 -35 631 -35 ct 634 -35 637 -35 640 -35 ct 
644 -36 647 -36 649 -37 ct 645 -2 l  p
569 -165 m  507 -165 l  499 -165 490 -165 481 -165 ct 473 -165 464 -164 455 -162 ct 
447 -160 438 -157 431 -154 ct 423 -151 416 -146 410 -140 ct 405 -135 400 -128 397 -119 ct 
393 -111 391 -101 391 -90 ct 391 -83 393 -76 395 -70 ct 397 -64 400 -58 405 -53 ct 
409 -48 415 -44 422 -41 ct 428 -38 436 -37 445 -37 ct 463 -37 479 -40 493 -46 ct 
506 -52 517 -59 527 -68 ct 537 -77 544 -87 549 -98 ct 555 -108 559 -118 560 -127 ct 
569 -165 l  p ef
814 -38 m  826 -38 836 -40 846 -43 ct 855 -47 863 -51 871 -58 ct 878 -64 884 -71 890 -80 ct 
895 -89 900 -99 904 -109 ct 952 -94 l  947 -79 940 -65 931 -52 ct 923 -40 913 -30 901 -21 ct 
890 -12 877 -6 862 -1 ct 848 4 831 6 813 6 ct 792 6 773 3 758 -4 ct 742 -10 729 -19 719 -30 ct 
709 -42 702 -56 697 -71 ct 692 -87 690 -104 690 -123 ct 690 -131 690 -140 691 -150 ct 
692 -159 693 -169 695 -178 ct 699 -201 705 -221 712 -238 ct 719 -255 727 -270 736 -282 ct 
745 -294 754 -304 765 -312 ct 775 -319 785 -326 796 -330 ct 807 -335 818 -338 829 -339 ct 
841 -341 852 -342 863 -342 ct 881 -342 897 -340 911 -335 ct 925 -330 937 -323 947 -315 ct 
957 -306 964 -296 970 -284 ct 975 -271 978 -258 979 -243 ct 924 -236 l  924 -245 922 -253 919 -261 ct 
916 -269 912 -275 907 -281 ct 902 -286 895 -290 888 -294 ct 880 -297 871 -298 861 -298 ct 
847 -298 834 -296 822 -292 ct 811 -288 801 -281 792 -272 ct 783 -263 775 -250 769 -235 ct 
762 -220 757 -202 753 -180 ct 751 -170 749 -160 748 -149 ct 747 -138 747 -129 747 -121 ct 
747 -95 752 -74 763 -60 ct 773 -45 791 -38 814 -38 ct p ef
1313 -2 m  1307 -1 1301 1 1294 2 ct 1287 2 1280 3 1273 3 ct 1254 3 1240 -1 1231 -9 ct 
1223 -17 1218 -29 1218 -45 ct 1218 -48 1218 -51 1219 -55 ct 1219 -58 1220 -62 1220 -65 ct 
1218 -65 l  1211 -54 1203 -44 1195 -35 ct 1188 -26 1179 -19 1170 -13 ct 1160 -7 1150 -2 1138 1 ct 
1127 4 1113 6 1098 6 ct 1082 6 1068 3 1056 -2 ct 1044 -7 1033 -14 1025 -23 ct 1017 -31 1011 -41 1006 -52 ct 
1002 -64 1000 -75 1000 -87 ct 1000 -104 1003 -118 1008 -131 ct 1012 -143 1019 -153 1027 -162 ct 
1036 -171 1046 -178 1057 -183 ct 1068 -189 1080 -193 1093 -196 ct 1106 -199 1119 -202 1132 -203 ct 
1146 -204 1159 -205 1172 -205 ct 1244 -205 l  1246 -216 l  1247 -221 1248 -226 1249 -231 ct 
1250 -236 1250 -240 1250 -244 ct 1250 -263 1245 -277 1234 -286 ct 1223 -295 1208 -299 1188 -299 ct 
1178 -299 1169 -299 1160 -297 ct 1151 -296 1143 -293 1136 -289 ct 1129 -285 1123 -279 1118 -272 ct 
1113 -266 1108 -257 1105 -246 ct 1050 -255 l  1054 -268 1059 -280 1066 -290 ct 
1073 -301 1082 -310 1093 -318 ct 1104 -325 1118 -331 1134 -336 ct 1150 -340 1169 -342 1191 -342 ct 
1210 -342 1226 -340 1240 -335 ct 1255 -331 1267 -324 1276 -316 ct 1286 -308 1293 -299 1298 -287 ct 
1303 -276 1306 -264 1306 -251 ct 1306 -244 1305 -236 1304 -227 ct 1303 -218 1302 -210 1300 -202 ct 
1277 -85 l  1276 -80 1275 -75 1275 -71 ct 1274 -66 1274 -61 1274 -57 ct 1274 -50 1276 -44 1280 -40 ct 
1284 -37 1290 -35 1299 -35 ct 1302 -35 1305 -35 1308 -35 ct 1312 -36 1315 -36 1317 -37 ct 
1313 -2 l  p
1237 -165 m  1175 -165 l  1167 -165 1158 -165 1149 -165 ct 1141 -165 1132 -164 1123 -162 ct 
1115 -160 1106 -157 1099 -154 ct 1091 -151 1084 -146 1078 -140 ct 1073 -135 1068 -128 1065 -119 ct 
1061 -111 1059 -101 1059 -90 ct 1059 -83 1061 -76 1063 -70 ct 1065 -64 1068 -58 1073 -53 ct 
1077 -48 1083 -44 1090 -41 ct 1096 -38 1104 -37 1113 -37 ct 1131 -37 1147 -40 1161 -46 ct 
1174 -52 1185 -59 1195 -68 ct 1205 -77 1212 -87 1217 -98 ct 1223 -108 1227 -118 1228 -127 ct 
1237 -165 l  p ef
pom
[ 51 51 51 51 ] 0 ld
0.003 0.003 0.003 c 5600 13500 m  5100 13500 l  5100 12250 l  6100 12250 l 
6100 13500 l  5600 13500 l  pc
pum
5350 12951 t
326 -169 m  326 -52 285 7 203 7 ct 178 7 157 2 140 -7 ct 123 -16 109 -31 99 -51 ct 
98 -51 l  98 -46 98 -40 98 -35 ct 97 -29 97 -24 97 -19 ct 96 -14 96 -9 96 -6 ct 
95 -2 95 0 95 1 ct 41 1 l  41 -1 41 -4 42 -9 ct 42 -13 42 -19 42 -25 ct 42 -31 43 -38 43 -45 ct 
43 -53 43 -61 43 -69 ct 43 -460 l  99 -460 l  99 -328 l  99 -322 99 -316 98 -311 ct 
98 -305 98 -300 98 -296 ct 98 -290 98 -286 97 -281 ct 99 -281 l  109 -302 123 -318 140 -327 ct 
157 -336 178 -341 203 -341 ct 245 -341 277 -327 297 -298 ct 317 -270 326 -227 326 -169 ct 
p
268 -167 m  268 -190 266 -210 264 -226 ct 261 -243 256 -256 250 -267 ct 243 -278 235 -286 225 -291 ct 
215 -296 203 -298 189 -298 ct 174 -298 161 -296 150 -291 ct 139 -286 129 -278 122 -268 ct 
114 -257 108 -243 104 -226 ct 101 -209 99 -188 99 -163 ct 99 -139 101 -119 104 -103 ct 
108 -87 114 -73 122 -63 ct 129 -53 139 -45 150 -41 ct 161 -36 174 -34 188 -34 ct 
202 -34 214 -37 224 -41 ct 233 -46 242 -54 248 -64 ct 255 -75 260 -89 263 -105 ct 
266 -122 268 -143 268 -167 ct p ef
pom
7000 13500 m  6500 13500 l  6500 12250 l  7500 12250 l  7500 13500 l  7000 13500 l 
pc
pum
6750 12951 t
85 -170 m  85 -150 87 -133 89 -117 ct 92 -100 97 -86 104 -75 ct 110 -63 119 -54 130 -48 ct 
141 -41 154 -38 170 -38 ct 190 -38 206 -43 220 -54 ct 233 -64 241 -80 244 -102 ct 
301 -102 l  299 -88 295 -74 289 -61 ct 282 -48 274 -37 263 -27 ct 253 -17 240 -9 224 -3 ct 
209 3 192 6 171 6 ct 145 6 123 2 104 -7 ct 86 -16 71 -28 60 -44 ct 48 -60 40 -78 35 -99 ct 
30 -121 27 -144 27 -168 ct 27 -191 29 -211 33 -228 ct 36 -245 42 -260 48 -273 ct 
55 -286 63 -297 72 -306 ct 81 -315 91 -322 102 -327 ct 112 -332 123 -336 135 -338 ct 
147 -341 159 -342 171 -342 ct 190 -342 206 -339 221 -334 ct 236 -329 248 -322 259 -313 ct 
270 -304 278 -293 285 -281 ct 292 -269 296 -256 299 -242 ct 242 -237 l  239 -256 231 -271 220 -282 ct 
208 -293 191 -298 169 -298 ct 153 -298 140 -296 129 -290 ct 119 -285 110 -277 104 -266 ct 
97 -256 92 -242 89 -226 ct 87 -210 85 -191 85 -170 ct p ef
pom
4200 10400 m  3700 10400 l  3700 9150 l  4700 9150 l  4700 10400 l  4200 10400 l 
pc
pum
3950 9851 t
128 6 m  95 6 69 -3 52 -21 ct 35 -39 27 -63 27 -94 ct 27 -117 31 -135 40 -149 ct 
48 -163 59 -174 72 -183 ct 86 -191 101 -196 119 -199 ct 136 -203 154 -204 172 -204 ct 
247 -204 l  247 -223 l  247 -237 246 -248 243 -258 ct 240 -268 235 -276 229 -282 ct 
223 -288 216 -292 207 -295 ct 198 -298 187 -299 175 -299 ct 164 -299 155 -299 146 -297 ct 
137 -296 130 -293 123 -289 ct 117 -285 112 -279 108 -272 ct 104 -265 101 -257 100 -246 ct 
42 -251 l  44 -265 48 -277 54 -288 ct 59 -299 68 -309 78 -317 ct 89 -325 102 -331 118 -335 ct 
134 -340 154 -342 176 -342 ct 219 -342 250 -332 272 -313 ct 293 -294 304 -266 304 -229 ct 
304 -85 l  304 -68 306 -55 310 -47 ct 314 -39 323 -35 335 -35 ct 338 -35 341 -35 344 -35 ct 
347 -36 350 -36 353 -37 ct 353 -2 l  346 0 339 1 332 2 ct 325 3 318 3 310 3 ct 
300 3 290 2 283 -1 ct 275 -4 269 -8 264 -14 ct 260 -20 256 -27 254 -35 ct 251 -43 250 -53 249 -64 ct 
247 -64 l  241 -54 235 -44 227 -35 ct 220 -27 212 -19 202 -13 ct 193 -7 182 -2 170 1 ct 
158 4 144 6 128 6 ct p
141 -36 m  159 -36 174 -39 188 -46 ct 201 -52 212 -60 221 -70 ct 230 -80 236 -91 241 -103 ct 
245 -115 247 -127 247 -138 ct 247 -165 l  186 -165 l  172 -165 159 -164 147 -162 ct 
135 -161 124 -157 115 -152 ct 105 -147 98 -139 93 -130 ct 87 -121 84 -108 84 -93 ct 
84 -75 89 -61 99 -51 ct 109 -41 123 -36 141 -36 ct p ef
pom
10800 10400 m  10300 10400 l  10300 9150 l  11300 9150 l  11300 10400 l 
10800 10400 l  pc
pum
10550 9851 t
128 6 m  95 6 69 -3 52 -21 ct 35 -39 27 -63 27 -94 ct 27 -117 31 -135 40 -149 ct 
48 -163 59 -174 72 -183 ct 86 -191 101 -196 119 -199 ct 136 -203 154 -204 172 -204 ct 
247 -204 l  247 -223 l  247 -237 246 -248 243 -258 ct 240 -268 235 -276 229 -282 ct 
223 -288 216 -292 207 -295 ct 198 -298 187 -299 175 -299 ct 164 -299 155 -299 146 -297 ct 
137 -296 130 -293 123 -289 ct 117 -285 112 -279 108 -272 ct 104 -265 101 -257 100 -246 ct 
42 -251 l  44 -265 48 -277 54 -288 ct 59 -299 68 -309 78 -317 ct 89 -325 102 -331 118 -335 ct 
134 -340 154 -342 176 -342 ct 219 -342 250 -332 272 -313 ct 293 -294 304 -266 304 -229 ct 
304 -85 l  304 -68 306 -55 310 -47 ct 314 -39 323 -35 335 -35 ct 338 -35 341 -35 344 -35 ct 
347 -36 350 -36 353 -37 ct 353 -2 l  346 0 339 1 332 2 ct 325 3 318 3 310 3 ct 
300 3 290 2 283 -1 ct 275 -4 269 -8 264 -14 ct 260 -20 256 -27 254 -35 ct 251 -43 250 -53 249 -64 ct 
247 -64 l  241 -54 235 -44 227 -35 ct 220 -27 212 -19 202 -13 ct 193 -7 182 -2 170 1 ct 
158 4 144 6 128 6 ct p
141 -36 m  159 -36 174 -39 188 -46 ct 201 -52 212 -60 221 -70 ct 230 -80 236 -91 241 -103 ct 
245 -115 247 -127 247 -138 ct 247 -165 l  186 -165 l  172 -165 159 -164 147 -162 ct 
135 -161 124 -157 115 -152 ct 105 -147 98 -139 93 -130 ct 87 -121 84 -108 84 -93 ct 
84 -75 89 -61 99 -51 ct 109 -41 123 -36 141 -36 ct p ef
pom
0 12465 t 
pom
count op_count sub {pop} repeat countdictstack dict_count sub {end} repeat b4_inc_state restore
%%PageTrailer
%%Trailer
%%EOF
