%!PS-Adobe-3.0 EPSF-3.0 
%%BoundingBox: 0 0 336 134
%%Pages: 0
%%Creator: Sun Microsystems, Inc.
%%Title: none
%%CreationDate: none
%%LanguageLevel: 2
%%EndComments
%%BeginProlog
%%BeginResource: procset SDRes-Prolog 1.0 0
/b4_inc_state save def
/dict_count countdictstack def
/op_count count 1 sub def
userdict begin
0 setgray 0 setlinecap 1 setlinewidth 0 setlinejoin 10 setmiterlimit[] 0 setdash newpath
/languagelevel where {pop languagelevel 1 ne {false setstrokeadjust false setoverprint} if} if
/bdef {bind def} bind def
/c {setrgbcolor} bdef
/l {neg lineto} bdef
/rl {neg rlineto} bdef
/lc {setlinecap} bdef
/lj {setlinejoin} bdef
/lw {setlinewidth} bdef
/ml {setmiterlimit} bdef
/ld {setdash} bdef
/m {neg moveto} bdef
/ct {6 2 roll neg 6 2 roll neg 6 2 roll neg curveto} bdef
/r {rotate} bdef
/t {neg translate} bdef
/s {scale} bdef
/sw {show} bdef
/gs {gsave} bdef
/gr {grestore} bdef
/f {findfont dup length dict begin
{1 index /FID ne {def} {pop pop} ifelse} forall /Encoding ISOLatin1Encoding def
currentdict end /NFont exch definefont pop /NFont findfont} bdef
/p {closepath} bdef
/sf {scalefont setfont} bdef
/ef {eofill}bdef
/pc {closepath stroke}bdef
/ps {stroke}bdef
/pum {matrix currentmatrix}bdef
/pom {setmatrix}bdef
/bs {/aString exch def /nXOfs exch def /nWidth exch def currentpoint nXOfs 0 rmoveto pum nWidth aString stringwidth pop div 1 scale aString show pom moveto} bdef
%%EndResource
%%EndProlog
%%BeginSetup
%%EndSetup
%%Page: 1 1
%%BeginPageSetup
%%EndPageSetup
pum
0.02835 0.02825 s 
0 -4743 t
/tm matrix currentmatrix def
tm setmatrix
-4617 -15904 t 
1 1 s 
0.273 0.511 0.683 c 13525 19214 m  14138 19214 l  14138 19010 l  14343 19419 l 
14138 19829 l  14138 19624 l  13525 19624 l  13525 19214 l  p
13525 19010 m  13525 19010 l  p
14343 19830 m  14343 19830 l  p ef
0 lw 1 lj 0.003 0.003 0.003 c 13525 19214 m  14138 19214 l  14138 19010 l 
14343 19419 l  14138 19829 l  14138 19624 l  13525 19624 l  13525 19214 l 
pc
13525 19010 m  13525 19010 l  pc
14343 19830 m  14343 19830 l  pc
0.273 0.511 0.683 c 10664 19214 m  11277 19214 l  11277 19010 l  11482 19419 l 
11277 19829 l  11277 19624 l  10664 19624 l  10664 19214 l  p
10664 19010 m  10664 19010 l  p
11482 19830 m  11482 19830 l  p ef
0.003 0.003 0.003 c 10664 19214 m  11277 19214 l  11277 19010 l  11482 19419 l 
11277 19829 l  11277 19624 l  10664 19624 l  10664 19214 l  pc
10664 19010 m  10664 19010 l  pc
11482 19830 m  11482 19830 l  pc
0.914 0.894 0.832 c 6253 20645 m  4618 20645 l  4618 18600 l  7887 18600 l 
7887 20645 l  6253 20645 l  p ef
0.003 0.003 0.003 c 6253 20645 m  4618 20645 l  4618 18600 l  7887 18600 l 
7887 20645 l  6253 20645 l  pc
pum
4868 18983 t
0.230 0.226 0.210 c 65 -123 m  65 -1 l  27 -1 l  27 -123 l  5 -123 l  5 -149 l 
27 -149 l  27 -165 l  27 -171 27 -176 29 -181 ct 30 -186 32 -190 36 -193 ct 
39 -197 43 -200 49 -202 ct 55 -204 62 -205 70 -205 ct 74 -205 79 -205 83 -204 ct 
87 -204 91 -203 94 -203 ct 94 -178 l  93 -178 91 -178 89 -179 ct 87 -179 85 -179 83 -179 ct 
80 -179 77 -179 74 -178 ct 72 -177 70 -176 69 -174 ct 67 -173 67 -171 66 -169 ct 
65 -167 65 -164 65 -161 ct 65 -149 l  94 -149 l  94 -123 l  65 -123 l  p ef
113 -176 m  113 -205 l  151 -205 l  151 -176 l  113 -176 l  p
113 0 m  113 -149 l  151 -149 l  151 0 l  113 0 l  p ef
256 3 m  244 3 234 1 225 -3 ct 216 -6 209 -11 203 -18 ct 197 -25 192 -33 189 -42 ct 
186 -52 185 -62 185 -73 ct 185 -86 187 -97 190 -107 ct 193 -116 198 -124 204 -131 ct 
210 -138 217 -143 226 -146 ct 235 -150 245 -152 256 -152 ct 266 -152 275 -150 282 -148 ct 
290 -145 296 -141 301 -137 ct 307 -132 311 -127 315 -121 ct 318 -115 320 -108 321 -101 ct 
283 -101 l  281 -108 279 -114 274 -118 ct 270 -123 264 -125 256 -125 ct 245 -125 238 -121 233 -112 ct 
228 -104 226 -91 226 -75 ct 226 -41 236 -23 256 -23 ct 263 -23 270 -26 275 -30 ct 
279 -35 283 -41 284 -50 ct 323 -50 l  322 -43 320 -37 316 -30 ct 313 -24 309 -18 303 -13 ct 
298 -8 291 -4 283 -1 ct 275 2 266 3 256 3 ct p ef
388 -120 m  393 -131 400 -139 408 -144 ct 415 -150 425 -152 436 -152 ct 445 -152 452 -151 459 -148 ct 
465 -145 470 -141 474 -136 ct 478 -130 480 -124 482 -117 ct 484 -110 485 -103 485 -95 ct 
485 0 l  446 0 l  446 -84 l  446 -90 446 -95 445 -100 ct 444 -104 442 -109 440 -112 ct 
438 -116 435 -118 432 -120 ct 429 -122 425 -123 420 -123 ct 415 -123 411 -122 407 -120 ct 
403 -118 400 -115 397 -111 ct 394 -107 392 -103 391 -97 ct 389 -92 388 -86 388 -80 ct 
388 0 l  350 0 l  350 -205 l  388 -205 l  388 -149 l  388 -146 388 -143 388 -140 ct 
388 -137 388 -134 388 -132 ct 388 -129 388 -127 388 -125 ct 387 -122 387 -121 387 -120 ct 
388 -120 l  p ef
524 -176 m  524 -205 l  562 -205 l  562 -176 l  524 -176 l  p
524 0 m  524 -149 l  562 -149 l  562 0 l  524 0 l  p ef
665 3 m  654 3 644 1 636 -2 ct 627 -5 620 -10 614 -16 ct 608 -23 603 -31 600 -41 ct 
597 -51 595 -62 595 -75 ct 595 -89 597 -101 601 -111 ct 605 -121 610 -129 616 -135 ct 
623 -141 630 -145 639 -148 ct 647 -151 656 -152 665 -152 ct 677 -152 687 -150 695 -146 ct 
704 -142 710 -136 716 -129 ct 721 -121 725 -112 727 -102 ct 730 -92 731 -81 731 -68 ct 
731 -67 l  636 -67 l  636 -61 636 -55 637 -50 ct 638 -44 640 -40 643 -36 ct 
645 -32 648 -29 652 -26 ct 656 -24 661 -23 667 -23 ct 673 -23 679 -24 683 -27 ct 
688 -30 691 -35 693 -41 ct 729 -38 l  727 -33 725 -29 722 -24 ct 719 -19 715 -15 710 -11 ct 
705 -7 699 -4 692 -1 ct 684 2 675 3 665 3 ct p
665 -128 m  661 -128 657 -127 654 -126 ct 650 -124 647 -122 645 -119 ct 642 -116 640 -113 639 -108 ct 
637 -103 636 -98 636 -91 ct 694 -91 l  693 -103 690 -112 685 -119 ct 680 -125 673 -128 665 -128 ct 
p ef
761 0 m  761 -114 l  761 -117 761 -121 761 -124 ct 761 -128 760 -131 760 -135 ct 
760 -138 760 -141 760 -144 ct 760 -146 760 -148 760 -149 ct 796 -149 l  797 -148 797 -146 797 -144 ct 
797 -141 797 -138 798 -135 ct 798 -131 798 -128 798 -125 ct 798 -122 798 -119 798 -117 ct 
799 -117 l  801 -123 803 -128 805 -132 ct 807 -136 809 -140 811 -143 ct 814 -146 817 -148 821 -150 ct 
825 -151 829 -152 835 -152 ct 837 -152 839 -152 841 -151 ct 844 -151 845 -151 846 -150 ct 
846 -118 l  844 -118 841 -119 839 -119 ct 836 -119 833 -120 830 -120 ct 820 -120 813 -116 807 -108 ct 
802 -100 799 -89 799 -73 ct 799 0 l  761 0 l  p ef
869 0 m  869 -29 l  917 -29 l  917 -162 l  870 -132 l  870 -163 l  919 -195 l 
956 -195 l  956 -29 l  1000 -29 l  1000 0 l  869 0 l  p ef
1027 0 m  1027 -42 l  1067 -42 l  1067 0 l  1027 0 l  p ef
1170 3 m  1158 3 1148 1 1139 -3 ct 1130 -6 1123 -11 1117 -18 ct 1111 -25 1106 -33 1103 -42 ct 
1100 -52 1099 -62 1099 -73 ct 1099 -86 1101 -97 1104 -107 ct 1107 -116 1112 -124 1118 -131 ct 
1124 -138 1131 -143 1140 -146 ct 1149 -150 1159 -152 1170 -152 ct 1180 -152 1189 -150 1196 -148 ct 
1204 -145 1210 -141 1215 -137 ct 1221 -132 1225 -127 1229 -121 ct 1232 -115 1234 -108 1235 -101 ct 
1197 -101 l  1195 -108 1193 -114 1188 -118 ct 1184 -123 1178 -125 1170 -125 ct 
1159 -125 1152 -121 1147 -112 ct 1142 -104 1140 -91 1140 -75 ct 1140 -41 1150 -23 1170 -23 ct 
1177 -23 1184 -26 1189 -30 ct 1193 -35 1197 -41 1198 -50 ct 1237 -50 l  1236 -43 1234 -37 1230 -30 ct 
1227 -24 1223 -18 1217 -13 ct 1212 -8 1205 -4 1197 -1 ct 1189 2 1180 3 1170 3 ct 
p ef
pom
pum
4868 19619 t
123 -122 m  113 -71 l  148 -71 l  148 -56 l  109 -56 l  97 1 l  82 1 l 
94 -56 l  44 -56 l  33 1 l  17 1 l  29 -56 l  1 -56 l  1 -71 l  32 -71 l 
43 -122 l  8 -122 l  8 -137 l  46 -137 l  58 -193 l  73 -193 l  61 -137 l 
111 -137 l  123 -193 l  139 -193 l  126 -137 l  155 -137 l  155 -122 l 
123 -122 l  p
59 -122 m  48 -71 l  97 -71 l  108 -122 l  59 -122 l  p ef
176 -181 m  176 -205 l  201 -205 l  201 -181 l  176 -181 l  p
176 0 m  176 -149 l  201 -149 l  201 0 l  176 0 l  p ef
334 0 m  334 -95 l  334 -102 333 -108 332 -113 ct 331 -118 329 -122 327 -125 ct 
324 -128 321 -130 317 -131 ct 314 -132 309 -133 303 -133 ct 297 -133 292 -132 287 -130 ct 
282 -128 278 -125 275 -121 ct 272 -117 269 -112 267 -106 ct 265 -101 264 -94 264 -86 ct 
264 0 l  240 0 l  240 -117 l  240 -121 240 -124 239 -127 ct 239 -131 239 -134 239 -137 ct 
239 -140 239 -143 239 -145 ct 239 -147 239 -149 239 -149 ct 262 -149 l  262 -149 262 -148 262 -146 ct 
263 -144 263 -141 263 -139 ct 263 -136 263 -133 263 -131 ct 263 -128 263 -126 263 -124 ct 
264 -124 l  266 -128 269 -132 272 -135 ct 274 -139 278 -142 281 -144 ct 285 -147 290 -149 294 -150 ct 
299 -151 305 -152 311 -152 ct 320 -152 327 -151 333 -149 ct 339 -147 344 -144 347 -140 ct 
351 -135 354 -130 356 -123 ct 358 -117 359 -109 359 -99 ct 359 0 l  334 0 l 
p ef
415 -75 m  415 -67 415 -59 417 -52 ct 418 -44 420 -38 423 -33 ct 426 -28 430 -24 435 -21 ct 
439 -18 445 -17 452 -17 ct 461 -17 469 -19 475 -24 ct 480 -28 484 -35 486 -45 ct 
511 -45 l  510 -39 508 -33 505 -27 ct 502 -21 499 -16 494 -12 ct 489 -7 483 -4 477 -1 ct 
470 2 462 3 453 3 ct 441 3 432 1 423 -3 ct 415 -7 409 -12 404 -19 ct 398 -26 395 -34 392 -44 ct 
390 -53 389 -64 389 -75 ct 389 -85 390 -94 391 -101 ct 393 -109 395 -116 398 -121 ct 
401 -127 405 -132 409 -136 ct 413 -140 417 -143 422 -145 ct 427 -148 432 -149 437 -150 ct 
442 -151 448 -152 453 -152 ct 461 -152 469 -151 475 -149 ct 482 -146 487 -143 492 -139 ct 
497 -135 501 -130 504 -125 ct 506 -120 509 -114 510 -107 ct 484 -105 l  483 -114 480 -120 474 -125 ct 
469 -130 462 -133 452 -133 ct 445 -133 439 -131 434 -129 ct 430 -127 426 -123 423 -118 ct 
420 -114 418 -108 417 -100 ct 415 -93 415 -85 415 -75 ct p ef
540 0 m  540 -205 l  565 -205 l  565 0 l  540 0 l  p ef
627 -149 m  627 -54 l  627 -47 628 -41 629 -36 ct 630 -31 632 -27 634 -24 ct 
636 -21 640 -19 643 -18 ct 647 -17 652 -16 658 -16 ct 664 -16 669 -17 674 -19 ct 
679 -21 683 -24 686 -28 ct 689 -32 692 -37 694 -43 ct 696 -48 697 -55 697 -63 ct 
697 -149 l  721 -149 l  721 -32 l  721 -28 721 -25 721 -22 ct 721 -18 721 -15 722 -12 ct 
722 -9 722 -6 722 -4 ct 722 -2 722 0 722 0 ct 699 0 l  699 0 699 -1 698 -3 ct 698 -6 698 -8 698 -10 ct 
698 -13 698 -16 698 -18 ct 698 -21 698 -23 698 -25 ct 697 -25 l  695 -21 692 -17 689 -14 ct 
686 -10 683 -7 679 -5 ct 676 -2 671 0 666 1 ct 662 2 656 3 650 3 ct 641 3 634 2 628 0 ct 
622 -2 617 -5 613 -9 ct 610 -14 607 -19 605 -26 ct 603 -32 602 -40 602 -50 ct 602 -149 l 
627 -149 l  p ef
854 -25 m  849 -15 843 -8 836 -4 ct 828 0 819 2 808 2 ct 789 2 775 -4 766 -17 ct 
757 -29 753 -49 753 -74 ct 753 -126 771 -152 808 -152 ct 819 -152 828 -150 836 -146 ct 
843 -142 849 -135 854 -126 ct 854 -126 l  854 -127 854 -129 854 -131 ct 854 -133 854 -135 854 -137 ct 
854 -139 854 -141 854 -143 ct 854 -145 854 -146 854 -147 ct 854 -205 l  879 -205 l 
879 -31 l  879 -27 879 -24 879 -21 ct 879 -17 879 -14 879 -12 ct 879 -9 879 -6 879 -5 ct 
879 -3 880 -1 880 0 ct 856 0 l  856 -1 856 -3 855 -4 ct 855 -6 855 -8 855 -10 ct 
855 -12 855 -15 855 -17 ct 855 -20 855 -22 855 -25 ct 854 -25 l  p
779 -75 m  779 -65 780 -56 781 -49 ct 782 -41 784 -35 787 -31 ct 790 -26 793 -23 798 -20 ct 
802 -18 808 -17 814 -17 ct 821 -17 826 -18 831 -20 ct 836 -22 840 -26 844 -30 ct 
847 -35 850 -41 851 -49 ct 853 -57 854 -66 854 -77 ct 854 -87 853 -96 851 -104 ct 
850 -111 847 -117 844 -121 ct 840 -126 836 -129 831 -131 ct 826 -133 821 -134 814 -134 ct 
808 -134 803 -133 799 -131 ct 794 -129 790 -125 788 -121 ct 785 -116 782 -110 781 -102 ct 
780 -95 779 -86 779 -75 ct p ef
935 -69 m  935 -61 936 -54 937 -47 ct 939 -41 942 -35 945 -31 ct 948 -26 952 -22 958 -20 ct 
963 -17 969 -16 977 -16 ct 987 -16 996 -18 1002 -22 ct 1009 -26 1013 -32 1016 -38 ct 
1037 -32 l  1036 -28 1034 -24 1031 -20 ct 1028 -16 1024 -12 1020 -9 ct 1015 -5 1009 -2 1002 0 ct 
995 2 987 3 977 3 ct 955 3 938 -4 926 -17 ct 915 -30 909 -50 909 -75 ct 909 -89 911 -101 914 -111 ct 
918 -121 922 -129 929 -135 ct 935 -141 942 -145 950 -148 ct 958 -151 966 -152 976 -152 ct 
988 -152 999 -150 1007 -146 ct 1015 -142 1022 -136 1027 -129 ct 1032 -122 1036 -113 1038 -104 ct 
1040 -94 1041 -84 1041 -72 ct 1041 -69 l  935 -69 l  p
1016 -88 m  1014 -104 1010 -115 1004 -123 ct 997 -130 988 -134 975 -134 ct 971 -134 967 -133 962 -132 ct 
958 -130 953 -128 950 -124 ct 946 -121 942 -116 940 -111 ct 937 -105 936 -97 935 -88 ct 
1016 -88 l  p ef
1068 -79 m  1068 -107 l  1205 -165 l  1205 -143 l  1087 -93 l  1205 -42 l 
1205 -21 l  1068 -79 l  p ef
1269 -132 m  1269 -1 l  1244 -1 l  1244 -132 l  1223 -132 l  1223 -150 l 
1244 -150 l  1244 -167 l  1244 -172 1244 -177 1245 -182 ct 1246 -186 1248 -190 1251 -194 ct 
1254 -197 1257 -200 1262 -202 ct 1267 -204 1273 -205 1280 -205 ct 1283 -205 1286 -205 1289 -205 ct 
1293 -204 1295 -204 1298 -203 ct 1298 -184 l  1296 -185 1294 -185 1292 -185 ct 
1290 -185 1288 -186 1287 -186 ct 1283 -186 1280 -185 1278 -184 ct 1275 -183 1274 -182 1272 -180 ct 
1271 -178 1270 -176 1269 -173 ct 1269 -170 1269 -167 1269 -163 ct 1269 -150 l 
1298 -150 l  1298 -132 l  1269 -132 l  p ef
1319 -181 m  1319 -205 l  1344 -205 l  1344 -181 l  1319 -181 l  p
1319 0 m  1319 -149 l  1344 -149 l  1344 0 l  1319 0 l  p ef
1401 -75 m  1401 -67 1401 -59 1403 -52 ct 1404 -44 1406 -38 1409 -33 ct 1412 -28 1416 -24 1421 -21 ct 
1425 -18 1431 -17 1438 -17 ct 1447 -17 1455 -19 1461 -24 ct 1466 -28 1470 -35 1472 -45 ct 
1497 -45 l  1496 -39 1494 -33 1491 -27 ct 1488 -21 1485 -16 1480 -12 ct 1475 -7 1469 -4 1463 -1 ct 
1456 2 1448 3 1439 3 ct 1427 3 1418 1 1409 -3 ct 1401 -7 1395 -12 1390 -19 ct 1384 -26 1381 -34 1378 -44 ct 
1376 -53 1375 -64 1375 -75 ct 1375 -85 1376 -94 1377 -101 ct 1379 -109 1381 -116 1384 -121 ct 
1387 -127 1391 -132 1395 -136 ct 1399 -140 1403 -143 1408 -145 ct 1413 -148 1418 -149 1423 -150 ct 
1428 -151 1434 -152 1439 -152 ct 1447 -152 1455 -151 1461 -149 ct 1468 -146 1473 -143 1478 -139 ct 
1483 -135 1487 -130 1490 -125 ct 1492 -120 1495 -114 1496 -107 ct 1470 -105 l 
1469 -114 1466 -120 1460 -125 ct 1455 -130 1448 -133 1438 -133 ct 1431 -133 1425 -131 1420 -129 ct 
1416 -127 1412 -123 1409 -118 ct 1406 -114 1404 -108 1403 -100 ct 1401 -93 1401 -85 1401 -75 ct 
p ef
1551 -124 m  1553 -129 1556 -133 1560 -137 ct 1563 -140 1566 -143 1570 -146 ct 
1574 -148 1578 -150 1583 -151 ct 1587 -152 1593 -152 1598 -152 ct 1608 -152 1616 -151 1622 -148 ct 
1628 -146 1633 -142 1636 -137 ct 1640 -133 1642 -127 1644 -121 ct 1645 -114 1646 -107 1646 -100 ct 
1646 0 l  1621 0 l  1621 -95 l  1621 -101 1620 -107 1619 -112 ct 1619 -116 1617 -120 1615 -123 ct 
1613 -127 1610 -129 1606 -131 ct 1602 -132 1596 -133 1590 -133 ct 1584 -133 1579 -132 1574 -130 ct 
1569 -128 1565 -125 1562 -121 ct 1559 -117 1556 -112 1554 -107 ct 1552 -101 1551 -95 1551 -88 ct 
1551 0 l  1527 0 l  1527 -205 l  1551 -205 l  1551 -152 l  1551 -149 1551 -146 1551 -143 ct 
1551 -140 1551 -137 1551 -134 ct 1551 -132 1551 -129 1551 -128 ct 1550 -126 1550 -125 1550 -124 ct 
1551 -124 l  p ef
1683 -181 m  1683 -205 l  1708 -205 l  1708 -181 l  1683 -181 l  p
1683 0 m  1683 -149 l  1708 -149 l  1708 0 l  1683 0 l  p ef
1765 -69 m  1765 -61 1766 -54 1767 -47 ct 1769 -41 1772 -35 1775 -31 ct 1778 -26 1782 -22 1788 -20 ct 
1793 -17 1799 -16 1807 -16 ct 1817 -16 1826 -18 1832 -22 ct 1839 -26 1843 -32 1846 -38 ct 
1867 -32 l  1866 -28 1864 -24 1861 -20 ct 1858 -16 1854 -12 1850 -9 ct 1845 -5 1839 -2 1832 0 ct 
1825 2 1817 3 1807 3 ct 1785 3 1768 -4 1756 -17 ct 1745 -30 1739 -50 1739 -75 ct 
1739 -89 1741 -101 1744 -111 ct 1748 -121 1752 -129 1759 -135 ct 1765 -141 1772 -145 1780 -148 ct 
1788 -151 1796 -152 1806 -152 ct 1818 -152 1829 -150 1837 -146 ct 1845 -142 1852 -136 1857 -129 ct 
1862 -122 1866 -113 1868 -104 ct 1870 -94 1871 -84 1871 -72 ct 1871 -69 l  1765 -69 l 
p
1846 -88 m  1844 -104 1840 -115 1834 -123 ct 1827 -130 1818 -134 1805 -134 ct 
1801 -134 1797 -133 1792 -132 ct 1788 -130 1783 -128 1780 -124 ct 1776 -121 1772 -116 1770 -111 ct 
1767 -105 1766 -97 1765 -88 ct 1846 -88 l  p ef
1904 0 m  1904 -114 l  1904 -118 1904 -121 1903 -124 ct 1903 -127 1903 -130 1903 -134 ct 
1903 -137 1903 -139 1903 -142 ct 1903 -145 1903 -147 1903 -149 ct 1926 -149 l 
1926 -147 1926 -145 1926 -142 ct 1927 -139 1927 -137 1927 -134 ct 1927 -131 1927 -128 1927 -125 ct 
1927 -123 1927 -121 1927 -119 ct 1928 -119 l  1930 -124 1931 -129 1933 -134 ct 
1935 -138 1938 -141 1940 -144 ct 1943 -147 1946 -149 1950 -150 ct 1953 -151 1958 -152 1963 -152 ct 
1965 -152 1967 -152 1969 -152 ct 1971 -151 1972 -151 1973 -151 ct 1973 -128 l 
1972 -128 1970 -129 1967 -129 ct 1965 -129 1963 -129 1960 -129 ct 1954 -129 1949 -128 1945 -125 ct 
1941 -123 1938 -119 1936 -115 ct 1933 -110 1931 -105 1930 -98 ct 1929 -92 1928 -85 1928 -78 ct 
1928 0 l  1904 0 l  p ef
1986 0 m  1986 -30 l  2013 -30 l  2013 0 l  1986 0 l  p ef
2084 -124 m  2086 -129 2089 -133 2093 -137 ct 2096 -140 2099 -143 2103 -146 ct 
2107 -148 2111 -150 2116 -151 ct 2120 -152 2126 -152 2131 -152 ct 2141 -152 2149 -151 2155 -148 ct 
2161 -146 2166 -142 2169 -137 ct 2173 -133 2175 -127 2177 -121 ct 2178 -114 2179 -107 2179 -100 ct 
2179 0 l  2154 0 l  2154 -95 l  2154 -101 2153 -107 2152 -112 ct 2152 -116 2150 -120 2148 -123 ct 
2146 -127 2143 -129 2139 -131 ct 2135 -132 2129 -133 2123 -133 ct 2117 -133 2112 -132 2107 -130 ct 
2102 -128 2098 -125 2095 -121 ct 2092 -117 2089 -112 2087 -107 ct 2085 -101 2084 -95 2084 -88 ct 
2084 0 l  2060 0 l  2060 -205 l  2084 -205 l  2084 -152 l  2084 -149 2084 -146 2084 -143 ct 
2084 -140 2084 -137 2084 -134 ct 2084 -132 2084 -129 2084 -128 ct 2083 -126 2083 -125 2083 -124 ct 
2084 -124 l  p ef
2211 -21 m  2211 -42 l  2329 -93 l  2211 -143 l  2211 -165 l  2348 -107 l 
2348 -79 l  2211 -21 l  p ef
pom
0.273 0.511 0.683 c 7885 19214 m  8498 19214 l  8498 19010 l  8703 19419 l 
8498 19829 l  8498 19624 l  7885 19624 l  7885 19214 l  p
7885 19010 m  7885 19010 l  p
8703 19830 m  8703 19830 l  p ef
0.003 0.003 0.003 c 7885 19214 m  8498 19214 l  8498 19010 l  8703 19419 l 
8498 19829 l  8498 19624 l  7885 19624 l  7885 19214 l  pc
7885 19010 m  7885 19010 l  pc
8703 19830 m  8703 19830 l  pc
0.402 0.800 0.402 c 9685 18439 m  10240 18439 10665 18864 10665 19419 ct 10665 19974 10240 20399 9685 20399 ct 
9130 20399 8705 19974 8705 19419 ct 8705 18864 9130 18439 9685 18439 ct p
8705 18439 m  8705 18439 l  p
10666 20400 m  10666 20400 l  p ef
0.003 0.003 0.003 c 9685 18439 m  10240 18439 10665 18864 10665 19419 ct 10665 19974 10240 20399 9685 20399 ct 
9130 20399 8705 19974 8705 19419 ct 8705 18864 9130 18439 9685 18439 ct pc
8705 18439 m  8705 18439 l  pc
10666 20400 m  10666 20400 l  pc
pum
8375 19554 t
200 -103 m  200 -88 198 -73 196 -60 ct 193 -47 189 -36 183 -26 ct 177 -17 169 -9 160 -4 ct 
150 2 138 4 124 4 ct 109 4 97 1 86 -4 ct 75 -10 66 -19 60 -31 ct 59 -31 l  60 -31 60 -30 60 -28 ct 
60 -26 60 -23 60 -20 ct 60 -17 60 -14 60 -10 ct 60 -7 60 -3 60 1 ct 60 81 l  26 81 l 
26 -163 l  26 -168 26 -173 26 -177 ct 26 -182 26 -186 26 -190 ct 26 -193 26 -196 25 -199 ct 
25 -202 25 -204 25 -205 ct 58 -205 l  58 -204 58 -203 58 -201 ct 59 -199 59 -196 59 -193 ct 
59 -189 59 -186 60 -182 ct 60 -179 60 -175 60 -172 ct 61 -172 l  64 -178 67 -184 71 -189 ct 
75 -193 80 -197 85 -200 ct 90 -203 96 -205 103 -206 ct 109 -208 116 -208 124 -208 ct 
138 -208 150 -206 160 -201 ct 169 -196 177 -189 183 -179 ct 189 -170 193 -159 196 -146 ct 
198 -133 200 -119 200 -103 ct p
164 -102 m  164 -115 163 -126 161 -136 ct 160 -146 157 -154 154 -161 ct 150 -168 145 -173 139 -177 ct 
132 -180 125 -182 115 -182 ct 108 -182 101 -181 94 -179 ct 87 -177 81 -173 76 -166 ct 
71 -160 68 -152 65 -141 ct 62 -131 60 -117 60 -100 ct 60 -85 61 -73 64 -63 ct 66 -53 70 -45 74 -38 ct 
79 -32 85 -28 92 -25 ct 98 -22 106 -21 115 -21 ct 124 -21 132 -23 139 -27 ct 145 -30 150 -35 154 -42 ct 
157 -49 160 -58 161 -68 ct 163 -78 164 -89 164 -102 ct p ef
243 0 m  243 -157 l  243 -162 243 -166 243 -171 ct 243 -175 243 -179 243 -184 ct 
242 -188 242 -192 242 -195 ct 242 -199 242 -202 242 -205 ct 274 -205 l  274 -202 274 -199 274 -195 ct 
275 -192 275 -188 275 -184 ct 275 -180 275 -176 275 -172 ct 275 -169 275 -166 275 -163 ct 
276 -163 l  279 -171 281 -178 284 -184 ct 287 -189 290 -194 293 -198 ct 297 -202 302 -204 307 -206 ct 
312 -208 318 -209 325 -209 ct 328 -209 330 -209 333 -208 ct 335 -208 337 -207 339 -207 ct 
339 -176 l  337 -176 334 -177 331 -177 ct 328 -178 324 -178 321 -178 ct 313 -178 306 -176 301 -172 ct 
295 -169 291 -164 287 -158 ct 284 -151 281 -144 279 -135 ct 278 -127 277 -117 277 -107 ct 
277 0 l  243 0 l  p ef
399 -95 m  399 -84 400 -74 403 -65 ct 405 -56 408 -49 413 -42 ct 417 -36 423 -31 431 -27 ct 
438 -23 446 -22 457 -22 ct 471 -22 483 -25 492 -31 ct 501 -36 507 -44 510 -53 ct 
540 -45 l  538 -39 535 -33 531 -27 ct 527 -22 522 -16 516 -12 ct 509 -7 501 -3 491 0 ct 
482 3 470 4 457 4 ct 426 4 403 -5 387 -23 ct 371 -41 363 -68 363 -104 ct 363 -123 366 -139 371 -153 ct 
375 -166 382 -177 390 -185 ct 399 -194 408 -200 420 -203 ct 431 -207 443 -209 455 -209 ct 
472 -209 487 -206 498 -201 ct 510 -195 519 -187 526 -178 ct 533 -168 538 -156 541 -143 ct 
544 -129 546 -115 546 -100 ct 546 -95 l  399 -95 l  p
510 -121 m  508 -143 503 -159 494 -169 ct 485 -179 472 -184 455 -184 ct 449 -184 443 -183 437 -181 ct 
430 -179 425 -176 419 -171 ct 414 -166 410 -160 406 -152 ct 402 -144 400 -134 400 -121 ct 
510 -121 l  p
430 -228 m  430 -231 l  471 -286 l  511 -286 l  511 -280 l  448 -228 l 
430 -228 l  p ef
580 -88 m  580 -118 l  675 -118 l  675 -88 l  580 -88 l  p ef
894 -103 m  894 -88 892 -73 890 -60 ct 887 -47 883 -36 877 -26 ct 871 -17 863 -9 854 -4 ct 
844 2 832 4 818 4 ct 803 4 791 1 780 -4 ct 769 -10 760 -19 754 -31 ct 753 -31 l 
754 -31 754 -30 754 -28 ct 754 -26 754 -23 754 -20 ct 754 -17 754 -14 754 -10 ct 
754 -7 754 -3 754 1 ct 754 81 l  720 81 l  720 -163 l  720 -168 720 -173 720 -177 ct 
720 -182 720 -186 720 -190 ct 720 -193 720 -196 719 -199 ct 719 -202 719 -204 719 -205 ct 
752 -205 l  752 -204 752 -203 752 -201 ct 753 -199 753 -196 753 -193 ct 753 -189 753 -186 754 -182 ct 
754 -179 754 -175 754 -172 ct 755 -172 l  758 -178 761 -184 765 -189 ct 769 -193 774 -197 779 -200 ct 
784 -203 790 -205 797 -206 ct 803 -208 810 -208 818 -208 ct 832 -208 844 -206 854 -201 ct 
863 -196 871 -189 877 -179 ct 883 -170 887 -159 890 -146 ct 892 -133 894 -119 894 -103 ct 
p
858 -102 m  858 -115 857 -126 855 -136 ct 854 -146 851 -154 848 -161 ct 844 -168 839 -173 833 -177 ct 
826 -180 819 -182 809 -182 ct 802 -182 795 -181 788 -179 ct 781 -177 775 -173 770 -166 ct 
765 -160 762 -152 759 -141 ct 756 -131 754 -117 754 -100 ct 754 -85 755 -73 758 -63 ct 
760 -53 764 -45 768 -38 ct 773 -32 779 -28 786 -25 ct 792 -22 800 -21 809 -21 ct 
818 -21 826 -23 833 -27 ct 839 -30 844 -35 848 -42 ct 851 -49 854 -58 855 -68 ct 
857 -78 858 -89 858 -102 ct p ef
937 0 m  937 -157 l  937 -162 937 -166 937 -171 ct 937 -175 937 -179 937 -184 ct 
936 -188 936 -192 936 -195 ct 936 -199 936 -202 936 -205 ct 968 -205 l  968 -202 968 -199 968 -195 ct 
969 -192 969 -188 969 -184 ct 969 -180 969 -176 969 -172 ct 969 -169 969 -166 969 -163 ct 
970 -163 l  973 -171 975 -178 978 -184 ct 981 -189 984 -194 987 -198 ct 991 -202 996 -204 1001 -206 ct 
1006 -208 1012 -209 1019 -209 ct 1022 -209 1024 -209 1027 -208 ct 1029 -208 1031 -207 1033 -207 ct 
1033 -176 l  1031 -176 1028 -177 1025 -177 ct 1022 -178 1018 -178 1015 -178 ct 
1007 -178 1000 -176 995 -172 ct 989 -169 985 -164 981 -158 ct 978 -151 975 -144 973 -135 ct 
972 -127 971 -117 971 -107 ct 971 0 l  937 0 l  p ef
1241 -103 m  1241 -67 1233 -40 1217 -22 ct 1201 -5 1178 4 1148 4 ct 1134 4 1121 2 1110 -2 ct 
1099 -7 1089 -13 1081 -22 ct 1073 -31 1068 -42 1063 -56 ct 1059 -69 1057 -85 1057 -103 ct 
1057 -174 1088 -209 1149 -209 ct 1165 -209 1179 -207 1190 -202 ct 1202 -198 1211 -191 1219 -182 ct 
1226 -174 1232 -163 1235 -149 ct 1239 -136 1241 -120 1241 -103 ct p
1205 -103 m  1205 -119 1203 -132 1201 -142 ct 1199 -153 1195 -161 1190 -167 ct 
1185 -173 1180 -178 1173 -180 ct 1166 -183 1158 -184 1150 -184 ct 1141 -184 1133 -182 1126 -180 ct 
1119 -177 1113 -173 1108 -167 ct 1103 -160 1100 -152 1097 -142 ct 1094 -131 1093 -118 1093 -103 ct 
1093 -87 1094 -74 1097 -63 ct 1100 -53 1104 -44 1109 -38 ct 1114 -32 1119 -28 1126 -25 ct 
1133 -23 1140 -21 1148 -21 ct 1156 -21 1164 -22 1171 -25 ct 1178 -27 1184 -32 1189 -38 ct 
1194 -44 1198 -52 1201 -63 ct 1203 -74 1205 -87 1205 -103 ct p ef
1309 -103 m  1309 -92 1310 -81 1312 -71 ct 1313 -61 1316 -53 1320 -45 ct 1324 -38 1330 -33 1336 -29 ct 
1343 -25 1351 -23 1361 -23 ct 1373 -23 1383 -26 1391 -33 ct 1399 -39 1404 -49 1406 -62 ct 
1441 -62 l  1440 -53 1437 -45 1433 -37 ct 1430 -29 1424 -22 1418 -16 ct 1411 -10 1404 -5 1394 -2 ct 
1385 2 1374 4 1362 4 ct 1346 4 1332 1 1321 -4 ct 1310 -10 1300 -17 1293 -27 ct 
1286 -36 1281 -47 1278 -60 ct 1275 -73 1273 -87 1273 -103 ct 1273 -116 1275 -129 1277 -139 ct 
1279 -150 1282 -159 1286 -167 ct 1291 -175 1295 -181 1301 -187 ct 1307 -192 1313 -196 1319 -200 ct 
1326 -203 1332 -205 1340 -207 ct 1347 -208 1354 -209 1361 -209 ct 1373 -209 1383 -207 1392 -204 ct 
1401 -201 1409 -197 1415 -191 ct 1422 -186 1427 -179 1431 -172 ct 1435 -164 1438 -156 1440 -148 ct 
1405 -145 l  1403 -156 1398 -165 1391 -172 ct 1384 -179 1374 -182 1360 -182 ct 
1351 -182 1343 -180 1336 -177 ct 1330 -174 1324 -169 1320 -163 ct 1316 -156 1313 -148 1312 -138 ct 
1310 -128 1309 -117 1309 -103 ct p ef
1504 -95 m  1504 -84 1505 -74 1508 -65 ct 1510 -56 1513 -49 1518 -42 ct 1522 -36 1528 -31 1536 -27 ct 
1543 -23 1551 -22 1562 -22 ct 1576 -22 1588 -25 1597 -31 ct 1606 -36 1612 -44 1615 -53 ct 
1645 -45 l  1643 -39 1640 -33 1636 -27 ct 1632 -22 1627 -16 1621 -12 ct 1614 -7 1606 -3 1596 0 ct 
1587 3 1575 4 1562 4 ct 1531 4 1508 -5 1492 -23 ct 1476 -41 1468 -68 1468 -104 ct 
1468 -123 1471 -139 1476 -153 ct 1480 -166 1487 -177 1495 -185 ct 1504 -194 1513 -200 1525 -203 ct 
1536 -207 1548 -209 1560 -209 ct 1577 -209 1592 -206 1603 -201 ct 1615 -195 1624 -187 1631 -178 ct 
1638 -168 1643 -156 1646 -143 ct 1649 -129 1651 -115 1651 -100 ct 1651 -95 l 
1504 -95 l  p
1615 -121 m  1613 -143 1608 -159 1599 -169 ct 1590 -179 1577 -184 1560 -184 ct 
1554 -184 1548 -183 1542 -181 ct 1535 -179 1530 -176 1524 -171 ct 1519 -166 1515 -160 1511 -152 ct 
1507 -144 1505 -134 1505 -121 ct 1615 -121 l  p ef
1848 -56 m  1848 -47 1846 -38 1842 -31 ct 1839 -23 1833 -17 1826 -12 ct 1819 -7 1810 -3 1800 0 ct 
1790 3 1778 4 1765 4 ct 1753 4 1742 3 1733 1 ct 1723 -1 1715 -4 1708 -8 ct 1700 -12 1694 -17 1690 -24 ct 
1685 -30 1681 -38 1679 -48 ct 1709 -54 l  1712 -43 1718 -35 1727 -30 ct 1736 -25 1749 -22 1765 -22 ct 
1772 -22 1779 -22 1785 -24 ct 1791 -25 1796 -26 1801 -29 ct 1805 -31 1809 -34 1811 -39 ct 
1814 -43 1815 -48 1815 -54 ct 1815 -60 1813 -65 1810 -69 ct 1808 -73 1804 -76 1798 -79 ct 
1793 -82 1787 -84 1779 -86 ct 1772 -88 1764 -90 1755 -92 ct 1747 -95 1739 -97 1731 -100 ct 
1723 -102 1715 -106 1709 -110 ct 1702 -115 1697 -120 1693 -126 ct 1689 -133 1687 -141 1687 -151 ct 
1687 -169 1694 -184 1707 -193 ct 1720 -203 1740 -208 1765 -208 ct 1788 -208 1806 -204 1819 -196 ct 
1832 -188 1841 -175 1844 -158 ct 1814 -154 l  1813 -159 1810 -164 1807 -167 ct 
1804 -171 1801 -174 1796 -176 ct 1792 -178 1787 -180 1782 -181 ct 1777 -182 1771 -182 1765 -182 ct 
1750 -182 1738 -180 1731 -175 ct 1724 -171 1720 -163 1720 -154 ct 1720 -148 1721 -144 1724 -140 ct 
1727 -137 1731 -134 1736 -131 ct 1740 -129 1746 -127 1753 -125 ct 1760 -123 1767 -121 1776 -119 ct 
1781 -118 1787 -116 1792 -114 ct 1798 -113 1804 -111 1809 -109 ct 1814 -107 1819 -104 1824 -101 ct 
1829 -98 1833 -95 1836 -90 ct 1840 -86 1843 -81 1845 -76 ct 1847 -70 1848 -64 1848 -56 ct 
p ef
2043 -56 m  2043 -47 2041 -38 2037 -31 ct 2034 -23 2028 -17 2021 -12 ct 2014 -7 2005 -3 1995 0 ct 
1985 3 1973 4 1960 4 ct 1948 4 1937 3 1928 1 ct 1918 -1 1910 -4 1903 -8 ct 1895 -12 1889 -17 1885 -24 ct 
1880 -30 1876 -38 1874 -48 ct 1904 -54 l  1907 -43 1913 -35 1922 -30 ct 1931 -25 1944 -22 1960 -22 ct 
1967 -22 1974 -22 1980 -24 ct 1986 -25 1991 -26 1996 -29 ct 2000 -31 2004 -34 2006 -39 ct 
2009 -43 2010 -48 2010 -54 ct 2010 -60 2008 -65 2005 -69 ct 2003 -73 1999 -76 1993 -79 ct 
1988 -82 1982 -84 1974 -86 ct 1967 -88 1959 -90 1950 -92 ct 1942 -95 1934 -97 1926 -100 ct 
1918 -102 1910 -106 1904 -110 ct 1897 -115 1892 -120 1888 -126 ct 1884 -133 1882 -141 1882 -151 ct 
1882 -169 1889 -184 1902 -193 ct 1915 -203 1935 -208 1960 -208 ct 1983 -208 2001 -204 2014 -196 ct 
2027 -188 2036 -175 2039 -158 ct 2009 -154 l  2008 -159 2005 -164 2002 -167 ct 
1999 -171 1996 -174 1991 -176 ct 1987 -178 1982 -180 1977 -181 ct 1972 -182 1966 -182 1960 -182 ct 
1945 -182 1933 -180 1926 -175 ct 1919 -171 1915 -163 1915 -154 ct 1915 -148 1916 -144 1919 -140 ct 
1922 -137 1926 -134 1931 -131 ct 1935 -129 1941 -127 1948 -125 ct 1955 -123 1962 -121 1971 -119 ct 
1976 -118 1982 -116 1987 -114 ct 1993 -113 1999 -111 2004 -109 ct 2009 -107 2014 -104 2019 -101 ct 
2024 -98 2028 -95 2031 -90 ct 2035 -86 2038 -81 2040 -76 ct 2042 -70 2043 -64 2043 -56 ct 
p ef
2109 -95 m  2109 -84 2110 -74 2113 -65 ct 2115 -56 2118 -49 2123 -42 ct 2127 -36 2133 -31 2141 -27 ct 
2148 -23 2156 -22 2167 -22 ct 2181 -22 2193 -25 2202 -31 ct 2211 -36 2217 -44 2220 -53 ct 
2250 -45 l  2248 -39 2245 -33 2241 -27 ct 2237 -22 2232 -16 2226 -12 ct 2219 -7 2211 -3 2201 0 ct 
2192 3 2180 4 2167 4 ct 2136 4 2113 -5 2097 -23 ct 2081 -41 2073 -68 2073 -104 ct 
2073 -123 2076 -139 2081 -153 ct 2085 -166 2092 -177 2100 -185 ct 2109 -194 2118 -200 2130 -203 ct 
2141 -207 2153 -209 2165 -209 ct 2182 -209 2197 -206 2208 -201 ct 2220 -195 2229 -187 2236 -178 ct 
2243 -168 2248 -156 2251 -143 ct 2254 -129 2256 -115 2256 -100 ct 2256 -95 l 
2109 -95 l  p
2220 -121 m  2218 -143 2213 -159 2204 -169 ct 2195 -179 2182 -184 2165 -184 ct 
2159 -184 2153 -183 2147 -181 ct 2140 -179 2135 -176 2129 -171 ct 2124 -166 2120 -160 2116 -152 ct 
2112 -144 2110 -134 2110 -121 ct 2220 -121 l  p ef
2332 -205 m  2332 -75 l  2332 -65 2333 -57 2335 -50 ct 2336 -43 2338 -38 2342 -34 ct 
2345 -30 2349 -27 2355 -25 ct 2360 -23 2367 -22 2375 -22 ct 2383 -22 2390 -24 2397 -27 ct 
2403 -29 2409 -34 2413 -39 ct 2418 -44 2421 -51 2424 -59 ct 2427 -67 2428 -76 2428 -86 ct 
2428 -205 l  2462 -205 l  2462 -44 l  2462 -39 2462 -35 2462 -30 ct 2462 -25 2462 -21 2462 -17 ct 
2462 -12 2463 -9 2463 -6 ct 2463 -3 2463 -1 2463 0 ct 2431 0 l  2431 0 2431 -2 2430 -5 ct 
2430 -8 2430 -11 2430 -15 ct 2430 -18 2430 -22 2429 -26 ct 2429 -29 2429 -32 2429 -35 ct 
2429 -35 l  2425 -29 2422 -24 2418 -19 ct 2414 -14 2409 -10 2404 -7 ct 2399 -3 2393 -1 2386 1 ct 
2380 3 2372 4 2363 4 ct 2352 4 2342 3 2334 0 ct 2326 -3 2319 -7 2314 -13 ct 2308 -19 2304 -26 2302 -35 ct 
2299 -45 2298 -56 2298 -68 ct 2298 -205 l  2332 -205 l  p ef
2516 0 m  2516 -157 l  2516 -162 2516 -166 2516 -171 ct 2516 -175 2516 -179 2516 -184 ct 
2515 -188 2515 -192 2515 -195 ct 2515 -199 2515 -202 2515 -205 ct 2547 -205 l 
2547 -202 2547 -199 2547 -195 ct 2548 -192 2548 -188 2548 -184 ct 2548 -180 2548 -176 2548 -172 ct 
2548 -169 2548 -166 2548 -163 ct 2549 -163 l  2552 -171 2554 -178 2557 -184 ct 
2560 -189 2563 -194 2566 -198 ct 2570 -202 2575 -204 2580 -206 ct 2585 -208 2591 -209 2598 -209 ct 
2601 -209 2603 -209 2606 -208 ct 2608 -208 2610 -207 2612 -207 ct 2612 -176 l 
2610 -176 2607 -177 2604 -177 ct 2601 -178 2597 -178 2594 -178 ct 2586 -178 2579 -176 2574 -172 ct 
2568 -169 2564 -164 2560 -158 ct 2557 -151 2554 -144 2552 -135 ct 2551 -127 2550 -117 2550 -107 ct 
2550 0 l  2516 0 l  p ef
pom
0.914 0.894 0.832 c 15363 20399 m  14342 20399 l  14342 18356 l  16384 18356 l 
16384 20399 l  15363 20399 l  p ef
0.003 0.003 0.003 c 15363 20399 m  14342 20399 l  14342 18356 l  16384 18356 l 
16384 20399 l  15363 20399 l  pc
pum
14901 18739 t
0.230 0.226 0.210 c 65 -123 m  65 -1 l  27 -1 l  27 -123 l  5 -123 l  5 -149 l 
27 -149 l  27 -165 l  27 -171 27 -176 29 -181 ct 30 -186 32 -190 36 -193 ct 
39 -197 43 -200 49 -202 ct 55 -204 62 -205 70 -205 ct 74 -205 79 -205 83 -204 ct 
87 -204 91 -203 94 -203 ct 94 -178 l  93 -178 91 -178 89 -179 ct 87 -179 85 -179 83 -179 ct 
80 -179 77 -179 74 -178 ct 72 -177 70 -176 69 -174 ct 67 -173 67 -171 66 -169 ct 
65 -167 65 -164 65 -161 ct 65 -149 l  94 -149 l  94 -123 l  65 -123 l  p ef
113 -176 m  113 -205 l  151 -205 l  151 -176 l  113 -176 l  p
113 0 m  113 -149 l  151 -149 l  151 0 l  113 0 l  p ef
256 3 m  244 3 234 1 225 -3 ct 216 -6 209 -11 203 -18 ct 197 -25 192 -33 189 -42 ct 
186 -52 185 -62 185 -73 ct 185 -86 187 -97 190 -107 ct 193 -116 198 -124 204 -131 ct 
210 -138 217 -143 226 -146 ct 235 -150 245 -152 256 -152 ct 266 -152 275 -150 282 -148 ct 
290 -145 296 -141 301 -137 ct 307 -132 311 -127 315 -121 ct 318 -115 320 -108 321 -101 ct 
283 -101 l  281 -108 279 -114 274 -118 ct 270 -123 264 -125 256 -125 ct 245 -125 238 -121 233 -112 ct 
228 -104 226 -91 226 -75 ct 226 -41 236 -23 256 -23 ct 263 -23 270 -26 275 -30 ct 
279 -35 283 -41 284 -50 ct 323 -50 l  322 -43 320 -37 316 -30 ct 313 -24 309 -18 303 -13 ct 
298 -8 291 -4 283 -1 ct 275 2 266 3 256 3 ct p ef
388 -120 m  393 -131 400 -139 408 -144 ct 415 -150 425 -152 436 -152 ct 445 -152 452 -151 459 -148 ct 
465 -145 470 -141 474 -136 ct 478 -130 480 -124 482 -117 ct 484 -110 485 -103 485 -95 ct 
485 0 l  446 0 l  446 -84 l  446 -90 446 -95 445 -100 ct 444 -104 442 -109 440 -112 ct 
438 -116 435 -118 432 -120 ct 429 -122 425 -123 420 -123 ct 415 -123 411 -122 407 -120 ct 
403 -118 400 -115 397 -111 ct 394 -107 392 -103 391 -97 ct 389 -92 388 -86 388 -80 ct 
388 0 l  350 0 l  350 -205 l  388 -205 l  388 -149 l  388 -146 388 -143 388 -140 ct 
388 -137 388 -134 388 -132 ct 388 -129 388 -127 388 -125 ct 387 -122 387 -121 387 -120 ct 
388 -120 l  p ef
524 -176 m  524 -205 l  562 -205 l  562 -176 l  524 -176 l  p
524 0 m  524 -149 l  562 -149 l  562 0 l  524 0 l  p ef
665 3 m  654 3 644 1 636 -2 ct 627 -5 620 -10 614 -16 ct 608 -23 603 -31 600 -41 ct 
597 -51 595 -62 595 -75 ct 595 -89 597 -101 601 -111 ct 605 -121 610 -129 616 -135 ct 
623 -141 630 -145 639 -148 ct 647 -151 656 -152 665 -152 ct 677 -152 687 -150 695 -146 ct 
704 -142 710 -136 716 -129 ct 721 -121 725 -112 727 -102 ct 730 -92 731 -81 731 -68 ct 
731 -67 l  636 -67 l  636 -61 636 -55 637 -50 ct 638 -44 640 -40 643 -36 ct 
645 -32 648 -29 652 -26 ct 656 -24 661 -23 667 -23 ct 673 -23 679 -24 683 -27 ct 
688 -30 691 -35 693 -41 ct 729 -38 l  727 -33 725 -29 722 -24 ct 719 -19 715 -15 710 -11 ct 
705 -7 699 -4 692 -1 ct 684 2 675 3 665 3 ct p
665 -128 m  661 -128 657 -127 654 -126 ct 650 -124 647 -122 645 -119 ct 642 -116 640 -113 639 -108 ct 
637 -103 636 -98 636 -91 ct 694 -91 l  693 -103 690 -112 685 -119 ct 680 -125 673 -128 665 -128 ct 
p ef
761 0 m  761 -114 l  761 -117 761 -121 761 -124 ct 761 -128 760 -131 760 -135 ct 
760 -138 760 -141 760 -144 ct 760 -146 760 -148 760 -149 ct 796 -149 l  797 -148 797 -146 797 -144 ct 
797 -141 797 -138 798 -135 ct 798 -131 798 -128 798 -125 ct 798 -122 798 -119 798 -117 ct 
799 -117 l  801 -123 803 -128 805 -132 ct 807 -136 809 -140 811 -143 ct 814 -146 817 -148 821 -150 ct 
825 -151 829 -152 835 -152 ct 837 -152 839 -152 841 -151 ct 844 -151 845 -151 846 -150 ct 
846 -118 l  844 -118 841 -119 839 -119 ct 836 -119 833 -120 830 -120 ct 820 -120 813 -116 807 -108 ct 
802 -100 799 -89 799 -73 ct 799 0 l  761 0 l  p ef
869 0 m  869 -29 l  917 -29 l  917 -162 l  870 -132 l  870 -163 l  919 -195 l 
956 -195 l  956 -29 l  1000 -29 l  1000 0 l  869 0 l  p ef
1027 0 m  1027 -42 l  1067 -42 l  1067 0 l  1027 0 l  p ef
1249 -74 m  1249 -63 1248 -53 1244 -43 ct 1241 -34 1237 -26 1230 -19 ct 1224 -12 1216 -7 1207 -3 ct 
1197 1 1186 3 1174 3 ct 1161 3 1151 1 1141 -3 ct 1132 -6 1124 -12 1118 -19 ct 1112 -25 1107 -33 1104 -43 ct 
1101 -52 1099 -63 1099 -74 ct 1099 -86 1101 -96 1104 -105 ct 1107 -115 1111 -123 1118 -130 ct 
1124 -137 1132 -142 1141 -146 ct 1151 -150 1162 -152 1174 -152 ct 1188 -152 1199 -150 1209 -146 ct 
1218 -142 1226 -137 1232 -130 ct 1238 -123 1242 -115 1245 -105 ct 1248 -96 1249 -86 1249 -74 ct 
p
1209 -74 m  1209 -92 1206 -105 1200 -113 ct 1194 -121 1186 -125 1175 -125 ct 
1164 -125 1155 -121 1149 -113 ct 1143 -105 1140 -92 1140 -74 ct 1140 -66 1140 -58 1142 -51 ct 
1144 -45 1146 -40 1149 -36 ct 1152 -31 1155 -28 1159 -26 ct 1164 -24 1168 -23 1173 -23 ct 
1179 -23 1184 -24 1188 -26 ct 1193 -28 1197 -31 1200 -36 ct 1203 -40 1205 -45 1206 -51 ct 
1208 -58 1209 -66 1209 -74 ct p ef
pom
pum
14592 19375 t
146 -97 m  146 -78 144 -63 141 -50 ct 137 -37 132 -27 126 -19 ct 120 -11 113 -6 105 -2 ct 
96 1 87 3 78 3 ct 69 3 60 1 52 -2 ct 43 -6 36 -11 30 -19 ct 24 -27 20 -37 16 -50 ct 
13 -63 11 -78 11 -97 ct 11 -117 13 -133 16 -146 ct 20 -158 24 -169 30 -176 ct 36 -184 44 -189 52 -192 ct 
60 -195 69 -197 79 -197 ct 88 -197 97 -195 105 -192 ct 113 -189 120 -184 126 -176 ct 
132 -169 137 -158 141 -146 ct 144 -133 146 -117 146 -97 ct p
121 -97 m  121 -112 120 -125 118 -136 ct 116 -146 113 -154 110 -160 ct 106 -166 102 -171 97 -173 ct 
91 -176 86 -177 79 -177 ct 72 -177 66 -176 60 -173 ct 55 -170 51 -166 47 -160 ct 
43 -154 41 -146 39 -135 ct 37 -125 36 -112 36 -97 ct 36 -82 37 -70 39 -59 ct 41 -49 44 -41 47 -35 ct 
51 -29 55 -24 60 -21 ct 66 -19 72 -17 78 -17 ct 85 -17 91 -19 96 -21 ct 101 -24 106 -29 109 -35 ct 
113 -41 116 -49 118 -59 ct 120 -70 121 -82 121 -97 ct p ef
303 -97 m  303 -78 301 -63 298 -50 ct 294 -37 289 -27 283 -19 ct 277 -11 270 -6 262 -2 ct 
253 1 244 3 235 3 ct 226 3 217 1 209 -2 ct 200 -6 193 -11 187 -19 ct 181 -27 177 -37 173 -50 ct 
170 -63 168 -78 168 -97 ct 168 -117 170 -133 173 -146 ct 177 -158 181 -169 187 -176 ct 
193 -184 201 -189 209 -192 ct 217 -195 226 -197 236 -197 ct 245 -197 254 -195 262 -192 ct 
270 -189 277 -184 283 -176 ct 289 -169 294 -158 298 -146 ct 301 -133 303 -117 303 -97 ct 
p
278 -97 m  278 -112 277 -125 275 -136 ct 273 -146 270 -154 267 -160 ct 263 -166 259 -171 254 -173 ct 
248 -176 243 -177 236 -177 ct 229 -177 223 -176 217 -173 ct 212 -170 208 -166 204 -160 ct 
200 -154 198 -146 196 -135 ct 194 -125 193 -112 193 -97 ct 193 -82 194 -70 196 -59 ct 
198 -49 201 -41 204 -35 ct 208 -29 212 -24 217 -21 ct 223 -19 229 -17 235 -17 ct 
242 -17 248 -19 253 -21 ct 258 -24 263 -29 266 -35 ct 270 -41 273 -49 275 -59 ct 
277 -70 278 -82 278 -97 ct p ef
334 0 m  334 -21 l  384 -21 l  384 -171 l  340 -139 l  340 -163 l  386 -195 l 
409 -195 l  409 -21 l  456 -21 l  456 0 l  334 0 l  p ef
616 -97 m  616 -78 614 -63 611 -50 ct 607 -37 602 -27 596 -19 ct 590 -11 583 -6 575 -2 ct 
566 1 557 3 548 3 ct 539 3 530 1 522 -2 ct 513 -6 506 -11 500 -19 ct 494 -27 490 -37 486 -50 ct 
483 -63 481 -78 481 -97 ct 481 -117 483 -133 486 -146 ct 490 -158 494 -169 500 -176 ct 
506 -184 514 -189 522 -192 ct 530 -195 539 -197 549 -197 ct 558 -197 567 -195 575 -192 ct 
583 -189 590 -184 596 -176 ct 602 -169 607 -158 611 -146 ct 614 -133 616 -117 616 -97 ct 
p
591 -97 m  591 -112 590 -125 588 -136 ct 586 -146 583 -154 580 -160 ct 576 -166 572 -171 567 -173 ct 
561 -176 556 -177 549 -177 ct 542 -177 536 -176 530 -173 ct 525 -170 521 -166 517 -160 ct 
513 -154 511 -146 509 -135 ct 507 -125 506 -112 506 -97 ct 506 -82 507 -70 509 -59 ct 
511 -49 514 -41 517 -35 ct 521 -29 525 -24 530 -21 ct 536 -19 542 -17 548 -17 ct 
555 -17 561 -19 566 -21 ct 571 -24 576 -29 579 -35 ct 583 -41 586 -49 588 -59 ct 
590 -70 591 -82 591 -97 ct p ef
648 0 m  648 -21 l  698 -21 l  698 -171 l  654 -139 l  654 -163 l  700 -195 l 
723 -195 l  723 -21 l  770 -21 l  770 0 l  648 0 l  p ef
929 -97 m  929 -78 927 -63 924 -50 ct 920 -37 915 -27 909 -19 ct 903 -11 896 -6 888 -2 ct 
879 1 870 3 861 3 ct 852 3 843 1 835 -2 ct 826 -6 819 -11 813 -19 ct 807 -27 803 -37 799 -50 ct 
796 -63 794 -78 794 -97 ct 794 -117 796 -133 799 -146 ct 803 -158 807 -169 813 -176 ct 
819 -184 827 -189 835 -192 ct 843 -195 852 -197 862 -197 ct 871 -197 880 -195 888 -192 ct 
896 -189 903 -184 909 -176 ct 915 -169 920 -158 924 -146 ct 927 -133 929 -117 929 -97 ct 
p
904 -97 m  904 -112 903 -125 901 -136 ct 899 -146 896 -154 893 -160 ct 889 -166 885 -171 880 -173 ct 
874 -176 869 -177 862 -177 ct 855 -177 849 -176 843 -173 ct 838 -170 834 -166 830 -160 ct 
826 -154 824 -146 822 -135 ct 820 -125 819 -112 819 -97 ct 819 -82 820 -70 822 -59 ct 
824 -49 827 -41 830 -35 ct 834 -29 838 -24 843 -21 ct 849 -19 855 -17 861 -17 ct 
868 -17 874 -19 879 -21 ct 884 -24 889 -29 892 -35 ct 896 -41 899 -49 901 -59 ct 
903 -70 904 -82 904 -97 ct p ef
961 0 m  961 -21 l  1011 -21 l  1011 -171 l  967 -139 l  967 -163 l  1013 -195 l 
1036 -195 l  1036 -21 l  1083 -21 l  1083 0 l  961 0 l  p ef
1242 -97 m  1242 -78 1240 -63 1237 -50 ct 1233 -37 1228 -27 1222 -19 ct 1216 -11 1209 -6 1201 -2 ct 
1192 1 1183 3 1174 3 ct 1165 3 1156 1 1148 -2 ct 1139 -6 1132 -11 1126 -19 ct 1120 -27 1116 -37 1112 -50 ct 
1109 -63 1107 -78 1107 -97 ct 1107 -117 1109 -133 1112 -146 ct 1116 -158 1120 -169 1126 -176 ct 
1132 -184 1140 -189 1148 -192 ct 1156 -195 1165 -197 1175 -197 ct 1184 -197 1193 -195 1201 -192 ct 
1209 -189 1216 -184 1222 -176 ct 1228 -169 1233 -158 1237 -146 ct 1240 -133 1242 -117 1242 -97 ct 
p
1217 -97 m  1217 -112 1216 -125 1214 -136 ct 1212 -146 1209 -154 1206 -160 ct 
1202 -166 1198 -171 1193 -173 ct 1187 -176 1182 -177 1175 -177 ct 1168 -177 1162 -176 1156 -173 ct 
1151 -170 1147 -166 1143 -160 ct 1139 -154 1137 -146 1135 -135 ct 1133 -125 1132 -112 1132 -97 ct 
1132 -82 1133 -70 1135 -59 ct 1137 -49 1140 -41 1143 -35 ct 1147 -29 1151 -24 1156 -21 ct 
1162 -19 1168 -17 1174 -17 ct 1181 -17 1187 -19 1192 -21 ct 1197 -24 1202 -29 1205 -35 ct 
1209 -41 1212 -49 1214 -59 ct 1216 -70 1217 -82 1217 -97 ct p ef
1274 0 m  1274 -21 l  1324 -21 l  1324 -171 l  1280 -139 l  1280 -163 l 
1326 -195 l  1349 -195 l  1349 -21 l  1396 -21 l  1396 0 l  1274 0 l  p ef
1556 -97 m  1556 -78 1554 -63 1551 -50 ct 1547 -37 1542 -27 1536 -19 ct 1530 -11 1523 -6 1515 -2 ct 
1506 1 1497 3 1488 3 ct 1479 3 1470 1 1462 -2 ct 1453 -6 1446 -11 1440 -19 ct 1434 -27 1430 -37 1426 -50 ct 
1423 -63 1421 -78 1421 -97 ct 1421 -117 1423 -133 1426 -146 ct 1430 -158 1434 -169 1440 -176 ct 
1446 -184 1454 -189 1462 -192 ct 1470 -195 1479 -197 1489 -197 ct 1498 -197 1507 -195 1515 -192 ct 
1523 -189 1530 -184 1536 -176 ct 1542 -169 1547 -158 1551 -146 ct 1554 -133 1556 -117 1556 -97 ct 
p
1531 -97 m  1531 -112 1530 -125 1528 -136 ct 1526 -146 1523 -154 1520 -160 ct 
1516 -166 1512 -171 1507 -173 ct 1501 -176 1496 -177 1489 -177 ct 1482 -177 1476 -176 1470 -173 ct 
1465 -170 1461 -166 1457 -160 ct 1453 -154 1451 -146 1449 -135 ct 1447 -125 1446 -112 1446 -97 ct 
1446 -82 1447 -70 1449 -59 ct 1451 -49 1454 -41 1457 -35 ct 1461 -29 1465 -24 1470 -21 ct 
1476 -19 1482 -17 1488 -17 ct 1495 -17 1501 -19 1506 -21 ct 1511 -24 1516 -29 1519 -35 ct 
1523 -41 1526 -49 1528 -59 ct 1530 -70 1531 -82 1531 -97 ct p ef
1587 0 m  1587 -21 l  1637 -21 l  1637 -171 l  1593 -139 l  1593 -163 l 
1639 -195 l  1662 -195 l  1662 -21 l  1709 -21 l  1709 0 l  1587 0 l  p ef
1869 -97 m  1869 -78 1867 -63 1864 -50 ct 1860 -37 1855 -27 1849 -19 ct 1843 -11 1836 -6 1828 -2 ct 
1819 1 1810 3 1801 3 ct 1792 3 1783 1 1775 -2 ct 1766 -6 1759 -11 1753 -19 ct 1747 -27 1743 -37 1739 -50 ct 
1736 -63 1734 -78 1734 -97 ct 1734 -117 1736 -133 1739 -146 ct 1743 -158 1747 -169 1753 -176 ct 
1759 -184 1767 -189 1775 -192 ct 1783 -195 1792 -197 1802 -197 ct 1811 -197 1820 -195 1828 -192 ct 
1836 -189 1843 -184 1849 -176 ct 1855 -169 1860 -158 1864 -146 ct 1867 -133 1869 -117 1869 -97 ct 
p
1844 -97 m  1844 -112 1843 -125 1841 -136 ct 1839 -146 1836 -154 1833 -160 ct 
1829 -166 1825 -171 1820 -173 ct 1814 -176 1809 -177 1802 -177 ct 1795 -177 1789 -176 1783 -173 ct 
1778 -170 1774 -166 1770 -160 ct 1766 -154 1764 -146 1762 -135 ct 1760 -125 1759 -112 1759 -97 ct 
1759 -82 1760 -70 1762 -59 ct 1764 -49 1767 -41 1770 -35 ct 1774 -29 1778 -24 1783 -21 ct 
1789 -19 1795 -17 1801 -17 ct 1808 -17 1814 -19 1819 -21 ct 1824 -24 1829 -29 1832 -35 ct 
1836 -41 1839 -49 1841 -59 ct 1843 -70 1844 -82 1844 -97 ct p ef
pom
pum
14592 19693 t
21 0 m  21 -21 l  71 -21 l  71 -171 l  27 -139 l  27 -163 l  73 -195 l 
96 -195 l  96 -21 l  143 -21 l  143 0 l  21 0 l  p ef
303 -97 m  303 -78 301 -63 298 -50 ct 294 -37 289 -27 283 -19 ct 277 -11 270 -6 262 -2 ct 
253 1 244 3 235 3 ct 226 3 217 1 209 -2 ct 200 -6 193 -11 187 -19 ct 181 -27 177 -37 173 -50 ct 
170 -63 168 -78 168 -97 ct 168 -117 170 -133 173 -146 ct 177 -158 181 -169 187 -176 ct 
193 -184 201 -189 209 -192 ct 217 -195 226 -197 236 -197 ct 245 -197 254 -195 262 -192 ct 
270 -189 277 -184 283 -176 ct 289 -169 294 -158 298 -146 ct 301 -133 303 -117 303 -97 ct 
p
278 -97 m  278 -112 277 -125 275 -136 ct 273 -146 270 -154 267 -160 ct 263 -166 259 -171 254 -173 ct 
248 -176 243 -177 236 -177 ct 229 -177 223 -176 217 -173 ct 212 -170 208 -166 204 -160 ct 
200 -154 198 -146 196 -135 ct 194 -125 193 -112 193 -97 ct 193 -82 194 -70 196 -59 ct 
198 -49 201 -41 204 -35 ct 208 -29 212 -24 217 -21 ct 223 -19 229 -17 235 -17 ct 
242 -17 248 -19 253 -21 ct 258 -24 263 -29 266 -35 ct 270 -41 273 -49 275 -59 ct 
277 -70 278 -82 278 -97 ct p ef
459 -97 m  459 -78 457 -63 454 -50 ct 450 -37 445 -27 439 -19 ct 433 -11 426 -6 418 -2 ct 
409 1 400 3 391 3 ct 382 3 373 1 365 -2 ct 356 -6 349 -11 343 -19 ct 337 -27 333 -37 329 -50 ct 
326 -63 324 -78 324 -97 ct 324 -117 326 -133 329 -146 ct 333 -158 337 -169 343 -176 ct 
349 -184 357 -189 365 -192 ct 373 -195 382 -197 392 -197 ct 401 -197 410 -195 418 -192 ct 
426 -189 433 -184 439 -176 ct 445 -169 450 -158 454 -146 ct 457 -133 459 -117 459 -97 ct 
p
434 -97 m  434 -112 433 -125 431 -136 ct 429 -146 426 -154 423 -160 ct 419 -166 415 -171 410 -173 ct 
404 -176 399 -177 392 -177 ct 385 -177 379 -176 373 -173 ct 368 -170 364 -166 360 -160 ct 
356 -154 354 -146 352 -135 ct 350 -125 349 -112 349 -97 ct 349 -82 350 -70 352 -59 ct 
354 -49 357 -41 360 -35 ct 364 -29 368 -24 373 -21 ct 379 -19 385 -17 391 -17 ct 
398 -17 404 -19 409 -21 ct 414 -24 419 -29 422 -35 ct 426 -41 429 -49 431 -59 ct 
433 -70 434 -82 434 -97 ct p ef
491 0 m  491 -21 l  541 -21 l  541 -171 l  497 -139 l  497 -163 l  543 -195 l 
566 -195 l  566 -21 l  613 -21 l  613 0 l  491 0 l  p ef
773 -97 m  773 -78 771 -63 768 -50 ct 764 -37 759 -27 753 -19 ct 747 -11 740 -6 732 -2 ct 
723 1 714 3 705 3 ct 696 3 687 1 679 -2 ct 670 -6 663 -11 657 -19 ct 651 -27 647 -37 643 -50 ct 
640 -63 638 -78 638 -97 ct 638 -117 640 -133 643 -146 ct 647 -158 651 -169 657 -176 ct 
663 -184 671 -189 679 -192 ct 687 -195 696 -197 706 -197 ct 715 -197 724 -195 732 -192 ct 
740 -189 747 -184 753 -176 ct 759 -169 764 -158 768 -146 ct 771 -133 773 -117 773 -97 ct 
p
748 -97 m  748 -112 747 -125 745 -136 ct 743 -146 740 -154 737 -160 ct 733 -166 729 -171 724 -173 ct 
718 -176 713 -177 706 -177 ct 699 -177 693 -176 687 -173 ct 682 -170 678 -166 674 -160 ct 
670 -154 668 -146 666 -135 ct 664 -125 663 -112 663 -97 ct 663 -82 664 -70 666 -59 ct 
668 -49 671 -41 674 -35 ct 678 -29 682 -24 687 -21 ct 693 -19 699 -17 705 -17 ct 
712 -17 718 -19 723 -21 ct 728 -24 733 -29 736 -35 ct 740 -41 743 -49 745 -59 ct 
747 -70 748 -82 748 -97 ct p ef
804 0 m  804 -21 l  854 -21 l  854 -171 l  810 -139 l  810 -163 l  856 -195 l 
879 -195 l  879 -21 l  926 -21 l  926 0 l  804 0 l  p ef
1086 -97 m  1086 -78 1084 -63 1081 -50 ct 1077 -37 1072 -27 1066 -19 ct 1060 -11 1053 -6 1045 -2 ct 
1036 1 1027 3 1018 3 ct 1009 3 1000 1 992 -2 ct 983 -6 976 -11 970 -19 ct 964 -27 960 -37 956 -50 ct 
953 -63 951 -78 951 -97 ct 951 -117 953 -133 956 -146 ct 960 -158 964 -169 970 -176 ct 
976 -184 984 -189 992 -192 ct 1000 -195 1009 -197 1019 -197 ct 1028 -197 1037 -195 1045 -192 ct 
1053 -189 1060 -184 1066 -176 ct 1072 -169 1077 -158 1081 -146 ct 1084 -133 1086 -117 1086 -97 ct 
p
1061 -97 m  1061 -112 1060 -125 1058 -136 ct 1056 -146 1053 -154 1050 -160 ct 
1046 -166 1042 -171 1037 -173 ct 1031 -176 1026 -177 1019 -177 ct 1012 -177 1006 -176 1000 -173 ct 
995 -170 991 -166 987 -160 ct 983 -154 981 -146 979 -135 ct 977 -125 976 -112 976 -97 ct 
976 -82 977 -70 979 -59 ct 981 -49 984 -41 987 -35 ct 991 -29 995 -24 1000 -21 ct 
1006 -19 1012 -17 1018 -17 ct 1025 -17 1031 -19 1036 -21 ct 1041 -24 1046 -29 1049 -35 ct 
1053 -41 1056 -49 1058 -59 ct 1060 -70 1061 -82 1061 -97 ct p ef
1117 0 m  1117 -21 l  1167 -21 l  1167 -171 l  1123 -139 l  1123 -163 l 
1169 -195 l  1192 -195 l  1192 -21 l  1239 -21 l  1239 0 l  1117 0 l  p ef
1399 -97 m  1399 -78 1397 -63 1394 -50 ct 1390 -37 1385 -27 1379 -19 ct 1373 -11 1366 -6 1358 -2 ct 
1349 1 1340 3 1331 3 ct 1322 3 1313 1 1305 -2 ct 1296 -6 1289 -11 1283 -19 ct 1277 -27 1273 -37 1269 -50 ct 
1266 -63 1264 -78 1264 -97 ct 1264 -117 1266 -133 1269 -146 ct 1273 -158 1277 -169 1283 -176 ct 
1289 -184 1297 -189 1305 -192 ct 1313 -195 1322 -197 1332 -197 ct 1341 -197 1350 -195 1358 -192 ct 
1366 -189 1373 -184 1379 -176 ct 1385 -169 1390 -158 1394 -146 ct 1397 -133 1399 -117 1399 -97 ct 
p
1374 -97 m  1374 -112 1373 -125 1371 -136 ct 1369 -146 1366 -154 1363 -160 ct 
1359 -166 1355 -171 1350 -173 ct 1344 -176 1339 -177 1332 -177 ct 1325 -177 1319 -176 1313 -173 ct 
1308 -170 1304 -166 1300 -160 ct 1296 -154 1294 -146 1292 -135 ct 1290 -125 1289 -112 1289 -97 ct 
1289 -82 1290 -70 1292 -59 ct 1294 -49 1297 -41 1300 -35 ct 1304 -29 1308 -24 1313 -21 ct 
1319 -19 1325 -17 1331 -17 ct 1338 -17 1344 -19 1349 -21 ct 1354 -24 1359 -29 1362 -35 ct 
1366 -41 1369 -49 1371 -59 ct 1373 -70 1374 -82 1374 -97 ct p ef
1556 -97 m  1556 -78 1554 -63 1551 -50 ct 1547 -37 1542 -27 1536 -19 ct 1530 -11 1523 -6 1515 -2 ct 
1506 1 1497 3 1488 3 ct 1479 3 1470 1 1462 -2 ct 1453 -6 1446 -11 1440 -19 ct 1434 -27 1430 -37 1426 -50 ct 
1423 -63 1421 -78 1421 -97 ct 1421 -117 1423 -133 1426 -146 ct 1430 -158 1434 -169 1440 -176 ct 
1446 -184 1454 -189 1462 -192 ct 1470 -195 1479 -197 1489 -197 ct 1498 -197 1507 -195 1515 -192 ct 
1523 -189 1530 -184 1536 -176 ct 1542 -169 1547 -158 1551 -146 ct 1554 -133 1556 -117 1556 -97 ct 
p
1531 -97 m  1531 -112 1530 -125 1528 -136 ct 1526 -146 1523 -154 1520 -160 ct 
1516 -166 1512 -171 1507 -173 ct 1501 -176 1496 -177 1489 -177 ct 1482 -177 1476 -176 1470 -173 ct 
1465 -170 1461 -166 1457 -160 ct 1453 -154 1451 -146 1449 -135 ct 1447 -125 1446 -112 1446 -97 ct 
1446 -82 1447 -70 1449 -59 ct 1451 -49 1454 -41 1457 -35 ct 1461 -29 1465 -24 1470 -21 ct 
1476 -19 1482 -17 1488 -17 ct 1495 -17 1501 -19 1506 -21 ct 1511 -24 1516 -29 1519 -35 ct 
1523 -41 1526 -49 1528 -59 ct 1530 -70 1531 -82 1531 -97 ct p ef
1712 -97 m  1712 -78 1710 -63 1707 -50 ct 1703 -37 1698 -27 1692 -19 ct 1686 -11 1679 -6 1671 -2 ct 
1662 1 1653 3 1644 3 ct 1635 3 1626 1 1618 -2 ct 1609 -6 1602 -11 1596 -19 ct 1590 -27 1586 -37 1582 -50 ct 
1579 -63 1577 -78 1577 -97 ct 1577 -117 1579 -133 1582 -146 ct 1586 -158 1590 -169 1596 -176 ct 
1602 -184 1610 -189 1618 -192 ct 1626 -195 1635 -197 1645 -197 ct 1654 -197 1663 -195 1671 -192 ct 
1679 -189 1686 -184 1692 -176 ct 1698 -169 1703 -158 1707 -146 ct 1710 -133 1712 -117 1712 -97 ct 
p
1687 -97 m  1687 -112 1686 -125 1684 -136 ct 1682 -146 1679 -154 1676 -160 ct 
1672 -166 1668 -171 1663 -173 ct 1657 -176 1652 -177 1645 -177 ct 1638 -177 1632 -176 1626 -173 ct 
1621 -170 1617 -166 1613 -160 ct 1609 -154 1607 -146 1605 -135 ct 1603 -125 1602 -112 1602 -97 ct 
1602 -82 1603 -70 1605 -59 ct 1607 -49 1610 -41 1613 -35 ct 1617 -29 1621 -24 1626 -21 ct 
1632 -19 1638 -17 1644 -17 ct 1651 -17 1657 -19 1662 -21 ct 1667 -24 1672 -29 1675 -35 ct 
1679 -41 1682 -49 1684 -59 ct 1686 -70 1687 -82 1687 -97 ct p ef
1744 0 m  1744 -21 l  1794 -21 l  1794 -171 l  1750 -139 l  1750 -163 l 
1796 -195 l  1819 -195 l  1819 -21 l  1866 -21 l  1866 0 l  1744 0 l  p ef
pom
pum
14592 20011 t
146 -97 m  146 -78 144 -63 141 -50 ct 137 -37 132 -27 126 -19 ct 120 -11 113 -6 105 -2 ct 
96 1 87 3 78 3 ct 69 3 60 1 52 -2 ct 43 -6 36 -11 30 -19 ct 24 -27 20 -37 16 -50 ct 
13 -63 11 -78 11 -97 ct 11 -117 13 -133 16 -146 ct 20 -158 24 -169 30 -176 ct 36 -184 44 -189 52 -192 ct 
60 -195 69 -197 79 -197 ct 88 -197 97 -195 105 -192 ct 113 -189 120 -184 126 -176 ct 
132 -169 137 -158 141 -146 ct 144 -133 146 -117 146 -97 ct p
121 -97 m  121 -112 120 -125 118 -136 ct 116 -146 113 -154 110 -160 ct 106 -166 102 -171 97 -173 ct 
91 -176 86 -177 79 -177 ct 72 -177 66 -176 60 -173 ct 55 -170 51 -166 47 -160 ct 
43 -154 41 -146 39 -135 ct 37 -125 36 -112 36 -97 ct 36 -82 37 -70 39 -59 ct 41 -49 44 -41 47 -35 ct 
51 -29 55 -24 60 -21 ct 66 -19 72 -17 78 -17 ct 85 -17 91 -19 96 -21 ct 101 -24 106 -29 109 -35 ct 
113 -41 116 -49 118 -59 ct 120 -70 121 -82 121 -97 ct p ef
303 -97 m  303 -78 301 -63 298 -50 ct 294 -37 289 -27 283 -19 ct 277 -11 270 -6 262 -2 ct 
253 1 244 3 235 3 ct 226 3 217 1 209 -2 ct 200 -6 193 -11 187 -19 ct 181 -27 177 -37 173 -50 ct 
170 -63 168 -78 168 -97 ct 168 -117 170 -133 173 -146 ct 177 -158 181 -169 187 -176 ct 
193 -184 201 -189 209 -192 ct 217 -195 226 -197 236 -197 ct 245 -197 254 -195 262 -192 ct 
270 -189 277 -184 283 -176 ct 289 -169 294 -158 298 -146 ct 301 -133 303 -117 303 -97 ct 
p
278 -97 m  278 -112 277 -125 275 -136 ct 273 -146 270 -154 267 -160 ct 263 -166 259 -171 254 -173 ct 
248 -176 243 -177 236 -177 ct 229 -177 223 -176 217 -173 ct 212 -170 208 -166 204 -160 ct 
200 -154 198 -146 196 -135 ct 194 -125 193 -112 193 -97 ct 193 -82 194 -70 196 -59 ct 
198 -49 201 -41 204 -35 ct 208 -29 212 -24 217 -21 ct 223 -19 229 -17 235 -17 ct 
242 -17 248 -19 253 -21 ct 258 -24 263 -29 266 -35 ct 270 -41 273 -49 275 -59 ct 
277 -70 278 -82 278 -97 ct p ef
459 -97 m  459 -78 457 -63 454 -50 ct 450 -37 445 -27 439 -19 ct 433 -11 426 -6 418 -2 ct 
409 1 400 3 391 3 ct 382 3 373 1 365 -2 ct 356 -6 349 -11 343 -19 ct 337 -27 333 -37 329 -50 ct 
326 -63 324 -78 324 -97 ct 324 -117 326 -133 329 -146 ct 333 -158 337 -169 343 -176 ct 
349 -184 357 -189 365 -192 ct 373 -195 382 -197 392 -197 ct 401 -197 410 -195 418 -192 ct 
426 -189 433 -184 439 -176 ct 445 -169 450 -158 454 -146 ct 457 -133 459 -117 459 -97 ct 
p
434 -97 m  434 -112 433 -125 431 -136 ct 429 -146 426 -154 423 -160 ct 419 -166 415 -171 410 -173 ct 
404 -176 399 -177 392 -177 ct 385 -177 379 -176 373 -173 ct 368 -170 364 -166 360 -160 ct 
356 -154 354 -146 352 -135 ct 350 -125 349 -112 349 -97 ct 349 -82 350 -70 352 -59 ct 
354 -49 357 -41 360 -35 ct 364 -29 368 -24 373 -21 ct 379 -19 385 -17 391 -17 ct 
398 -17 404 -19 409 -21 ct 414 -24 419 -29 422 -35 ct 426 -41 429 -49 431 -59 ct 
433 -70 434 -82 434 -97 ct p ef
491 0 m  491 -21 l  541 -21 l  541 -171 l  497 -139 l  497 -163 l  543 -195 l 
566 -195 l  566 -21 l  613 -21 l  613 0 l  491 0 l  p ef
773 -97 m  773 -78 771 -63 768 -50 ct 764 -37 759 -27 753 -19 ct 747 -11 740 -6 732 -2 ct 
723 1 714 3 705 3 ct 696 3 687 1 679 -2 ct 670 -6 663 -11 657 -19 ct 651 -27 647 -37 643 -50 ct 
640 -63 638 -78 638 -97 ct 638 -117 640 -133 643 -146 ct 647 -158 651 -169 657 -176 ct 
663 -184 671 -189 679 -192 ct 687 -195 696 -197 706 -197 ct 715 -197 724 -195 732 -192 ct 
740 -189 747 -184 753 -176 ct 759 -169 764 -158 768 -146 ct 771 -133 773 -117 773 -97 ct 
p
748 -97 m  748 -112 747 -125 745 -136 ct 743 -146 740 -154 737 -160 ct 733 -166 729 -171 724 -173 ct 
718 -176 713 -177 706 -177 ct 699 -177 693 -176 687 -173 ct 682 -170 678 -166 674 -160 ct 
670 -154 668 -146 666 -135 ct 664 -125 663 -112 663 -97 ct 663 -82 664 -70 666 -59 ct 
668 -49 671 -41 674 -35 ct 678 -29 682 -24 687 -21 ct 693 -19 699 -17 705 -17 ct 
712 -17 718 -19 723 -21 ct 728 -24 733 -29 736 -35 ct 740 -41 743 -49 745 -59 ct 
747 -70 748 -82 748 -97 ct p ef
804 0 m  804 -21 l  854 -21 l  854 -171 l  810 -139 l  810 -163 l  856 -195 l 
879 -195 l  879 -21 l  926 -21 l  926 0 l  804 0 l  p ef
1086 -97 m  1086 -78 1084 -63 1081 -50 ct 1077 -37 1072 -27 1066 -19 ct 1060 -11 1053 -6 1045 -2 ct 
1036 1 1027 3 1018 3 ct 1009 3 1000 1 992 -2 ct 983 -6 976 -11 970 -19 ct 964 -27 960 -37 956 -50 ct 
953 -63 951 -78 951 -97 ct 951 -117 953 -133 956 -146 ct 960 -158 964 -169 970 -176 ct 
976 -184 984 -189 992 -192 ct 1000 -195 1009 -197 1019 -197 ct 1028 -197 1037 -195 1045 -192 ct 
1053 -189 1060 -184 1066 -176 ct 1072 -169 1077 -158 1081 -146 ct 1084 -133 1086 -117 1086 -97 ct 
p
1061 -97 m  1061 -112 1060 -125 1058 -136 ct 1056 -146 1053 -154 1050 -160 ct 
1046 -166 1042 -171 1037 -173 ct 1031 -176 1026 -177 1019 -177 ct 1012 -177 1006 -176 1000 -173 ct 
995 -170 991 -166 987 -160 ct 983 -154 981 -146 979 -135 ct 977 -125 976 -112 976 -97 ct 
976 -82 977 -70 979 -59 ct 981 -49 984 -41 987 -35 ct 991 -29 995 -24 1000 -21 ct 
1006 -19 1012 -17 1018 -17 ct 1025 -17 1031 -19 1036 -21 ct 1041 -24 1046 -29 1049 -35 ct 
1053 -41 1056 -49 1058 -59 ct 1060 -70 1061 -82 1061 -97 ct p ef
1117 0 m  1117 -21 l  1167 -21 l  1167 -171 l  1123 -139 l  1123 -163 l 
1169 -195 l  1192 -195 l  1192 -21 l  1239 -21 l  1239 0 l  1117 0 l  p ef
1399 -97 m  1399 -78 1397 -63 1394 -50 ct 1390 -37 1385 -27 1379 -19 ct 1373 -11 1366 -6 1358 -2 ct 
1349 1 1340 3 1331 3 ct 1322 3 1313 1 1305 -2 ct 1296 -6 1289 -11 1283 -19 ct 1277 -27 1273 -37 1269 -50 ct 
1266 -63 1264 -78 1264 -97 ct 1264 -117 1266 -133 1269 -146 ct 1273 -158 1277 -169 1283 -176 ct 
1289 -184 1297 -189 1305 -192 ct 1313 -195 1322 -197 1332 -197 ct 1341 -197 1350 -195 1358 -192 ct 
1366 -189 1373 -184 1379 -176 ct 1385 -169 1390 -158 1394 -146 ct 1397 -133 1399 -117 1399 -97 ct 
p
1374 -97 m  1374 -112 1373 -125 1371 -136 ct 1369 -146 1366 -154 1363 -160 ct 
1359 -166 1355 -171 1350 -173 ct 1344 -176 1339 -177 1332 -177 ct 1325 -177 1319 -176 1313 -173 ct 
1308 -170 1304 -166 1300 -160 ct 1296 -154 1294 -146 1292 -135 ct 1290 -125 1289 -112 1289 -97 ct 
1289 -82 1290 -70 1292 -59 ct 1294 -49 1297 -41 1300 -35 ct 1304 -29 1308 -24 1313 -21 ct 
1319 -19 1325 -17 1331 -17 ct 1338 -17 1344 -19 1349 -21 ct 1354 -24 1359 -29 1362 -35 ct 
1366 -41 1369 -49 1371 -59 ct 1373 -70 1374 -82 1374 -97 ct p ef
1431 0 m  1431 -21 l  1481 -21 l  1481 -171 l  1437 -139 l  1437 -163 l 
1483 -195 l  1506 -195 l  1506 -21 l  1553 -21 l  1553 0 l  1431 0 l  p ef
1712 -97 m  1712 -78 1710 -63 1707 -50 ct 1703 -37 1698 -27 1692 -19 ct 1686 -11 1679 -6 1671 -2 ct 
1662 1 1653 3 1644 3 ct 1635 3 1626 1 1618 -2 ct 1609 -6 1602 -11 1596 -19 ct 1590 -27 1586 -37 1582 -50 ct 
1579 -63 1577 -78 1577 -97 ct 1577 -117 1579 -133 1582 -146 ct 1586 -158 1590 -169 1596 -176 ct 
1602 -184 1610 -189 1618 -192 ct 1626 -195 1635 -197 1645 -197 ct 1654 -197 1663 -195 1671 -192 ct 
1679 -189 1686 -184 1692 -176 ct 1698 -169 1703 -158 1707 -146 ct 1710 -133 1712 -117 1712 -97 ct 
p
1687 -97 m  1687 -112 1686 -125 1684 -136 ct 1682 -146 1679 -154 1676 -160 ct 
1672 -166 1668 -171 1663 -173 ct 1657 -176 1652 -177 1645 -177 ct 1638 -177 1632 -176 1626 -173 ct 
1621 -170 1617 -166 1613 -160 ct 1609 -154 1607 -146 1605 -135 ct 1603 -125 1602 -112 1602 -97 ct 
1602 -82 1603 -70 1605 -59 ct 1607 -49 1610 -41 1613 -35 ct 1617 -29 1621 -24 1626 -21 ct 
1632 -19 1638 -17 1644 -17 ct 1651 -17 1657 -19 1662 -21 ct 1667 -24 1672 -29 1675 -35 ct 
1679 -41 1682 -49 1684 -59 ct 1686 -70 1687 -82 1687 -97 ct p ef
1744 0 m  1744 -21 l  1794 -21 l  1794 -171 l  1750 -139 l  1750 -163 l 
1796 -195 l  1819 -195 l  1819 -21 l  1866 -21 l  1866 0 l  1744 0 l  p ef
pom
pum
14592 20329 t
21 0 m  21 -21 l  71 -21 l  71 -171 l  27 -139 l  27 -163 l  73 -195 l 
96 -195 l  96 -21 l  143 -21 l  143 0 l  21 0 l  p ef
303 -97 m  303 -78 301 -63 298 -50 ct 294 -37 289 -27 283 -19 ct 277 -11 270 -6 262 -2 ct 
253 1 244 3 235 3 ct 226 3 217 1 209 -2 ct 200 -6 193 -11 187 -19 ct 181 -27 177 -37 173 -50 ct 
170 -63 168 -78 168 -97 ct 168 -117 170 -133 173 -146 ct 177 -158 181 -169 187 -176 ct 
193 -184 201 -189 209 -192 ct 217 -195 226 -197 236 -197 ct 245 -197 254 -195 262 -192 ct 
270 -189 277 -184 283 -176 ct 289 -169 294 -158 298 -146 ct 301 -133 303 -117 303 -97 ct 
p
278 -97 m  278 -112 277 -125 275 -136 ct 273 -146 270 -154 267 -160 ct 263 -166 259 -171 254 -173 ct 
248 -176 243 -177 236 -177 ct 229 -177 223 -176 217 -173 ct 212 -170 208 -166 204 -160 ct 
200 -154 198 -146 196 -135 ct 194 -125 193 -112 193 -97 ct 193 -82 194 -70 196 -59 ct 
198 -49 201 -41 204 -35 ct 208 -29 212 -24 217 -21 ct 223 -19 229 -17 235 -17 ct 
242 -17 248 -19 253 -21 ct 258 -24 263 -29 266 -35 ct 270 -41 273 -49 275 -59 ct 
277 -70 278 -82 278 -97 ct p ef
459 -97 m  459 -78 457 -63 454 -50 ct 450 -37 445 -27 439 -19 ct 433 -11 426 -6 418 -2 ct 
409 1 400 3 391 3 ct 382 3 373 1 365 -2 ct 356 -6 349 -11 343 -19 ct 337 -27 333 -37 329 -50 ct 
326 -63 324 -78 324 -97 ct 324 -117 326 -133 329 -146 ct 333 -158 337 -169 343 -176 ct 
349 -184 357 -189 365 -192 ct 373 -195 382 -197 392 -197 ct 401 -197 410 -195 418 -192 ct 
426 -189 433 -184 439 -176 ct 445 -169 450 -158 454 -146 ct 457 -133 459 -117 459 -97 ct 
p
434 -97 m  434 -112 433 -125 431 -136 ct 429 -146 426 -154 423 -160 ct 419 -166 415 -171 410 -173 ct 
404 -176 399 -177 392 -177 ct 385 -177 379 -176 373 -173 ct 368 -170 364 -166 360 -160 ct 
356 -154 354 -146 352 -135 ct 350 -125 349 -112 349 -97 ct 349 -82 350 -70 352 -59 ct 
354 -49 357 -41 360 -35 ct 364 -29 368 -24 373 -21 ct 379 -19 385 -17 391 -17 ct 
398 -17 404 -19 409 -21 ct 414 -24 419 -29 422 -35 ct 426 -41 429 -49 431 -59 ct 
433 -70 434 -82 434 -97 ct p ef
491 0 m  491 -21 l  541 -21 l  541 -171 l  497 -139 l  497 -163 l  543 -195 l 
566 -195 l  566 -21 l  613 -21 l  613 0 l  491 0 l  p ef
773 -97 m  773 -78 771 -63 768 -50 ct 764 -37 759 -27 753 -19 ct 747 -11 740 -6 732 -2 ct 
723 1 714 3 705 3 ct 696 3 687 1 679 -2 ct 670 -6 663 -11 657 -19 ct 651 -27 647 -37 643 -50 ct 
640 -63 638 -78 638 -97 ct 638 -117 640 -133 643 -146 ct 647 -158 651 -169 657 -176 ct 
663 -184 671 -189 679 -192 ct 687 -195 696 -197 706 -197 ct 715 -197 724 -195 732 -192 ct 
740 -189 747 -184 753 -176 ct 759 -169 764 -158 768 -146 ct 771 -133 773 -117 773 -97 ct 
p
748 -97 m  748 -112 747 -125 745 -136 ct 743 -146 740 -154 737 -160 ct 733 -166 729 -171 724 -173 ct 
718 -176 713 -177 706 -177 ct 699 -177 693 -176 687 -173 ct 682 -170 678 -166 674 -160 ct 
670 -154 668 -146 666 -135 ct 664 -125 663 -112 663 -97 ct 663 -82 664 -70 666 -59 ct 
668 -49 671 -41 674 -35 ct 678 -29 682 -24 687 -21 ct 693 -19 699 -17 705 -17 ct 
712 -17 718 -19 723 -21 ct 728 -24 733 -29 736 -35 ct 740 -41 743 -49 745 -59 ct 
747 -70 748 -82 748 -97 ct p ef
929 -97 m  929 -78 927 -63 924 -50 ct 920 -37 915 -27 909 -19 ct 903 -11 896 -6 888 -2 ct 
879 1 870 3 861 3 ct 852 3 843 1 835 -2 ct 826 -6 819 -11 813 -19 ct 807 -27 803 -37 799 -50 ct 
796 -63 794 -78 794 -97 ct 794 -117 796 -133 799 -146 ct 803 -158 807 -169 813 -176 ct 
819 -184 827 -189 835 -192 ct 843 -195 852 -197 862 -197 ct 871 -197 880 -195 888 -192 ct 
896 -189 903 -184 909 -176 ct 915 -169 920 -158 924 -146 ct 927 -133 929 -117 929 -97 ct 
p
904 -97 m  904 -112 903 -125 901 -136 ct 899 -146 896 -154 893 -160 ct 889 -166 885 -171 880 -173 ct 
874 -176 869 -177 862 -177 ct 855 -177 849 -176 843 -173 ct 838 -170 834 -166 830 -160 ct 
826 -154 824 -146 822 -135 ct 820 -125 819 -112 819 -97 ct 819 -82 820 -70 822 -59 ct 
824 -49 827 -41 830 -35 ct 834 -29 838 -24 843 -21 ct 849 -19 855 -17 861 -17 ct 
868 -17 874 -19 879 -21 ct 884 -24 889 -29 892 -35 ct 896 -41 899 -49 901 -59 ct 
903 -70 904 -82 904 -97 ct p ef
1086 -97 m  1086 -78 1084 -63 1081 -50 ct 1077 -37 1072 -27 1066 -19 ct 1060 -11 1053 -6 1045 -2 ct 
1036 1 1027 3 1018 3 ct 1009 3 1000 1 992 -2 ct 983 -6 976 -11 970 -19 ct 964 -27 960 -37 956 -50 ct 
953 -63 951 -78 951 -97 ct 951 -117 953 -133 956 -146 ct 960 -158 964 -169 970 -176 ct 
976 -184 984 -189 992 -192 ct 1000 -195 1009 -197 1019 -197 ct 1028 -197 1037 -195 1045 -192 ct 
1053 -189 1060 -184 1066 -176 ct 1072 -169 1077 -158 1081 -146 ct 1084 -133 1086 -117 1086 -97 ct 
p
1061 -97 m  1061 -112 1060 -125 1058 -136 ct 1056 -146 1053 -154 1050 -160 ct 
1046 -166 1042 -171 1037 -173 ct 1031 -176 1026 -177 1019 -177 ct 1012 -177 1006 -176 1000 -173 ct 
995 -170 991 -166 987 -160 ct 983 -154 981 -146 979 -135 ct 977 -125 976 -112 976 -97 ct 
976 -82 977 -70 979 -59 ct 981 -49 984 -41 987 -35 ct 991 -29 995 -24 1000 -21 ct 
1006 -19 1012 -17 1018 -17 ct 1025 -17 1031 -19 1036 -21 ct 1041 -24 1046 -29 1049 -35 ct 
1053 -41 1056 -49 1058 -59 ct 1060 -70 1061 -82 1061 -97 ct p ef
1117 0 m  1117 -21 l  1167 -21 l  1167 -171 l  1123 -139 l  1123 -163 l 
1169 -195 l  1192 -195 l  1192 -21 l  1239 -21 l  1239 0 l  1117 0 l  p ef
1399 -97 m  1399 -78 1397 -63 1394 -50 ct 1390 -37 1385 -27 1379 -19 ct 1373 -11 1366 -6 1358 -2 ct 
1349 1 1340 3 1331 3 ct 1322 3 1313 1 1305 -2 ct 1296 -6 1289 -11 1283 -19 ct 1277 -27 1273 -37 1269 -50 ct 
1266 -63 1264 -78 1264 -97 ct 1264 -117 1266 -133 1269 -146 ct 1273 -158 1277 -169 1283 -176 ct 
1289 -184 1297 -189 1305 -192 ct 1313 -195 1322 -197 1332 -197 ct 1341 -197 1350 -195 1358 -192 ct 
1366 -189 1373 -184 1379 -176 ct 1385 -169 1390 -158 1394 -146 ct 1397 -133 1399 -117 1399 -97 ct 
p
1374 -97 m  1374 -112 1373 -125 1371 -136 ct 1369 -146 1366 -154 1363 -160 ct 
1359 -166 1355 -171 1350 -173 ct 1344 -176 1339 -177 1332 -177 ct 1325 -177 1319 -176 1313 -173 ct 
1308 -170 1304 -166 1300 -160 ct 1296 -154 1294 -146 1292 -135 ct 1290 -125 1289 -112 1289 -97 ct 
1289 -82 1290 -70 1292 -59 ct 1294 -49 1297 -41 1300 -35 ct 1304 -29 1308 -24 1313 -21 ct 
1319 -19 1325 -17 1331 -17 ct 1338 -17 1344 -19 1349 -21 ct 1354 -24 1359 -29 1362 -35 ct 
1366 -41 1369 -49 1371 -59 ct 1373 -70 1374 -82 1374 -97 ct p ef
1556 -97 m  1556 -78 1554 -63 1551 -50 ct 1547 -37 1542 -27 1536 -19 ct 1530 -11 1523 -6 1515 -2 ct 
1506 1 1497 3 1488 3 ct 1479 3 1470 1 1462 -2 ct 1453 -6 1446 -11 1440 -19 ct 1434 -27 1430 -37 1426 -50 ct 
1423 -63 1421 -78 1421 -97 ct 1421 -117 1423 -133 1426 -146 ct 1430 -158 1434 -169 1440 -176 ct 
1446 -184 1454 -189 1462 -192 ct 1470 -195 1479 -197 1489 -197 ct 1498 -197 1507 -195 1515 -192 ct 
1523 -189 1530 -184 1536 -176 ct 1542 -169 1547 -158 1551 -146 ct 1554 -133 1556 -117 1556 -97 ct 
p
1531 -97 m  1531 -112 1530 -125 1528 -136 ct 1526 -146 1523 -154 1520 -160 ct 
1516 -166 1512 -171 1507 -173 ct 1501 -176 1496 -177 1489 -177 ct 1482 -177 1476 -176 1470 -173 ct 
1465 -170 1461 -166 1457 -160 ct 1453 -154 1451 -146 1449 -135 ct 1447 -125 1446 -112 1446 -97 ct 
1446 -82 1447 -70 1449 -59 ct 1451 -49 1454 -41 1457 -35 ct 1461 -29 1465 -24 1470 -21 ct 
1476 -19 1482 -17 1488 -17 ct 1495 -17 1501 -19 1506 -21 ct 1511 -24 1516 -29 1519 -35 ct 
1523 -41 1526 -49 1528 -59 ct 1530 -70 1531 -82 1531 -97 ct p ef
1587 0 m  1587 -21 l  1637 -21 l  1637 -171 l  1593 -139 l  1593 -163 l 
1639 -195 l  1662 -195 l  1662 -21 l  1709 -21 l  1709 0 l  1587 0 l  p ef
1869 -97 m  1869 -78 1867 -63 1864 -50 ct 1860 -37 1855 -27 1849 -19 ct 1843 -11 1836 -6 1828 -2 ct 
1819 1 1810 3 1801 3 ct 1792 3 1783 1 1775 -2 ct 1766 -6 1759 -11 1753 -19 ct 1747 -27 1743 -37 1739 -50 ct 
1736 -63 1734 -78 1734 -97 ct 1734 -117 1736 -133 1739 -146 ct 1743 -158 1747 -169 1753 -176 ct 
1759 -184 1767 -189 1775 -192 ct 1783 -195 1792 -197 1802 -197 ct 1811 -197 1820 -195 1828 -192 ct 
1836 -189 1843 -184 1849 -176 ct 1855 -169 1860 -158 1864 -146 ct 1867 -133 1869 -117 1869 -97 ct 
p
1844 -97 m  1844 -112 1843 -125 1841 -136 ct 1839 -146 1836 -154 1833 -160 ct 
1829 -166 1825 -171 1820 -173 ct 1814 -176 1809 -177 1802 -177 ct 1795 -177 1789 -176 1783 -173 ct 
1778 -170 1774 -166 1770 -160 ct 1766 -154 1764 -146 1762 -135 ct 1760 -125 1759 -112 1759 -97 ct 
1759 -82 1760 -70 1762 -59 ct 1764 -49 1767 -41 1770 -35 ct 1774 -29 1778 -24 1783 -21 ct 
1789 -19 1795 -17 1801 -17 ct 1808 -17 1814 -19 1819 -21 ct 1824 -24 1829 -29 1832 -35 ct 
1836 -41 1839 -49 1841 -59 ct 1843 -70 1844 -82 1844 -97 ct p ef
pom
0.402 0.800 0.402 c 12545 18439 m  13101 18439 13526 18864 13526 19419 ct 
13526 19974 13101 20399 12545 20399 ct 11989 20399 11564 19974 11564 19419 ct 
11564 18864 11989 18439 12545 18439 ct p
11564 18439 m  11564 18439 l  p
13527 20400 m  13527 20400 l  p ef
0.003 0.003 0.003 c 12545 18439 m  13101 18439 13526 18864 13526 19419 ct 13526 19974 13101 20399 12545 20399 ct 
11989 20399 11564 19974 11564 19419 ct 11564 18864 11989 18439 12545 18439 ct 
pc
11564 18439 m  11564 18439 l  pc
13527 20400 m  13527 20400 l  pc
pum
11520 19554 t
0.230 0.226 0.210 c 150 -241 m  135 -241 121 -239 110 -234 ct 98 -229 88 -222 80 -212 ct 
73 -203 67 -192 63 -178 ct 58 -165 56 -151 56 -135 ct 56 -119 59 -104 63 -91 ct 
67 -77 74 -66 82 -56 ct 90 -47 100 -39 112 -34 ct 123 -28 137 -26 152 -26 ct 162 -26 171 -27 180 -30 ct 
188 -33 196 -36 203 -41 ct 210 -46 216 -52 221 -59 ct 227 -66 232 -73 236 -81 ct 
265 -67 l  261 -57 255 -47 248 -39 ct 241 -30 232 -23 223 -16 ct 213 -10 202 -5 190 -1 ct 
178 2 165 4 150 4 ct 128 4 109 1 93 -6 ct 77 -13 63 -23 52 -35 ct 41 -47 33 -62 28 -79 ct 
22 -96 20 -115 20 -135 ct 20 -156 23 -174 28 -191 ct 34 -208 42 -222 54 -234 ct 
65 -246 78 -255 94 -261 ct 111 -268 129 -271 150 -271 ct 178 -271 202 -265 221 -254 ct 
240 -243 254 -227 263 -205 ct 229 -193 l  226 -200 223 -206 218 -212 ct 214 -217 209 -222 202 -227 ct 
196 -231 188 -235 180 -237 ct 171 -240 161 -241 150 -241 ct p ef
479 -103 m  479 -67 471 -40 455 -22 ct 439 -5 416 4 386 4 ct 372 4 359 2 348 -2 ct 
337 -7 327 -13 319 -22 ct 311 -31 306 -42 301 -56 ct 297 -69 295 -85 295 -103 ct 
295 -174 326 -209 387 -209 ct 403 -209 417 -207 428 -202 ct 440 -198 449 -191 457 -182 ct 
464 -174 470 -163 473 -149 ct 477 -136 479 -120 479 -103 ct p
443 -103 m  443 -119 441 -132 439 -142 ct 437 -153 433 -161 428 -167 ct 423 -173 418 -178 411 -180 ct 
404 -183 396 -184 388 -184 ct 379 -184 371 -182 364 -180 ct 357 -177 351 -173 346 -167 ct 
341 -160 338 -152 335 -142 ct 332 -131 331 -118 331 -103 ct 331 -87 332 -74 335 -63 ct 
338 -53 342 -44 347 -38 ct 352 -32 357 -28 364 -25 ct 371 -23 378 -21 386 -21 ct 
394 -21 402 -22 409 -25 ct 416 -27 422 -32 427 -38 ct 432 -44 436 -52 439 -63 ct 
441 -74 443 -87 443 -103 ct p ef
641 0 m  641 -130 l  641 -140 640 -148 639 -155 ct 637 -162 635 -167 632 -171 ct 
629 -175 625 -178 621 -180 ct 616 -182 610 -183 603 -183 ct 596 -183 589 -181 583 -178 ct 
578 -176 573 -171 569 -166 ct 565 -161 561 -154 559 -146 ct 557 -138 556 -129 556 -119 ct 
556 0 l  522 0 l  522 -161 l  522 -166 522 -170 522 -175 ct 522 -180 522 -184 522 -188 ct 
521 -193 521 -196 521 -199 ct 521 -202 521 -204 521 -205 ct 553 -205 l  553 -205 553 -203 553 -200 ct 
553 -197 554 -194 554 -191 ct 554 -187 554 -183 554 -180 ct 554 -176 554 -173 554 -170 ct 
555 -170 l  558 -176 561 -181 565 -186 ct 568 -191 573 -195 577 -198 ct 582 -202 587 -204 594 -206 ct 
600 -208 607 -209 615 -209 ct 630 -209 643 -206 652 -200 ct 661 -194 667 -184 671 -170 ct 
671 -170 l  674 -176 678 -181 681 -186 ct 685 -191 690 -195 695 -198 ct 700 -202 705 -204 712 -206 ct 
718 -208 725 -209 733 -209 ct 744 -209 753 -208 760 -205 ct 768 -202 774 -198 779 -192 ct 
783 -186 787 -179 789 -169 ct 791 -160 793 -149 793 -137 ct 793 0 l  759 0 l 
759 -130 l  759 -140 758 -148 757 -155 ct 756 -162 754 -167 751 -171 ct 748 -175 744 -178 739 -180 ct 
734 -182 728 -183 721 -183 ct 714 -183 708 -181 702 -179 ct 696 -176 691 -172 687 -167 ct 
683 -161 680 -155 678 -147 ct 675 -139 674 -129 674 -119 ct 674 0 l  641 0 l 
p ef
1021 -103 m  1021 -88 1019 -73 1017 -60 ct 1014 -47 1010 -36 1004 -26 ct 998 -17 990 -9 981 -4 ct 
971 2 959 4 945 4 ct 930 4 918 1 907 -4 ct 896 -10 887 -19 881 -31 ct 880 -31 l 
881 -31 881 -30 881 -28 ct 881 -26 881 -23 881 -20 ct 881 -17 881 -14 881 -10 ct 
881 -7 881 -3 881 1 ct 881 81 l  847 81 l  847 -163 l  847 -168 847 -173 847 -177 ct 
847 -182 847 -186 847 -190 ct 847 -193 847 -196 846 -199 ct 846 -202 846 -204 846 -205 ct 
879 -205 l  879 -204 879 -203 879 -201 ct 880 -199 880 -196 880 -193 ct 880 -189 880 -186 881 -182 ct 
881 -179 881 -175 881 -172 ct 882 -172 l  885 -178 888 -184 892 -189 ct 896 -193 901 -197 906 -200 ct 
911 -203 917 -205 924 -206 ct 930 -208 937 -208 945 -208 ct 959 -208 971 -206 981 -201 ct 
990 -196 998 -189 1004 -179 ct 1010 -170 1014 -159 1017 -146 ct 1019 -133 1021 -119 1021 -103 ct 
p
985 -102 m  985 -115 984 -126 982 -136 ct 981 -146 978 -154 975 -161 ct 971 -168 966 -173 960 -177 ct 
953 -180 946 -182 936 -182 ct 929 -182 922 -181 915 -179 ct 908 -177 902 -173 897 -166 ct 
892 -160 889 -152 886 -141 ct 883 -131 881 -117 881 -100 ct 881 -85 882 -73 885 -63 ct 
887 -53 891 -45 895 -38 ct 900 -32 906 -28 913 -25 ct 919 -22 927 -21 936 -21 ct 
945 -21 953 -23 960 -27 ct 966 -30 971 -35 975 -42 ct 978 -49 981 -58 982 -68 ct 
984 -78 985 -89 985 -102 ct p ef
1063 -248 m  1063 -281 l  1097 -281 l  1097 -248 l  1063 -248 l  p
1063 0 m  1063 -205 l  1097 -205 l  1097 0 l  1063 0 l  p ef
1148 0 m  1148 -281 l  1182 -281 l  1182 0 l  1148 0 l  p ef
1285 4 m  1265 4 1249 -1 1239 -12 ct 1229 -23 1223 -38 1223 -57 ct 1223 -71 1226 -82 1231 -90 ct 
1236 -99 1243 -106 1251 -111 ct 1260 -116 1269 -119 1280 -121 ct 1290 -123 1301 -124 1312 -124 ct 
1358 -124 l  1358 -135 l  1358 -144 1357 -151 1355 -157 ct 1354 -164 1351 -168 1347 -172 ct 
1344 -176 1339 -179 1333 -180 ct 1328 -182 1322 -183 1314 -183 ct 1307 -183 1302 -183 1296 -182 ct 
1291 -181 1286 -179 1282 -176 ct 1278 -174 1275 -171 1273 -166 ct 1271 -162 1269 -157 1268 -150 ct 
1233 -153 l  1234 -161 1236 -169 1240 -176 ct 1243 -183 1248 -188 1255 -193 ct 
1261 -198 1269 -202 1279 -205 ct 1289 -208 1301 -209 1315 -209 ct 1341 -209 1360 -203 1373 -191 ct 
1386 -179 1392 -162 1392 -140 ct 1392 -51 l  1392 -41 1394 -34 1396 -29 ct 1399 -24 1404 -21 1412 -21 ct 
1414 -21 1415 -21 1417 -21 ct 1419 -22 1421 -22 1423 -22 ct 1423 -1 l  1418 0 1414 1 1410 1 ct 
1406 2 1401 2 1396 2 ct 1390 2 1384 1 1380 -1 ct 1375 -2 1372 -5 1369 -8 ct 1366 -12 1363 -16 1362 -21 ct 
1360 -26 1360 -32 1359 -39 ct 1358 -39 l  1354 -32 1350 -26 1346 -21 ct 1342 -16 1337 -11 1331 -8 ct 
1325 -4 1318 -1 1311 1 ct 1304 3 1295 4 1285 4 ct p
1293 -22 m  1304 -22 1314 -24 1322 -28 ct 1330 -31 1337 -36 1342 -43 ct 1347 -49 1351 -55 1354 -63 ct 
1357 -70 1358 -77 1358 -83 ct 1358 -100 l  1321 -100 l  1312 -100 1304 -100 1297 -99 ct 
1289 -97 1283 -95 1277 -92 ct 1271 -89 1267 -85 1264 -79 ct 1260 -73 1259 -66 1259 -57 ct 
1259 -45 1262 -37 1268 -31 ct 1274 -25 1282 -22 1293 -22 ct p ef
1527 -2 m  1522 0 1517 1 1511 2 ct 1506 3 1500 3 1492 3 ct 1465 3 1452 -12 1452 -43 ct 
1452 -180 l  1428 -180 l  1428 -205 l  1453 -205 l  1463 -251 l  1486 -251 l 
1486 -205 l  1524 -205 l  1524 -180 l  1486 -180 l  1486 -51 l  1486 -41 1487 -34 1490 -30 ct 
1494 -26 1499 -24 1507 -24 ct 1511 -24 1514 -24 1517 -25 ct 1520 -25 1523 -26 1527 -27 ct 
1527 -2 l  p ef
1558 -248 m  1558 -281 l  1592 -281 l  1592 -248 l  1558 -248 l  p
1558 0 m  1558 -205 l  1592 -205 l  1592 0 l  1558 0 l  p ef
1817 -103 m  1817 -67 1809 -40 1793 -22 ct 1777 -5 1754 4 1724 4 ct 1710 4 1697 2 1686 -2 ct 
1675 -7 1665 -13 1657 -22 ct 1649 -31 1644 -42 1639 -56 ct 1635 -69 1633 -85 1633 -103 ct 
1633 -174 1664 -209 1725 -209 ct 1741 -209 1755 -207 1766 -202 ct 1778 -198 1787 -191 1795 -182 ct 
1802 -174 1808 -163 1811 -149 ct 1815 -136 1817 -120 1817 -103 ct p
1781 -103 m  1781 -119 1779 -132 1777 -142 ct 1775 -153 1771 -161 1766 -167 ct 
1761 -173 1756 -178 1749 -180 ct 1742 -183 1734 -184 1726 -184 ct 1717 -184 1709 -182 1702 -180 ct 
1695 -177 1689 -173 1684 -167 ct 1679 -160 1676 -152 1673 -142 ct 1670 -131 1669 -118 1669 -103 ct 
1669 -87 1670 -74 1673 -63 ct 1676 -53 1680 -44 1685 -38 ct 1690 -32 1695 -28 1702 -25 ct 
1709 -23 1716 -21 1724 -21 ct 1732 -21 1740 -22 1747 -25 ct 1754 -27 1760 -32 1765 -38 ct 
1770 -44 1774 -52 1777 -63 ct 1779 -74 1781 -87 1781 -103 ct p ef
1989 0 m  1989 -130 l  1989 -140 1989 -148 1987 -155 ct 1986 -162 1983 -167 1980 -171 ct 
1977 -175 1972 -178 1967 -180 ct 1962 -182 1955 -183 1947 -183 ct 1939 -183 1932 -181 1925 -178 ct 
1919 -176 1913 -171 1908 -166 ct 1904 -161 1900 -154 1898 -146 ct 1895 -138 1894 -129 1894 -119 ct 
1894 0 l  1860 0 l  1860 -161 l  1860 -166 1860 -170 1860 -175 ct 1860 -180 1860 -184 1860 -188 ct 
1859 -193 1859 -196 1859 -199 ct 1859 -202 1859 -204 1859 -205 ct 1891 -205 l 
1891 -205 1891 -203 1891 -200 ct 1891 -197 1892 -194 1892 -191 ct 1892 -187 1892 -183 1892 -180 ct 
1892 -176 1892 -173 1892 -170 ct 1893 -170 l  1896 -176 1900 -181 1904 -186 ct 
1908 -191 1912 -195 1918 -198 ct 1923 -202 1929 -204 1935 -206 ct 1942 -208 1950 -209 1959 -209 ct 
1970 -209 1980 -208 1988 -205 ct 1996 -202 2003 -198 2008 -192 ct 2014 -186 2017 -179 2020 -169 ct 
2022 -160 2024 -149 2024 -137 ct 2024 0 l  1989 0 l  p ef
pom
0.914 0.894 0.832 c 9766 17950 m  8948 17950 l  8948 15905 l  10584 15905 l 
10584 17950 l  9766 17950 l  p ef
0.003 0.003 0.003 c 9766 17950 m  8948 17950 l  8948 15905 l  10584 15905 l 
10584 17950 l  9766 17950 l  pc
pum
9198 16288 t
0.230 0.226 0.210 c 65 -123 m  65 -1 l  27 -1 l  27 -123 l  5 -123 l  5 -149 l 
27 -149 l  27 -165 l  27 -171 27 -176 29 -181 ct 30 -186 32 -190 36 -193 ct 
39 -197 43 -200 49 -202 ct 55 -204 62 -205 70 -205 ct 74 -205 79 -205 83 -204 ct 
87 -204 91 -203 94 -203 ct 94 -178 l  93 -178 91 -178 89 -179 ct 87 -179 85 -179 83 -179 ct 
80 -179 77 -179 74 -178 ct 72 -177 70 -176 69 -174 ct 67 -173 67 -171 66 -169 ct 
65 -167 65 -164 65 -161 ct 65 -149 l  94 -149 l  94 -123 l  65 -123 l  p ef
113 -176 m  113 -205 l  151 -205 l  151 -176 l  113 -176 l  p
113 0 m  113 -149 l  151 -149 l  151 0 l  113 0 l  p ef
256 3 m  244 3 234 1 225 -3 ct 216 -6 209 -11 203 -18 ct 197 -25 192 -33 189 -42 ct 
186 -52 185 -62 185 -73 ct 185 -86 187 -97 190 -107 ct 193 -116 198 -124 204 -131 ct 
210 -138 217 -143 226 -146 ct 235 -150 245 -152 256 -152 ct 266 -152 275 -150 282 -148 ct 
290 -145 296 -141 301 -137 ct 307 -132 311 -127 315 -121 ct 318 -115 320 -108 321 -101 ct 
283 -101 l  281 -108 279 -114 274 -118 ct 270 -123 264 -125 256 -125 ct 245 -125 238 -121 233 -112 ct 
228 -104 226 -91 226 -75 ct 226 -41 236 -23 256 -23 ct 263 -23 270 -26 275 -30 ct 
279 -35 283 -41 284 -50 ct 323 -50 l  322 -43 320 -37 316 -30 ct 313 -24 309 -18 303 -13 ct 
298 -8 291 -4 283 -1 ct 275 2 266 3 256 3 ct p ef
388 -120 m  393 -131 400 -139 408 -144 ct 415 -150 425 -152 436 -152 ct 445 -152 452 -151 459 -148 ct 
465 -145 470 -141 474 -136 ct 478 -130 480 -124 482 -117 ct 484 -110 485 -103 485 -95 ct 
485 0 l  446 0 l  446 -84 l  446 -90 446 -95 445 -100 ct 444 -104 442 -109 440 -112 ct 
438 -116 435 -118 432 -120 ct 429 -122 425 -123 420 -123 ct 415 -123 411 -122 407 -120 ct 
403 -118 400 -115 397 -111 ct 394 -107 392 -103 391 -97 ct 389 -92 388 -86 388 -80 ct 
388 0 l  350 0 l  350 -205 l  388 -205 l  388 -149 l  388 -146 388 -143 388 -140 ct 
388 -137 388 -134 388 -132 ct 388 -129 388 -127 388 -125 ct 387 -122 387 -121 387 -120 ct 
388 -120 l  p ef
524 -176 m  524 -205 l  562 -205 l  562 -176 l  524 -176 l  p
524 0 m  524 -149 l  562 -149 l  562 0 l  524 0 l  p ef
665 3 m  654 3 644 1 636 -2 ct 627 -5 620 -10 614 -16 ct 608 -23 603 -31 600 -41 ct 
597 -51 595 -62 595 -75 ct 595 -89 597 -101 601 -111 ct 605 -121 610 -129 616 -135 ct 
623 -141 630 -145 639 -148 ct 647 -151 656 -152 665 -152 ct 677 -152 687 -150 695 -146 ct 
704 -142 710 -136 716 -129 ct 721 -121 725 -112 727 -102 ct 730 -92 731 -81 731 -68 ct 
731 -67 l  636 -67 l  636 -61 636 -55 637 -50 ct 638 -44 640 -40 643 -36 ct 
645 -32 648 -29 652 -26 ct 656 -24 661 -23 667 -23 ct 673 -23 679 -24 683 -27 ct 
688 -30 691 -35 693 -41 ct 729 -38 l  727 -33 725 -29 722 -24 ct 719 -19 715 -15 710 -11 ct 
705 -7 699 -4 692 -1 ct 684 2 675 3 665 3 ct p
665 -128 m  661 -128 657 -127 654 -126 ct 650 -124 647 -122 645 -119 ct 642 -116 640 -113 639 -108 ct 
637 -103 636 -98 636 -91 ct 694 -91 l  693 -103 690 -112 685 -119 ct 680 -125 673 -128 665 -128 ct 
p ef
761 0 m  761 -114 l  761 -117 761 -121 761 -124 ct 761 -128 760 -131 760 -135 ct 
760 -138 760 -141 760 -144 ct 760 -146 760 -148 760 -149 ct 796 -149 l  797 -148 797 -146 797 -144 ct 
797 -141 797 -138 798 -135 ct 798 -131 798 -128 798 -125 ct 798 -122 798 -119 798 -117 ct 
799 -117 l  801 -123 803 -128 805 -132 ct 807 -136 809 -140 811 -143 ct 814 -146 817 -148 821 -150 ct 
825 -151 829 -152 835 -152 ct 837 -152 839 -152 841 -151 ct 844 -151 845 -151 846 -150 ct 
846 -118 l  844 -118 841 -119 839 -119 ct 836 -119 833 -120 830 -120 ct 820 -120 813 -116 807 -108 ct 
802 -100 799 -89 799 -73 ct 799 0 l  761 0 l  p ef
853 0 m  853 -42 l  893 -42 l  893 0 l  853 0 l  p ef
972 -120 m  977 -131 984 -139 992 -144 ct 999 -150 1009 -152 1020 -152 ct 1029 -152 1036 -151 1043 -148 ct 
1049 -145 1054 -141 1058 -136 ct 1062 -130 1064 -124 1066 -117 ct 1068 -110 1069 -103 1069 -95 ct 
1069 0 l  1030 0 l  1030 -84 l  1030 -90 1030 -95 1029 -100 ct 1028 -104 1026 -109 1024 -112 ct 
1022 -116 1019 -118 1016 -120 ct 1013 -122 1009 -123 1004 -123 ct 999 -123 995 -122 991 -120 ct 
987 -118 984 -115 981 -111 ct 978 -107 976 -103 975 -97 ct 973 -92 972 -86 972 -80 ct 
972 0 l  934 0 l  934 -205 l  972 -205 l  972 -149 l  972 -146 972 -143 972 -140 ct 
972 -137 972 -134 972 -132 ct 972 -129 972 -127 972 -125 ct 971 -122 971 -121 971 -120 ct 
972 -120 l  p ef
pom
0.273 0.511 0.683 c 9560 17784 m  9969 17784 l  9969 18397 l  10174 18397 l 
9765 18602 l  9356 18397 l  9560 18397 l  9560 17784 l  p
9356 17784 m  9356 17784 l  p
10174 18602 m  10174 18602 l  p ef
0.003 0.003 0.003 c 9560 17784 m  9560 18397 l  9356 18397 l  9765 18602 l 
10174 18397 l  9969 18397 l  9969 17784 l  9560 17784 l  pc
9356 17784 m  9356 17784 l  pc
10174 18602 m  10174 18602 l  pc
0 4743 t 
pom
count op_count sub {pop} repeat countdictstack dict_count sub {end} repeat b4_inc_state restore
%%PageTrailer
%%Trailer
%%EOF
