%!PS-Adobe-3.0 EPSF-3.0 
%%BoundingBox: 0 0 276 117
%%Pages: 0
%%Creator: Sun Microsystems, Inc.
%%Title: none
%%CreationDate: none
%%LanguageLevel: 2
%%EndComments
%%BeginProlog
%%BeginResource: procset SDRes-Prolog 1.0 0
/b4_inc_state save def
/dict_count countdictstack def
/op_count count 1 sub def
userdict begin
0 setgray 0 setlinecap 1 setlinewidth 0 setlinejoin 10 setmiterlimit[] 0 setdash newpath
/languagelevel where {pop languagelevel 1 ne {false setstrokeadjust false setoverprint} if} if
/bdef {bind def} bind def
/c {setrgbcolor} bdef
/l {neg lineto} bdef
/rl {neg rlineto} bdef
/lc {setlinecap} bdef
/lj {setlinejoin} bdef
/lw {setlinewidth} bdef
/ml {setmiterlimit} bdef
/ld {setdash} bdef
/m {neg moveto} bdef
/ct {6 2 roll neg 6 2 roll neg 6 2 roll neg curveto} bdef
/r {rotate} bdef
/t {neg translate} bdef
/s {scale} bdef
/sw {show} bdef
/gs {gsave} bdef
/gr {grestore} bdef
/f {findfont dup length dict begin
{1 index /FID ne {def} {pop pop} ifelse} forall /Encoding ISOLatin1Encoding def
currentdict end /NFont exch definefont pop /NFont findfont} bdef
/p {closepath} bdef
/sf {scalefont setfont} bdef
/ef {eofill}bdef
/pc {closepath stroke}bdef
/ps {stroke}bdef
/pum {matrix currentmatrix}bdef
/pom {setmatrix}bdef
/bs {/aString exch def /nXOfs exch def /nWidth exch def currentpoint nXOfs 0 rmoveto pum nWidth aString stringwidth pop div 1 scale aString show pom moveto} bdef
%%EndResource
%%EndProlog
%%BeginSetup
%%EndSetup
%%Page: 1 1
%%BeginPageSetup
%%EndPageSetup
pum
0.02835 0.02846 s 
0 -4110 t
/tm matrix currentmatrix def
tm setmatrix
-4999 -20892 t 
1 1 s 
0 lw 1 lj 0.003 0.003 0.003 c 9695 20893 m  7988 21747 l  ps
9694 20893 m  11828 21747 l  ps
1.000 0.601 0.402 c 8155 22391 m  7817 22391 l  7817 21746 l  8493 21746 l 
8493 22391 l  8155 22391 l  p ef

pum
8067 22189 t
0.230 0.226 0.210 c 24 -226 m  24 -256 l  55 -256 l  55 -226 l  24 -226 l 
p
24 0 m  24 -187 l  55 -187 l  55 0 l  24 0 l  p ef
138 -164 m  138 -1 l  107 -1 l  107 -164 l  81 -164 l  81 -187 l  107 -187 l 
107 -208 l  107 -215 108 -221 109 -227 ct 110 -233 113 -238 116 -242 ct 119 -246 124 -250 130 -252 ct 
136 -255 143 -256 153 -256 ct 156 -256 160 -256 164 -255 ct 168 -255 172 -255 175 -254 ct 
175 -230 l  173 -231 170 -231 168 -231 ct 165 -232 163 -232 161 -232 ct 156 -232 152 -231 150 -230 ct 
147 -229 144 -227 143 -224 ct 141 -222 140 -219 139 -216 ct 139 -212 138 -208 138 -204 ct 
138 -187 l  175 -187 l  175 -164 l  138 -164 l  p ef
pom
1.000 0.601 0.402 c 12167 22391 m  11594 22391 l  11594 21746 l  12739 21746 l 
12739 22391 l  12167 22391 l  p ef

pum
11844 22189 t
0.230 0.226 0.210 c 48 -87 m  48 -77 49 -68 51 -60 ct 53 -52 56 -45 60 -39 ct 
64 -33 69 -28 76 -25 ct 83 -22 90 -20 100 -20 ct 113 -20 124 -23 132 -28 ct 140 -34 146 -41 148 -49 ct 
176 -41 l  174 -36 171 -31 167 -26 ct 164 -20 159 -16 153 -11 ct 148 -7 140 -4 131 -1 ct 
123 2 112 3 100 3 ct 72 3 51 -5 37 -22 ct 22 -38 15 -62 15 -95 ct 15 -112 17 -127 22 -139 ct 
26 -151 32 -161 39 -169 ct 47 -176 56 -182 66 -185 ct 76 -188 87 -190 98 -190 ct 
114 -190 127 -187 138 -182 ct 148 -177 157 -170 163 -162 ct 169 -153 174 -142 177 -130 ct 
179 -118 181 -105 181 -91 ct 181 -87 l  48 -87 l  p
149 -111 m  147 -130 142 -145 134 -154 ct 125 -163 113 -167 98 -167 ct 93 -167 87 -166 82 -165 ct 
76 -163 71 -160 66 -156 ct 61 -152 57 -146 54 -139 ct 50 -131 48 -122 48 -111 ct 
149 -111 l  p ef
219 0 m  219 -256 l  250 -256 l  250 0 l  219 0 l  p ef
435 -52 m  435 -43 433 -36 430 -29 ct 426 -22 421 -16 415 -11 ct 408 -7 401 -3 391 -1 ct 
382 2 371 3 359 3 ct 348 3 339 2 330 1 ct 321 -1 314 -4 307 -8 ct 300 -11 295 -16 291 -22 ct 
286 -28 283 -36 281 -44 ct 308 -50 l  311 -40 316 -32 325 -28 ct 333 -23 344 -21 359 -21 ct 
366 -21 372 -21 377 -22 ct 383 -23 388 -25 392 -27 ct 396 -29 399 -32 401 -36 ct 
403 -39 405 -44 405 -50 ct 405 -55 403 -60 401 -63 ct 398 -67 394 -70 390 -73 ct 
385 -75 379 -77 372 -79 ct 366 -81 358 -83 350 -85 ct 343 -87 335 -89 328 -91 ct 
321 -94 314 -97 308 -101 ct 302 -105 297 -110 294 -116 ct 290 -122 288 -129 288 -138 ct 
288 -155 294 -168 306 -177 ct 319 -186 336 -190 359 -190 ct 380 -190 396 -186 408 -179 ct 
421 -172 428 -160 431 -144 ct 404 -141 l  403 -146 401 -150 398 -153 ct 395 -156 392 -159 388 -161 ct 
384 -163 380 -164 375 -165 ct 370 -166 365 -167 359 -167 ct 345 -167 335 -164 328 -160 ct 
322 -156 318 -149 318 -141 ct 318 -136 320 -132 322 -128 ct 325 -125 328 -122 332 -120 ct 
337 -118 342 -116 348 -114 ct 355 -113 361 -111 369 -109 ct 374 -108 379 -106 384 -105 ct 
389 -103 394 -102 399 -100 ct 404 -98 409 -95 413 -93 ct 417 -90 421 -87 424 -83 ct 
427 -79 430 -75 432 -70 ct 434 -65 435 -59 435 -52 ct p ef
497 -87 m  497 -77 498 -68 500 -60 ct 502 -52 505 -45 509 -39 ct 513 -33 518 -28 525 -25 ct 
532 -22 539 -20 549 -20 ct 562 -20 573 -23 581 -28 ct 589 -34 595 -41 597 -49 ct 
625 -41 l  623 -36 620 -31 616 -26 ct 613 -20 608 -16 602 -11 ct 597 -7 589 -4 580 -1 ct 
572 2 561 3 549 3 ct 521 3 500 -5 486 -22 ct 471 -38 464 -62 464 -95 ct 464 -112 466 -127 471 -139 ct 
475 -151 481 -161 488 -169 ct 496 -176 505 -182 515 -185 ct 525 -188 536 -190 547 -190 ct 
563 -190 576 -187 587 -182 ct 597 -177 606 -170 612 -162 ct 618 -153 623 -142 626 -130 ct 
628 -118 630 -105 630 -91 ct 630 -87 l  497 -87 l  p
598 -111 m  596 -130 591 -145 583 -154 ct 574 -163 562 -167 547 -167 ct 542 -167 536 -166 531 -165 ct 
525 -163 520 -160 515 -156 ct 510 -152 506 -146 503 -139 ct 499 -131 497 -122 497 -111 ct 
598 -111 l  p ef
pom
0.800 0.800 1.000 c 6851 23245 m  6449 23245 l  6449 22600 l  7252 22600 l 
7252 23245 l  6851 23245 l  p ef

pum
6699 23043 t
0.230 0.226 0.210 c 62 -69 m  36 -69 l  32 -243 l  66 -243 l  62 -69 l 
p
32 0 m  32 -35 l  65 -35 l  65 0 l  32 0 l  p ef
114 -147 m  114 -173 l  286 -173 l  286 -147 l  114 -147 l  p
114 -59 m  114 -85 l  286 -85 l  286 -59 l  114 -59 l  p ef
pom
0.492 0.652 0.281 c 10099 23416 m  9458 23416 l  9458 22771 l  10739 22771 l 
10739 23416 l  10099 23416 l  p ef

pum
9708 23214 t
0.230 0.226 0.210 c 182 -94 m  182 -80 180 -67 178 -55 ct 176 -43 172 -33 167 -25 ct 
161 -16 154 -9 145 -4 ct 137 1 126 3 113 3 ct 100 3 88 0 78 -5 ct 68 -10 60 -18 55 -29 ct 
54 -29 l  54 -29 54 -28 54 -26 ct 54 -24 55 -22 55 -19 ct 55 -17 55 -14 55 -10 ct 
55 -7 55 -3 55 0 ct 55 73 l  24 73 l  24 -149 l  24 -153 24 -158 24 -162 ct 
24 -166 24 -170 23 -173 ct 23 -176 23 -179 23 -182 ct 23 -184 23 -186 23 -187 ct 
53 -187 l  53 -187 53 -185 53 -183 ct 53 -181 54 -179 54 -176 ct 54 -173 54 -170 54 -166 ct 
54 -163 54 -160 54 -157 ct 55 -157 l  58 -163 61 -168 65 -172 ct 69 -176 73 -180 78 -182 ct 
82 -185 88 -187 93 -188 ct 99 -189 106 -190 113 -190 ct 126 -190 137 -188 145 -183 ct 
154 -179 161 -172 167 -164 ct 172 -155 176 -145 178 -134 ct 180 -122 182 -109 182 -94 ct 
p
149 -94 m  149 -105 148 -115 147 -124 ct 145 -133 143 -141 140 -147 ct 136 -153 132 -158 126 -161 ct 
121 -164 113 -166 105 -166 ct 98 -166 92 -165 85 -163 ct 79 -161 74 -157 70 -152 ct 
65 -146 61 -139 59 -129 ct 56 -119 55 -107 55 -91 ct 55 -78 56 -67 58 -58 ct 60 -49 63 -41 68 -36 ct 
72 -30 77 -26 83 -24 ct 89 -21 97 -20 105 -20 ct 113 -20 120 -22 126 -25 ct 132 -28 136 -33 140 -39 ct 
143 -46 145 -53 147 -63 ct 148 -72 149 -82 149 -94 ct p ef
219 0 m  219 -143 l  219 -147 219 -151 219 -155 ct 219 -159 219 -163 219 -167 ct 
219 -171 219 -174 219 -178 ct 219 -181 219 -184 218 -187 ct 248 -187 l  248 -184 248 -181 248 -178 ct 
248 -174 249 -171 249 -167 ct 249 -164 249 -160 249 -157 ct 249 -154 249 -151 249 -148 ct 
250 -148 l  252 -156 254 -162 257 -167 ct 259 -172 262 -177 266 -180 ct 269 -183 273 -186 277 -188 ct 
282 -189 288 -190 294 -190 ct 297 -190 299 -190 301 -189 ct 304 -189 305 -189 307 -188 ct 
307 -160 l  305 -160 302 -161 299 -161 ct 297 -161 294 -162 290 -162 ct 283 -162 277 -160 272 -157 ct 
267 -154 263 -149 260 -143 ct 257 -138 254 -131 253 -123 ct 251 -115 251 -107 251 -97 ct 
251 0 l  219 0 l  p ef
337 -226 m  337 -256 l  368 -256 l  368 -226 l  337 -226 l  p
337 0 m  337 -187 l  368 -187 l  368 0 l  337 0 l  p ef
531 0 m  531 -118 l  531 -127 531 -135 529 -141 ct 528 -147 526 -152 523 -156 ct 
520 -160 516 -162 511 -164 ct 506 -165 500 -166 493 -166 ct 485 -166 479 -165 473 -162 ct 
467 -160 462 -156 458 -151 ct 453 -146 450 -140 448 -133 ct 446 -126 445 -117 445 -108 ct 
445 0 l  413 0 l  413 -147 l  413 -151 413 -155 413 -159 ct 413 -163 413 -167 413 -171 ct 
413 -175 413 -178 413 -181 ct 413 -184 413 -186 412 -187 ct 442 -187 l  442 -186 442 -184 442 -182 ct 
442 -179 442 -176 443 -173 ct 443 -170 443 -167 443 -163 ct 443 -160 443 -157 443 -155 ct 
444 -155 l  447 -160 450 -165 453 -169 ct 457 -174 461 -177 466 -180 ct 471 -183 476 -186 482 -188 ct 
488 -189 495 -190 503 -190 ct 514 -190 523 -189 530 -186 ct 537 -184 544 -180 548 -174 ct 
553 -169 557 -162 559 -154 ct 561 -146 562 -136 562 -124 ct 562 0 l  531 0 l 
p ef
679 -1 m  675 0 670 1 665 2 ct 660 3 655 3 648 3 ct 623 3 611 -11 611 -39 ct 611 -164 l 
589 -164 l  589 -187 l  612 -187 l  621 -228 l  642 -228 l  642 -187 l 
676 -187 l  676 -164 l  642 -164 l  642 -46 l  642 -37 643 -31 646 -27 ct 
649 -23 654 -22 662 -22 ct 665 -22 667 -22 670 -22 ct 673 -23 676 -23 679 -24 ct 
679 -1 l  p ef
744 -164 m  744 -1 l  713 -1 l  713 -164 l  687 -164 l  687 -187 l  713 -187 l 
713 -208 l  713 -215 714 -221 715 -227 ct 716 -233 719 -238 722 -242 ct 725 -246 730 -250 736 -252 ct 
742 -255 749 -256 759 -256 ct 762 -256 766 -256 770 -255 ct 774 -255 778 -255 781 -254 ct 
781 -230 l  779 -231 776 -231 774 -231 ct 771 -232 769 -232 767 -232 ct 762 -232 758 -231 756 -230 ct 
753 -229 750 -227 749 -224 ct 747 -222 746 -219 745 -216 ct 745 -212 744 -208 744 -204 ct 
744 -187 l  781 -187 l  781 -164 l  744 -164 l  p ef
pom
0.492 0.652 0.281 c 13323 23245 m  12682 23245 l  12682 22600 l  13963 22600 l 
13963 23245 l  13323 23245 l  p ef

pum
12932 23043 t
0.230 0.226 0.210 c 182 -94 m  182 -80 180 -67 178 -55 ct 176 -43 172 -33 167 -25 ct 
161 -16 154 -9 145 -4 ct 137 1 126 3 113 3 ct 100 3 88 0 78 -5 ct 68 -10 60 -18 55 -29 ct 
54 -29 l  54 -29 54 -28 54 -26 ct 54 -24 55 -22 55 -19 ct 55 -17 55 -14 55 -10 ct 
55 -7 55 -3 55 0 ct 55 73 l  24 73 l  24 -149 l  24 -153 24 -158 24 -162 ct 
24 -166 24 -170 23 -173 ct 23 -176 23 -179 23 -182 ct 23 -184 23 -186 23 -187 ct 
53 -187 l  53 -187 53 -185 53 -183 ct 53 -181 54 -179 54 -176 ct 54 -173 54 -170 54 -166 ct 
54 -163 54 -160 54 -157 ct 55 -157 l  58 -163 61 -168 65 -172 ct 69 -176 73 -180 78 -182 ct 
82 -185 88 -187 93 -188 ct 99 -189 106 -190 113 -190 ct 126 -190 137 -188 145 -183 ct 
154 -179 161 -172 167 -164 ct 172 -155 176 -145 178 -134 ct 180 -122 182 -109 182 -94 ct 
p
149 -94 m  149 -105 148 -115 147 -124 ct 145 -133 143 -141 140 -147 ct 136 -153 132 -158 126 -161 ct 
121 -164 113 -166 105 -166 ct 98 -166 92 -165 85 -163 ct 79 -161 74 -157 70 -152 ct 
65 -146 61 -139 59 -129 ct 56 -119 55 -107 55 -91 ct 55 -78 56 -67 58 -58 ct 60 -49 63 -41 68 -36 ct 
72 -30 77 -26 83 -24 ct 89 -21 97 -20 105 -20 ct 113 -20 120 -22 126 -25 ct 132 -28 136 -33 140 -39 ct 
143 -46 145 -53 147 -63 ct 148 -72 149 -82 149 -94 ct p ef
219 0 m  219 -143 l  219 -147 219 -151 219 -155 ct 219 -159 219 -163 219 -167 ct 
219 -171 219 -174 219 -178 ct 219 -181 219 -184 218 -187 ct 248 -187 l  248 -184 248 -181 248 -178 ct 
248 -174 249 -171 249 -167 ct 249 -164 249 -160 249 -157 ct 249 -154 249 -151 249 -148 ct 
250 -148 l  252 -156 254 -162 257 -167 ct 259 -172 262 -177 266 -180 ct 269 -183 273 -186 277 -188 ct 
282 -189 288 -190 294 -190 ct 297 -190 299 -190 301 -189 ct 304 -189 305 -189 307 -188 ct 
307 -160 l  305 -160 302 -161 299 -161 ct 297 -161 294 -162 290 -162 ct 283 -162 277 -160 272 -157 ct 
267 -154 263 -149 260 -143 ct 257 -138 254 -131 253 -123 ct 251 -115 251 -107 251 -97 ct 
251 0 l  219 0 l  p ef
337 -226 m  337 -256 l  368 -256 l  368 -226 l  337 -226 l  p
337 0 m  337 -187 l  368 -187 l  368 0 l  337 0 l  p ef
531 0 m  531 -118 l  531 -127 531 -135 529 -141 ct 528 -147 526 -152 523 -156 ct 
520 -160 516 -162 511 -164 ct 506 -165 500 -166 493 -166 ct 485 -166 479 -165 473 -162 ct 
467 -160 462 -156 458 -151 ct 453 -146 450 -140 448 -133 ct 446 -126 445 -117 445 -108 ct 
445 0 l  413 0 l  413 -147 l  413 -151 413 -155 413 -159 ct 413 -163 413 -167 413 -171 ct 
413 -175 413 -178 413 -181 ct 413 -184 413 -186 412 -187 ct 442 -187 l  442 -186 442 -184 442 -182 ct 
442 -179 442 -176 443 -173 ct 443 -170 443 -167 443 -163 ct 443 -160 443 -157 443 -155 ct 
444 -155 l  447 -160 450 -165 453 -169 ct 457 -174 461 -177 466 -180 ct 471 -183 476 -186 482 -188 ct 
488 -189 495 -190 503 -190 ct 514 -190 523 -189 530 -186 ct 537 -184 544 -180 548 -174 ct 
553 -169 557 -162 559 -154 ct 561 -146 562 -136 562 -124 ct 562 0 l  531 0 l 
p ef
679 -1 m  675 0 670 1 665 2 ct 660 3 655 3 648 3 ct 623 3 611 -11 611 -39 ct 611 -164 l 
589 -164 l  589 -187 l  612 -187 l  621 -228 l  642 -228 l  642 -187 l 
676 -187 l  676 -164 l  642 -164 l  642 -46 l  642 -37 643 -31 646 -27 ct 
649 -23 654 -22 662 -22 ct 665 -22 667 -22 670 -22 ct 673 -23 676 -23 679 -24 ct 
679 -1 l  p ef
744 -164 m  744 -1 l  713 -1 l  713 -164 l  687 -164 l  687 -187 l  713 -187 l 
713 -208 l  713 -215 714 -221 715 -227 ct 716 -233 719 -238 722 -242 ct 725 -246 730 -250 736 -252 ct 
742 -255 749 -256 759 -256 ct 762 -256 766 -256 770 -255 ct 774 -255 778 -255 781 -254 ct 
781 -230 l  779 -231 776 -231 774 -231 ct 771 -232 769 -232 767 -232 ct 762 -232 758 -231 756 -230 ct 
753 -229 750 -227 749 -224 ct 747 -222 746 -219 745 -216 ct 745 -212 744 -208 744 -204 ct 
744 -187 l  781 -187 l  781 -164 l  744 -164 l  p ef
pom
0.601 0.402 0.800 c 9606 25000 m  8174 25000 l  8174 24355 l  11038 24355 l 
11038 25000 l  9606 25000 l  p ef

pum
8424 24798 t
0.230 0.226 0.210 c 46 -167 m  22 -167 l  18 -243 l  50 -243 l  46 -167 l 
p ef
114 -167 m  90 -167 l  86 -243 l  118 -243 l  114 -167 l  p ef
272 -220 m  258 -220 246 -218 235 -213 ct 224 -209 215 -202 208 -194 ct 201 -185 196 -175 192 -163 ct 
188 -151 186 -138 186 -123 ct 186 -108 188 -95 192 -83 ct 196 -71 202 -60 209 -52 ct 
217 -43 226 -36 237 -31 ct 247 -26 259 -24 273 -24 ct 282 -24 291 -25 299 -28 ct 
306 -30 313 -34 320 -38 ct 326 -43 332 -48 336 -54 ct 341 -60 346 -67 350 -75 ct 
376 -61 l  372 -52 367 -44 360 -36 ct 354 -28 346 -21 338 -15 ct 329 -10 319 -5 308 -2 ct 
297 1 285 3 271 3 ct 252 3 234 0 220 -6 ct 205 -13 193 -21 183 -33 ct 173 -44 165 -57 160 -73 ct 
155 -88 153 -105 153 -123 ct 153 -142 156 -159 161 -174 ct 166 -190 174 -203 184 -213 ct 
194 -224 206 -232 221 -238 ct 236 -244 252 -247 271 -247 ct 297 -247 319 -242 336 -232 ct 
353 -222 366 -207 374 -187 ct 343 -176 l  341 -182 338 -188 334 -193 ct 330 -198 325 -203 319 -207 ct 
313 -211 306 -214 298 -216 ct 291 -219 282 -220 272 -220 ct p ef
571 -94 m  571 -61 563 -37 549 -21 ct 535 -5 514 3 486 3 ct 473 3 462 1 452 -3 ct 
441 -7 433 -13 426 -21 ct 419 -29 413 -39 409 -51 ct 406 -63 404 -77 404 -94 ct 
404 -158 432 -190 487 -190 ct 502 -190 514 -188 525 -184 ct 535 -180 544 -174 551 -166 ct 
557 -158 562 -148 566 -136 ct 569 -124 571 -110 571 -94 ct p
538 -94 m  538 -108 537 -120 535 -129 ct 532 -139 529 -146 525 -152 ct 520 -158 515 -161 509 -164 ct 
503 -166 496 -167 488 -167 ct 480 -167 473 -166 466 -164 ct 460 -161 455 -157 450 -152 ct 
446 -146 442 -138 440 -129 ct 438 -120 436 -108 436 -94 ct 436 -79 438 -67 440 -58 ct 
443 -48 446 -41 451 -35 ct 455 -30 460 -26 466 -23 ct 472 -21 479 -20 486 -20 ct 
494 -20 501 -21 508 -23 ct 514 -26 519 -29 524 -35 ct 528 -41 532 -48 534 -58 ct 
537 -67 538 -79 538 -94 ct p ef
638 -187 m  638 -69 l  638 -60 639 -52 640 -46 ct 641 -40 644 -35 647 -31 ct 
650 -27 653 -25 658 -23 ct 663 -22 669 -21 677 -21 ct 684 -21 691 -22 696 -25 ct 
702 -27 707 -31 712 -36 ct 716 -41 719 -47 721 -54 ct 724 -61 725 -70 725 -79 ct 
725 -187 l  756 -187 l  756 -40 l  756 -36 756 -32 756 -28 ct 756 -24 756 -20 756 -16 ct 
756 -12 756 -9 757 -6 ct 757 -3 757 -1 757 0 ct 728 0 l  727 -1 727 -3 727 -5 ct 
727 -8 727 -11 727 -14 ct 727 -17 726 -20 726 -24 ct 726 -27 726 -30 726 -32 ct 
726 -32 l  723 -27 719 -22 716 -18 ct 712 -13 708 -10 703 -7 ct 699 -4 693 -1 687 1 ct 
681 2 674 3 666 3 ct 656 3 647 2 639 -1 ct 632 -3 626 -7 621 -13 ct 616 -18 613 -25 610 -33 ct 
608 -41 607 -51 607 -63 ct 607 -187 l  638 -187 l  p ef
826 -95 m  826 -84 827 -74 829 -65 ct 830 -56 833 -48 837 -42 ct 840 -35 845 -30 851 -27 ct 
857 -23 865 -21 873 -21 ct 884 -21 894 -24 901 -30 ct 909 -36 913 -45 915 -57 ct 
946 -57 l  945 -49 943 -42 939 -34 ct 936 -27 931 -21 925 -15 ct 920 -10 912 -5 904 -2 ct 
895 1 885 3 874 3 ct 860 3 847 1 837 -4 ct 827 -9 819 -16 812 -25 ct 806 -34 801 -44 798 -56 ct 
795 -67 794 -80 794 -94 ct 794 -106 795 -117 797 -127 ct 799 -137 802 -145 806 -152 ct 
810 -159 814 -165 819 -170 ct 824 -175 830 -179 835 -182 ct 841 -185 848 -187 854 -188 ct 
861 -190 867 -190 874 -190 ct 884 -190 894 -189 902 -186 ct 910 -183 917 -179 923 -174 ct 
929 -169 934 -163 937 -157 ct 941 -150 944 -142 945 -135 ct 913 -132 l  912 -143 908 -151 901 -157 ct 
894 -163 885 -166 873 -166 ct 864 -166 857 -165 851 -162 ct 845 -159 840 -154 837 -148 ct 
833 -142 830 -135 829 -126 ct 827 -117 826 -107 826 -95 ct p ef
1139 -94 m  1139 -61 1131 -37 1117 -21 ct 1103 -5 1082 3 1054 3 ct 1041 3 1030 1 1020 -3 ct 
1009 -7 1001 -13 994 -21 ct 987 -29 981 -39 977 -51 ct 974 -63 972 -77 972 -94 ct 
972 -158 1000 -190 1055 -190 ct 1070 -190 1082 -188 1093 -184 ct 1103 -180 1112 -174 1119 -166 ct 
1125 -158 1130 -148 1134 -136 ct 1137 -124 1139 -110 1139 -94 ct p
1106 -94 m  1106 -108 1105 -120 1103 -129 ct 1100 -139 1097 -146 1093 -152 ct 
1088 -158 1083 -161 1077 -164 ct 1071 -166 1064 -167 1056 -167 ct 1048 -167 1041 -166 1034 -164 ct 
1028 -161 1023 -157 1018 -152 ct 1014 -146 1010 -138 1008 -129 ct 1006 -120 1004 -108 1004 -94 ct 
1004 -79 1006 -67 1008 -58 ct 1011 -48 1014 -41 1019 -35 ct 1023 -30 1028 -26 1034 -23 ct 
1040 -21 1047 -20 1054 -20 ct 1062 -20 1069 -21 1076 -23 ct 1082 -26 1087 -29 1092 -35 ct 
1096 -41 1100 -48 1102 -58 ct 1105 -67 1106 -79 1106 -94 ct p ef
1205 -187 m  1205 -69 l  1205 -60 1206 -52 1207 -46 ct 1208 -40 1211 -35 1214 -31 ct 
1217 -27 1220 -25 1225 -23 ct 1230 -22 1236 -21 1244 -21 ct 1251 -21 1258 -22 1263 -25 ct 
1269 -27 1274 -31 1279 -36 ct 1283 -41 1286 -47 1288 -54 ct 1291 -61 1292 -70 1292 -79 ct 
1292 -187 l  1323 -187 l  1323 -40 l  1323 -36 1323 -32 1323 -28 ct 1323 -24 1323 -20 1323 -16 ct 
1323 -12 1323 -9 1324 -6 ct 1324 -3 1324 -1 1324 0 ct 1295 0 l  1294 -1 1294 -3 1294 -5 ct 
1294 -8 1294 -11 1294 -14 ct 1294 -17 1293 -20 1293 -24 ct 1293 -27 1293 -30 1293 -32 ct 
1293 -32 l  1290 -27 1286 -22 1283 -18 ct 1279 -13 1275 -10 1270 -7 ct 1266 -4 1260 -1 1254 1 ct 
1248 2 1241 3 1233 3 ct 1223 3 1214 2 1206 -1 ct 1199 -3 1193 -7 1188 -13 ct 1183 -18 1180 -25 1177 -33 ct 
1175 -41 1174 -51 1174 -63 ct 1174 -187 l  1205 -187 l  p ef
1745 -75 m  1745 -61 1744 -49 1741 -39 ct 1738 -29 1734 -21 1729 -15 ct 1724 -9 1718 -4 1712 -2 ct 
1705 1 1698 2 1690 2 ct 1683 2 1675 1 1669 -2 ct 1662 -4 1657 -9 1652 -15 ct 1647 -21 1643 -29 1640 -39 ct 
1637 -48 1636 -61 1636 -75 ct 1636 -90 1637 -103 1640 -113 ct 1643 -123 1647 -131 1652 -137 ct 
1656 -143 1662 -147 1669 -149 ct 1676 -152 1683 -153 1691 -153 ct 1698 -153 1706 -152 1712 -149 ct 
1719 -147 1724 -143 1729 -137 ct 1734 -131 1738 -123 1741 -113 ct 1744 -103 1745 -90 1745 -75 ct 
p
1535 0 m  1508 0 l  1667 -243 l  1694 -243 l  1535 0 l  p
1512 -245 m  1519 -245 1526 -244 1533 -241 ct 1539 -239 1545 -235 1550 -229 ct 
1555 -223 1559 -215 1562 -206 ct 1564 -196 1566 -183 1566 -168 ct 1566 -154 1564 -142 1562 -132 ct 
1559 -122 1555 -114 1550 -108 ct 1545 -102 1539 -97 1533 -94 ct 1526 -92 1519 -91 1511 -91 ct 
1504 -91 1496 -92 1490 -94 ct 1483 -97 1477 -101 1472 -108 ct 1467 -114 1464 -122 1461 -132 ct 
1458 -141 1457 -154 1457 -168 ct 1457 -183 1458 -196 1461 -206 ct 1464 -215 1468 -223 1472 -229 ct 
1477 -235 1483 -239 1490 -241 ct 1497 -244 1504 -245 1512 -245 ct p
1720 -75 m  1720 -86 1719 -96 1718 -104 ct 1717 -111 1715 -117 1712 -122 ct 
1710 -126 1707 -129 1703 -131 ct 1700 -133 1695 -134 1691 -134 ct 1686 -134 1682 -133 1678 -131 ct 
1674 -129 1671 -126 1669 -121 ct 1666 -117 1664 -111 1663 -103 ct 1662 -96 1661 -86 1661 -75 ct 
1661 -64 1662 -55 1663 -48 ct 1664 -40 1666 -34 1669 -30 ct 1671 -25 1674 -22 1678 -20 ct 
1682 -18 1686 -17 1690 -17 ct 1695 -17 1699 -18 1703 -20 ct 1706 -22 1709 -25 1712 -30 ct 
1714 -34 1716 -40 1718 -48 ct 1719 -55 1720 -64 1720 -75 ct p
1541 -168 m  1541 -179 1540 -189 1539 -196 ct 1537 -204 1536 -210 1533 -214 ct 
1531 -219 1528 -222 1524 -224 ct 1521 -225 1517 -226 1512 -226 ct 1507 -226 1503 -225 1499 -224 ct 
1495 -222 1492 -218 1490 -214 ct 1487 -210 1485 -204 1484 -196 ct 1483 -189 1482 -179 1482 -168 ct 
1482 -157 1483 -148 1484 -141 ct 1485 -133 1487 -127 1490 -123 ct 1492 -118 1495 -115 1499 -113 ct 
1502 -111 1507 -110 1512 -110 ct 1516 -110 1520 -111 1523 -113 ct 1527 -115 1530 -118 1533 -123 ct 
1535 -127 1537 -133 1538 -141 ct 1540 -148 1541 -157 1541 -168 ct p ef
1921 -52 m  1921 -43 1919 -36 1916 -29 ct 1912 -22 1907 -16 1901 -11 ct 1894 -7 1887 -3 1877 -1 ct 
1868 2 1857 3 1845 3 ct 1834 3 1825 2 1816 1 ct 1807 -1 1800 -4 1793 -8 ct 1786 -11 1781 -16 1777 -22 ct 
1772 -28 1769 -36 1767 -44 ct 1794 -50 l  1797 -40 1802 -32 1811 -28 ct 1819 -23 1830 -21 1845 -21 ct 
1852 -21 1858 -21 1863 -22 ct 1869 -23 1874 -25 1878 -27 ct 1882 -29 1885 -32 1887 -36 ct 
1889 -39 1891 -44 1891 -50 ct 1891 -55 1889 -60 1887 -63 ct 1884 -67 1880 -70 1876 -73 ct 
1871 -75 1865 -77 1858 -79 ct 1852 -81 1844 -83 1836 -85 ct 1829 -87 1821 -89 1814 -91 ct 
1807 -94 1800 -97 1794 -101 ct 1788 -105 1783 -110 1780 -116 ct 1776 -122 1774 -129 1774 -138 ct 
1774 -155 1780 -168 1792 -177 ct 1805 -186 1822 -190 1845 -190 ct 1866 -190 1882 -186 1894 -179 ct 
1907 -172 1914 -160 1917 -144 ct 1890 -141 l  1889 -146 1887 -150 1884 -153 ct 
1881 -156 1878 -159 1874 -161 ct 1870 -163 1866 -164 1861 -165 ct 1856 -166 1851 -167 1845 -167 ct 
1831 -167 1821 -164 1814 -160 ct 1808 -156 1804 -149 1804 -141 ct 1804 -136 1806 -132 1808 -128 ct 
1811 -125 1814 -122 1818 -120 ct 1823 -118 1828 -116 1834 -114 ct 1841 -113 1847 -111 1855 -109 ct 
1860 -108 1865 -106 1870 -105 ct 1875 -103 1880 -102 1885 -100 ct 1890 -98 1895 -95 1899 -93 ct 
1903 -90 1907 -87 1910 -83 ct 1913 -79 1916 -75 1918 -70 ct 1920 -65 1921 -59 1921 -52 ct 
p ef
2005 4 m  1935 -256 l  1962 -256 l  2033 4 l  2005 4 l  p ef
2174 0 m  2174 -118 l  2174 -127 2174 -135 2172 -141 ct 2171 -147 2169 -152 2166 -156 ct 
2163 -160 2159 -162 2154 -164 ct 2149 -165 2143 -166 2136 -166 ct 2128 -166 2122 -165 2116 -162 ct 
2110 -160 2105 -156 2101 -151 ct 2096 -146 2093 -140 2091 -133 ct 2089 -126 2088 -117 2088 -108 ct 
2088 0 l  2056 0 l  2056 -147 l  2056 -151 2056 -155 2056 -159 ct 2056 -163 2056 -167 2056 -171 ct 
2056 -175 2056 -178 2056 -181 ct 2056 -184 2056 -186 2055 -187 ct 2085 -187 l 
2085 -186 2085 -184 2085 -182 ct 2085 -179 2085 -176 2086 -173 ct 2086 -170 2086 -167 2086 -163 ct 
2086 -160 2086 -157 2086 -155 ct 2087 -155 l  2090 -160 2093 -165 2096 -169 ct 
2100 -174 2104 -177 2109 -180 ct 2114 -183 2119 -186 2125 -188 ct 2131 -189 2138 -190 2146 -190 ct 
2157 -190 2166 -189 2173 -186 ct 2180 -184 2187 -180 2191 -174 ct 2196 -169 2200 -162 2202 -154 ct 
2204 -146 2205 -136 2205 -124 ct 2205 0 l  2174 0 l  p ef
2273 -167 m  2249 -167 l  2245 -243 l  2277 -243 l  2273 -167 l  p ef
2340 -167 m  2316 -167 l  2312 -243 l  2344 -243 l  2340 -167 l  p ef
pom
0.492 0.652 0.281 c 11718 25000 m  11126 25000 l  11126 24355 l  12310 24355 l 
12310 25000 l  11718 25000 l  p ef

pum
11376 24798 t
0.230 0.226 0.210 c 142 0 m  142 -118 l  142 -127 142 -135 140 -141 ct 139 -147 137 -152 134 -156 ct 
131 -160 127 -162 122 -164 ct 117 -165 111 -166 104 -166 ct 96 -166 90 -165 84 -162 ct 
78 -160 73 -156 69 -151 ct 64 -146 61 -140 59 -133 ct 57 -126 56 -117 56 -108 ct 
56 0 l  24 0 l  24 -147 l  24 -151 24 -155 24 -159 ct 24 -163 24 -167 24 -171 ct 
24 -175 24 -178 24 -181 ct 24 -184 24 -186 23 -187 ct 53 -187 l  53 -186 53 -184 53 -182 ct 
53 -179 53 -176 54 -173 ct 54 -170 54 -167 54 -163 ct 54 -160 54 -157 54 -155 ct 
55 -155 l  58 -160 61 -165 64 -169 ct 68 -174 72 -177 77 -180 ct 82 -183 87 -186 93 -188 ct 
99 -189 106 -190 114 -190 ct 125 -190 134 -189 141 -186 ct 148 -184 155 -180 159 -174 ct 
164 -169 168 -162 170 -154 ct 172 -146 173 -136 173 -124 ct 173 0 l  142 0 l 
p ef
377 -94 m  377 -61 369 -37 355 -21 ct 341 -5 320 3 292 3 ct 279 3 268 1 258 -3 ct 
247 -7 239 -13 232 -21 ct 225 -29 219 -39 215 -51 ct 212 -63 210 -77 210 -94 ct 
210 -158 238 -190 293 -190 ct 308 -190 320 -188 331 -184 ct 341 -180 350 -174 357 -166 ct 
363 -158 368 -148 372 -136 ct 375 -124 377 -110 377 -94 ct p
344 -94 m  344 -108 343 -120 341 -129 ct 338 -139 335 -146 331 -152 ct 326 -158 321 -161 315 -164 ct 
309 -166 302 -167 294 -167 ct 286 -167 279 -166 272 -164 ct 266 -161 261 -157 256 -152 ct 
252 -146 248 -138 246 -129 ct 244 -120 242 -108 242 -94 ct 242 -79 244 -67 246 -58 ct 
249 -48 252 -41 257 -35 ct 261 -30 266 -26 272 -23 ct 278 -21 285 -20 292 -20 ct 
300 -20 307 -21 314 -23 ct 320 -26 325 -29 330 -35 ct 334 -41 338 -48 340 -58 ct 
343 -67 344 -79 344 -94 ct p ef
521 0 m  521 -118 l  521 -127 521 -135 520 -141 ct 519 -147 517 -152 514 -156 ct 
511 -160 508 -162 503 -164 ct 499 -165 494 -166 487 -166 ct 481 -166 475 -165 469 -162 ct 
464 -160 460 -156 456 -151 ct 452 -146 449 -140 447 -133 ct 445 -126 444 -117 444 -108 ct 
444 0 l  413 0 l  413 -147 l  413 -151 413 -155 413 -159 ct 413 -163 413 -167 413 -171 ct 
413 -175 413 -178 413 -181 ct 413 -184 413 -186 412 -187 ct 442 -187 l  442 -186 442 -184 442 -182 ct 
442 -179 442 -176 443 -173 ct 443 -170 443 -167 443 -163 ct 443 -160 443 -157 443 -155 ct 
444 -155 l  446 -160 449 -165 453 -169 ct 456 -174 460 -177 464 -180 ct 468 -183 473 -186 479 -188 ct 
484 -189 491 -190 498 -190 ct 512 -190 523 -187 532 -182 ct 540 -176 546 -167 549 -155 ct 
549 -155 l  552 -160 555 -165 559 -169 ct 562 -174 566 -177 571 -180 ct 575 -183 580 -186 586 -188 ct 
592 -189 598 -190 606 -190 ct 615 -190 623 -189 630 -186 ct 637 -184 643 -180 647 -174 ct 
651 -169 655 -162 657 -154 ct 659 -146 660 -136 660 -124 ct 660 0 l  629 0 l 
629 -118 l  629 -127 629 -135 627 -141 ct 626 -147 624 -152 622 -156 ct 619 -160 615 -162 611 -164 ct 
607 -165 601 -166 595 -166 ct 588 -166 583 -165 577 -162 ct 572 -160 567 -156 564 -151 ct 
560 -147 557 -141 555 -133 ct 553 -126 552 -118 552 -108 ct 552 0 l  521 0 l 
p ef
pom
0.492 0.652 0.281 c 5592 24098 m  5000 24098 l  5000 23453 l  6184 23453 l 
6184 24098 l  5592 24098 l  p ef

pum
5250 23896 t
0.230 0.226 0.210 c 142 0 m  142 -118 l  142 -127 142 -135 140 -141 ct 139 -147 137 -152 134 -156 ct 
131 -160 127 -162 122 -164 ct 117 -165 111 -166 104 -166 ct 96 -166 90 -165 84 -162 ct 
78 -160 73 -156 69 -151 ct 64 -146 61 -140 59 -133 ct 57 -126 56 -117 56 -108 ct 
56 0 l  24 0 l  24 -147 l  24 -151 24 -155 24 -159 ct 24 -163 24 -167 24 -171 ct 
24 -175 24 -178 24 -181 ct 24 -184 24 -186 23 -187 ct 53 -187 l  53 -186 53 -184 53 -182 ct 
53 -179 53 -176 54 -173 ct 54 -170 54 -167 54 -163 ct 54 -160 54 -157 54 -155 ct 
55 -155 l  58 -160 61 -165 64 -169 ct 68 -174 72 -177 77 -180 ct 82 -183 87 -186 93 -188 ct 
99 -189 106 -190 114 -190 ct 125 -190 134 -189 141 -186 ct 148 -184 155 -180 159 -174 ct 
164 -169 168 -162 170 -154 ct 172 -146 173 -136 173 -124 ct 173 0 l  142 0 l 
p ef
377 -94 m  377 -61 369 -37 355 -21 ct 341 -5 320 3 292 3 ct 279 3 268 1 258 -3 ct 
247 -7 239 -13 232 -21 ct 225 -29 219 -39 215 -51 ct 212 -63 210 -77 210 -94 ct 
210 -158 238 -190 293 -190 ct 308 -190 320 -188 331 -184 ct 341 -180 350 -174 357 -166 ct 
363 -158 368 -148 372 -136 ct 375 -124 377 -110 377 -94 ct p
344 -94 m  344 -108 343 -120 341 -129 ct 338 -139 335 -146 331 -152 ct 326 -158 321 -161 315 -164 ct 
309 -166 302 -167 294 -167 ct 286 -167 279 -166 272 -164 ct 266 -161 261 -157 256 -152 ct 
252 -146 248 -138 246 -129 ct 244 -120 242 -108 242 -94 ct 242 -79 244 -67 246 -58 ct 
249 -48 252 -41 257 -35 ct 261 -30 266 -26 272 -23 ct 278 -21 285 -20 292 -20 ct 
300 -20 307 -21 314 -23 ct 320 -26 325 -29 330 -35 ct 334 -41 338 -48 340 -58 ct 
343 -67 344 -79 344 -94 ct p ef
521 0 m  521 -118 l  521 -127 521 -135 520 -141 ct 519 -147 517 -152 514 -156 ct 
511 -160 508 -162 503 -164 ct 499 -165 494 -166 487 -166 ct 481 -166 475 -165 469 -162 ct 
464 -160 460 -156 456 -151 ct 452 -146 449 -140 447 -133 ct 445 -126 444 -117 444 -108 ct 
444 0 l  413 0 l  413 -147 l  413 -151 413 -155 413 -159 ct 413 -163 413 -167 413 -171 ct 
413 -175 413 -178 413 -181 ct 413 -184 413 -186 412 -187 ct 442 -187 l  442 -186 442 -184 442 -182 ct 
442 -179 442 -176 443 -173 ct 443 -170 443 -167 443 -163 ct 443 -160 443 -157 443 -155 ct 
444 -155 l  446 -160 449 -165 453 -169 ct 456 -174 460 -177 464 -180 ct 468 -183 473 -186 479 -188 ct 
484 -189 491 -190 498 -190 ct 512 -190 523 -187 532 -182 ct 540 -176 546 -167 549 -155 ct 
549 -155 l  552 -160 555 -165 559 -169 ct 562 -174 566 -177 571 -180 ct 575 -183 580 -186 586 -188 ct 
592 -189 598 -190 606 -190 ct 615 -190 623 -189 630 -186 ct 637 -184 643 -180 647 -174 ct 
651 -169 655 -162 657 -154 ct 659 -146 660 -136 660 -124 ct 660 0 l  629 0 l 
629 -118 l  629 -127 629 -135 627 -141 ct 626 -147 624 -152 622 -156 ct 619 -160 615 -162 611 -164 ct 
607 -165 601 -166 595 -166 ct 588 -166 583 -165 577 -162 ct 572 -160 567 -156 564 -151 ct 
560 -147 557 -141 555 -133 ct 553 -126 552 -118 552 -108 ct 552 0 l  521 0 l 
p ef
pom
0.601 0.402 0.800 c 13564 24525 m  12396 24525 l  12396 23880 l  14731 23880 l 
14731 24525 l  13564 24525 l  p ef

pum
12646 24323 t
0.230 0.226 0.210 c 46 -167 m  22 -167 l  18 -243 l  50 -243 l  46 -167 l 
p ef
114 -167 m  90 -167 l  86 -243 l  118 -243 l  114 -167 l  p ef
352 -68 m  352 -56 349 -46 345 -37 ct 340 -28 333 -21 325 -16 ct 317 -10 307 -6 297 -4 ct 
286 -1 275 0 263 0 ct 164 0 l  164 -243 l  252 -243 l  266 -243 278 -242 288 -240 ct 
299 -237 308 -234 315 -229 ct 322 -224 328 -218 332 -211 ct 336 -203 338 -194 338 -184 ct 
338 -177 337 -171 335 -165 ct 333 -159 330 -153 326 -149 ct 322 -144 318 -140 312 -136 ct 
306 -132 299 -130 292 -128 ct 301 -127 310 -125 317 -121 ct 325 -118 331 -114 336 -109 ct 
341 -103 345 -97 348 -91 ct 351 -84 352 -76 352 -68 ct p
305 -180 m  305 -193 300 -203 291 -208 ct 282 -214 269 -217 252 -217 ct 197 -217 l 
197 -140 l  252 -140 l  262 -140 270 -141 277 -143 ct 283 -144 289 -147 293 -151 ct 
297 -154 300 -158 302 -163 ct 304 -168 305 -174 305 -180 ct p
319 -71 m  319 -79 317 -85 314 -91 ct 312 -96 307 -101 302 -104 ct 297 -107 291 -110 283 -112 ct 
276 -113 267 -114 258 -114 ct 197 -114 l  197 -26 l  261 -26 l  269 -26 277 -27 284 -28 ct 
291 -30 297 -32 302 -36 ct 307 -39 311 -44 314 -49 ct 317 -55 319 -62 319 -71 ct 
p ef
472 0 m  468 11 463 21 459 30 ct 454 39 449 47 443 53 ct 438 60 432 65 425 68 ct 
418 71 410 73 401 73 ct 397 73 393 73 390 73 ct 387 73 383 72 380 71 ct 380 48 l 
382 49 384 49 387 49 ct 390 49 392 49 394 49 ct 403 49 412 46 419 39 ct 427 32 434 21 440 6 ct 
443 -1 l  369 -187 l  402 -187 l  441 -83 l  442 -80 444 -76 446 -71 ct 447 -66 449 -61 451 -55 ct 
453 -50 454 -46 456 -41 ct 457 -37 458 -35 458 -34 ct 458 -35 459 -37 461 -41 ct 
462 -45 463 -49 465 -54 ct 467 -58 468 -63 470 -68 ct 472 -72 473 -76 475 -80 ct 
511 -187 l  544 -187 l  472 0 l  p ef
594 -87 m  594 -77 595 -68 597 -60 ct 599 -52 602 -45 606 -39 ct 610 -33 615 -28 622 -25 ct 
629 -22 636 -20 646 -20 ct 659 -20 670 -23 678 -28 ct 686 -34 692 -41 694 -49 ct 
722 -41 l  720 -36 717 -31 713 -26 ct 710 -20 705 -16 699 -11 ct 694 -7 686 -4 677 -1 ct 
669 2 658 3 646 3 ct 618 3 597 -5 583 -22 ct 568 -38 561 -62 561 -95 ct 561 -112 563 -127 568 -139 ct 
572 -151 578 -161 585 -169 ct 593 -176 602 -182 612 -185 ct 622 -188 633 -190 644 -190 ct 
660 -190 673 -187 684 -182 ct 694 -177 703 -170 709 -162 ct 715 -153 720 -142 723 -130 ct 
725 -118 727 -105 727 -91 ct 727 -87 l  594 -87 l  p
695 -111 m  693 -130 688 -145 680 -154 ct 671 -163 659 -167 644 -167 ct 639 -167 633 -166 628 -165 ct 
622 -163 617 -160 612 -156 ct 607 -152 603 -146 600 -139 ct 596 -131 594 -122 594 -111 ct 
695 -111 l  p ef
1020 -94 m  1020 -29 997 3 951 3 ct 937 3 925 0 916 -5 ct 906 -10 899 -18 893 -29 ct 
892 -29 l  892 -26 892 -23 892 -20 ct 892 -17 892 -14 892 -11 ct 892 -8 891 -6 891 -4 ct 
891 -2 891 -1 891 0 ct 861 0 l  861 -1 861 -3 861 -5 ct 861 -8 861 -11 861 -14 ct 
862 -18 862 -22 862 -26 ct 862 -30 862 -34 862 -39 ct 862 -256 l  893 -256 l 
893 -183 l  893 -180 893 -176 893 -173 ct 893 -170 893 -167 892 -165 ct 892 -162 892 -159 892 -157 ct 
893 -157 l  899 -169 906 -177 916 -182 ct 925 -187 937 -190 951 -190 ct 974 -190 992 -182 1003 -166 ct 
1014 -150 1020 -126 1020 -94 ct p
987 -93 m  987 -106 986 -117 985 -126 ct 983 -136 980 -143 977 -149 ct 973 -155 969 -159 963 -162 ct 
958 -165 951 -166 943 -166 ct 935 -166 928 -165 921 -162 ct 915 -159 910 -155 906 -149 ct 
901 -144 898 -136 896 -126 ct 894 -117 893 -105 893 -91 ct 893 -78 894 -67 896 -58 ct 
898 -49 901 -42 906 -36 ct 910 -30 915 -26 921 -24 ct 927 -21 935 -20 943 -20 ct 
950 -20 957 -21 962 -24 ct 968 -27 972 -31 976 -37 ct 980 -42 982 -50 984 -59 ct 
986 -69 987 -80 987 -93 ct p ef
1137 0 m  1133 11 1128 21 1124 30 ct 1119 39 1114 47 1108 53 ct 1103 60 1097 65 1090 68 ct 
1083 71 1075 73 1066 73 ct 1062 73 1058 73 1055 73 ct 1052 73 1048 72 1045 71 ct 
1045 48 l  1047 49 1049 49 1052 49 ct 1055 49 1057 49 1059 49 ct 1068 49 1077 46 1084 39 ct 
1092 32 1099 21 1105 6 ct 1108 -1 l  1034 -187 l  1067 -187 l  1106 -83 l 
1107 -80 1109 -76 1111 -71 ct 1112 -66 1114 -61 1116 -55 ct 1118 -50 1119 -46 1121 -41 ct 
1122 -37 1123 -35 1123 -34 ct 1123 -35 1124 -37 1126 -41 ct 1127 -45 1128 -49 1130 -54 ct 
1132 -58 1133 -63 1135 -68 ct 1137 -72 1138 -76 1140 -80 ct 1176 -187 l  1209 -187 l 
1137 0 l  p ef
1259 -87 m  1259 -77 1260 -68 1262 -60 ct 1264 -52 1267 -45 1271 -39 ct 1275 -33 1280 -28 1287 -25 ct 
1294 -22 1301 -20 1311 -20 ct 1324 -20 1335 -23 1343 -28 ct 1351 -34 1357 -41 1359 -49 ct 
1387 -41 l  1385 -36 1382 -31 1378 -26 ct 1375 -20 1370 -16 1364 -11 ct 1359 -7 1351 -4 1342 -1 ct 
1334 2 1323 3 1311 3 ct 1283 3 1262 -5 1248 -22 ct 1233 -38 1226 -62 1226 -95 ct 
1226 -112 1228 -127 1233 -139 ct 1237 -151 1243 -161 1250 -169 ct 1258 -176 1267 -182 1277 -185 ct 
1287 -188 1298 -190 1309 -190 ct 1325 -190 1338 -187 1349 -182 ct 1359 -177 1368 -170 1374 -162 ct 
1380 -153 1385 -142 1388 -130 ct 1390 -118 1392 -105 1392 -91 ct 1392 -87 l 
1259 -87 l  p
1360 -111 m  1358 -130 1353 -145 1345 -154 ct 1336 -163 1324 -167 1309 -167 ct 
1304 -167 1298 -166 1293 -165 ct 1287 -163 1282 -160 1277 -156 ct 1272 -152 1268 -146 1265 -139 ct 
1261 -131 1259 -122 1259 -111 ct 1360 -111 l  p ef
1475 4 m  1405 -256 l  1432 -256 l  1503 4 l  1475 4 l  p ef
1645 0 m  1645 -118 l  1645 -127 1645 -135 1643 -141 ct 1642 -147 1640 -152 1637 -156 ct 
1634 -160 1630 -162 1625 -164 ct 1620 -165 1614 -166 1607 -166 ct 1599 -166 1593 -165 1587 -162 ct 
1581 -160 1576 -156 1572 -151 ct 1567 -146 1564 -140 1562 -133 ct 1560 -126 1559 -117 1559 -108 ct 
1559 0 l  1527 0 l  1527 -147 l  1527 -151 1527 -155 1527 -159 ct 1527 -163 1527 -167 1527 -171 ct 
1527 -175 1527 -178 1527 -181 ct 1527 -184 1527 -186 1526 -187 ct 1556 -187 l 
1556 -186 1556 -184 1556 -182 ct 1556 -179 1556 -176 1557 -173 ct 1557 -170 1557 -167 1557 -163 ct 
1557 -160 1557 -157 1557 -155 ct 1558 -155 l  1561 -160 1564 -165 1567 -169 ct 
1571 -174 1575 -177 1580 -180 ct 1585 -183 1590 -186 1596 -188 ct 1602 -189 1609 -190 1617 -190 ct 
1628 -190 1637 -189 1644 -186 ct 1651 -184 1658 -180 1662 -174 ct 1667 -169 1671 -162 1673 -154 ct 
1675 -146 1676 -136 1676 -124 ct 1676 0 l  1645 0 l  p ef
1744 -167 m  1720 -167 l  1716 -243 l  1748 -243 l  1744 -167 l  p ef
1811 -167 m  1787 -167 l  1783 -243 l  1815 -243 l  1811 -167 l  p ef
pom
0.492 0.652 0.281 c 7835 24098 m  7135 24098 l  7135 23453 l  8534 23453 l 
8534 24098 l  7835 24098 l  p ef

pum
7385 23896 t
0.230 0.226 0.210 c 187 0 m  57 -207 l  57 -201 57 -196 57 -190 ct 58 -185 58 -181 58 -175 ct 
58 -170 58 -165 58 -161 ct 58 0 l  29 0 l  29 -243 l  67 -243 l  199 -35 l 
198 -40 198 -46 198 -52 ct 197 -56 197 -62 197 -67 ct 197 -73 197 -78 197 -84 ct 
197 -243 l  226 -243 l  226 0 l  187 0 l  p ef
380 3 m  367 3 354 1 342 -2 ct 330 -6 320 -11 311 -19 ct 302 -27 294 -36 289 -48 ct 
284 -59 281 -73 281 -89 ct 281 -244 l  314 -244 l  314 -92 l  314 -79 316 -69 319 -60 ct 
322 -52 327 -45 333 -39 ct 339 -34 346 -30 354 -27 ct 362 -25 370 -24 380 -24 ct 
389 -24 398 -25 407 -28 ct 415 -30 422 -34 429 -40 ct 435 -45 440 -52 444 -61 ct 
447 -70 449 -81 449 -94 ct 449 -244 l  482 -244 l  482 -92 l  482 -76 479 -62 474 -50 ct 
468 -38 461 -28 452 -20 ct 443 -12 432 -6 420 -3 ct 407 1 394 3 380 3 ct p ef
537 0 m  537 -243 l  570 -243 l  570 -27 l  693 -27 l  693 0 l  537 0 l 
p ef
732 0 m  732 -243 l  765 -243 l  765 -27 l  888 -27 l  888 0 l  732 0 l 
p ef
pom
0.003 0.003 0.003 c 8155 22391 m  6850 22600 l  ps
8155 22391 m  10098 22771 l  ps
12166 22391 m  13322 22600 l  ps
13322 23245 m  13563 23880 l  ps
6850 23245 m  5592 23453 l  ps
6850 23245 m  7834 23453 l  ps
10098 23416 m  9606 24355 l  ps
10098 23416 m  11718 24355 l  ps
0 4110 t 
pom
count op_count sub {pop} repeat countdictstack dict_count sub {end} repeat b4_inc_state restore
%%PageTrailer
%%Trailer
%%EOF
