%!PS-Adobe-3.0 EPSF-3.0 
%%BoundingBox: 0 0 196 226
%%Pages: 0
%%Creator: Sun Microsystems, Inc.
%%Title: none
%%CreationDate: none
%%LanguageLevel: 2
%%EndComments
%%BeginProlog
%%BeginResource: procset SDRes-Prolog 1.0 0
/b4_inc_state save def
/dict_count countdictstack def
/op_count count 1 sub def
userdict begin
0 setgray 0 setlinecap 1 setlinewidth 0 setlinejoin 10 setmiterlimit[] 0 setdash newpath
/languagelevel where {pop languagelevel 1 ne {false setstrokeadjust false setoverprint} if} if
/bdef {bind def} bind def
/c {setrgbcolor} bdef
/l {neg lineto} bdef
/rl {neg rlineto} bdef
/lc {setlinecap} bdef
/lj {setlinejoin} bdef
/lw {setlinewidth} bdef
/ml {setmiterlimit} bdef
/ld {setdash} bdef
/m {neg moveto} bdef
/ct {6 2 roll neg 6 2 roll neg 6 2 roll neg curveto} bdef
/r {rotate} bdef
/t {neg translate} bdef
/s {scale} bdef
/sw {show} bdef
/gs {gsave} bdef
/gr {grestore} bdef
/f {findfont dup length dict begin
{1 index /FID ne {def} {pop pop} ifelse} forall /Encoding ISOLatin1Encoding def
currentdict end /NFont exch definefont pop /NFont findfont} bdef
/p {closepath} bdef
/sf {scalefont setfont} bdef
/ef {eofill}bdef
/pc {closepath stroke}bdef
/ps {stroke}bdef
/pum {matrix currentmatrix}bdef
/pom {setmatrix}bdef
/bs {/aString exch def /nXOfs exch def /nWidth exch def currentpoint nXOfs 0 rmoveto pum nWidth aString stringwidth pop div 1 scale aString show pom moveto} bdef
%%EndResource
%%EndProlog
%%BeginSetup
%%EndSetup
%%Page: 1 1
%%BeginPageSetup
%%EndPageSetup
pum
0.0284 0.02838 s 
0 -7963 t
/tm matrix currentmatrix def
tm setmatrix
-5014 -1347 t 
1 1 s 
0.003 0.003 0.003 c 7382 2314 m  7339 2342 l  ps
7296 2369 m  7254 2397 l  ps
7211 2425 m  7168 2453 l  ps
7125 2480 m  7082 2508 l  ps
7040 2536 m  6997 2564 l  ps
6954 2591 m  6911 2619 l  ps
6869 2647 m  6826 2675 l  ps
6783 2702 m  6740 2730 l  ps
6697 2758 m  6655 2786 l  ps
6612 2813 m  6569 2841 l  ps
6526 2869 m  6483 2897 l  ps
6441 2924 m  6398 2952 l  ps
6355 2980 m  6312 3008 l  ps
6269 3035 m  6227 3063 l  ps
6184 3091 m  6141 3119 l  ps
6098 3146 m  6071 3164 l  ps
5769 3360 m  6228 3241 l  6065 2989 l  5769 3360 l  p ef
8890 2314 m  8941 2314 l  ps
8992 2314 m  9043 2314 l  ps
9094 2314 m  9145 2314 l  ps
9196 2314 m  9247 2314 l  ps
9298 2314 m  9349 2314 l  ps
9400 2314 m  9451 2314 l  ps
9502 2314 m  9553 2314 l  ps
9604 2314 m  9655 2314 l  ps
9706 2314 m  9757 2314 l  ps
9808 2314 m  9822 2314 l  ps
10182 2314 m  9732 2164 l  9732 2464 l  10182 2314 l  p ef
0.273 0.511 0.683 c 10936 6014 m  11446 6819 l  10936 7625 l  10427 6819 l 
10936 6014 l  10936 6014 l  p
10427 6014 m  10427 6014 l  p
11446 7625 m  11446 7625 l  p ef
0 lw 1 lj 0.003 0.003 0.003 c 10936 6014 m  11446 6819 l  10936 7625 l  10427 6819 l 
10936 6014 l  10936 6014 l  pc
10427 6014 m  10427 6014 l  pc
11446 7625 m  11446 7625 l  pc
pum
10358 6891 t
0.230 0.226 0.210 c 49 -93 m  49 -1 l  20 -1 l  20 -93 l  4 -93 l  4 -113 l 
20 -113 l  20 -124 l  20 -129 21 -132 22 -136 ct 23 -140 24 -143 27 -145 ct 
29 -148 33 -150 37 -152 ct 41 -153 46 -154 53 -154 ct 56 -154 59 -154 62 -153 ct 
66 -153 68 -153 71 -152 ct 71 -134 l  70 -134 68 -134 67 -134 ct 65 -135 64 -135 63 -135 ct 
60 -135 58 -134 56 -134 ct 54 -133 53 -132 52 -131 ct 51 -130 50 -129 50 -127 ct 
49 -126 49 -124 49 -121 ct 49 -113 l  71 -113 l  71 -93 l  49 -93 l  p ef
193 -56 m  193 -48 192 -40 190 -33 ct 187 -26 184 -19 179 -14 ct 174 -9 168 -5 161 -2 ct 
154 1 146 2 136 2 ct 127 2 119 1 112 -2 ct 105 -5 99 -9 95 -14 ct 90 -19 86 -25 84 -32 ct 
81 -40 80 -47 80 -56 ct 80 -64 81 -72 84 -79 ct 86 -86 90 -92 94 -98 ct 99 -103 105 -107 112 -110 ct 
119 -113 127 -114 137 -114 ct 147 -114 156 -113 163 -110 ct 170 -107 176 -103 180 -98 ct 
185 -92 188 -86 190 -79 ct 192 -72 193 -65 193 -56 ct p
163 -56 m  163 -69 161 -79 156 -85 ct 152 -91 146 -94 137 -94 ct 129 -94 122 -91 118 -85 ct 
113 -79 111 -69 111 -56 ct 111 -49 111 -44 113 -39 ct 114 -34 116 -30 118 -27 ct 
120 -24 123 -22 126 -20 ct 129 -19 132 -18 136 -18 ct 140 -18 144 -19 147 -20 ct 
151 -22 154 -24 156 -27 ct 158 -30 160 -34 161 -39 ct 162 -44 163 -49 163 -56 ct 
p ef
290 0 m  290 -63 l  290 -67 290 -71 289 -75 ct 289 -78 288 -81 286 -84 ct 284 -87 282 -89 280 -90 ct 
277 -91 274 -92 270 -92 ct 267 -92 264 -91 261 -90 ct 258 -88 255 -86 253 -83 ct 
251 -80 250 -77 249 -73 ct 247 -69 247 -65 247 -60 ct 247 0 l  218 0 l  218 -87 l 
218 -89 218 -92 218 -94 ct 218 -97 218 -99 218 -102 ct 217 -104 217 -106 217 -108 ct 
217 -110 217 -111 217 -112 ct 245 -112 l  245 -111 245 -110 245 -108 ct 245 -106 245 -104 246 -102 ct 
246 -100 246 -97 246 -95 ct 246 -93 246 -91 246 -90 ct 246 -90 l  250 -98 255 -104 261 -108 ct 
267 -112 274 -114 283 -114 ct 289 -114 295 -113 300 -111 ct 304 -108 308 -105 311 -102 ct 
314 -98 316 -93 317 -88 ct 319 -83 319 -77 319 -71 ct 319 0 l  290 0 l  p ef
395 2 m  387 2 379 1 372 -2 ct 365 -5 360 -9 356 -14 ct 351 -19 348 -25 346 -32 ct 
343 -39 342 -47 342 -55 ct 342 -65 343 -73 346 -80 ct 348 -88 352 -94 356 -99 ct 
361 -104 367 -107 373 -110 ct 380 -113 387 -114 396 -114 ct 403 -114 410 -113 415 -111 ct 
421 -109 426 -106 430 -103 ct 434 -100 437 -96 440 -91 ct 442 -86 444 -81 445 -76 ct 
416 -76 l  415 -81 413 -86 409 -89 ct 406 -92 401 -94 395 -94 ct 387 -94 382 -91 378 -84 ct 
375 -78 373 -69 373 -57 ct 373 -31 380 -18 396 -18 ct 401 -18 406 -20 410 -23 ct 
413 -26 416 -31 417 -38 ct 446 -38 l  445 -33 443 -28 441 -23 ct 439 -18 435 -14 431 -10 ct 
427 -6 422 -4 416 -1 ct 410 1 403 2 395 2 ct p ef
496 2 m  488 2 481 0 477 -5 ct 472 -10 470 -17 470 -26 ct 470 -92 l  456 -92 l 
456 -112 l  471 -112 l  480 -138 l  499 -138 l  499 -112 l  520 -112 l 
520 -92 l  499 -92 l  499 -34 l  499 -29 500 -24 502 -22 ct 504 -19 507 -18 511 -18 ct 
513 -18 515 -18 516 -18 ct 518 -19 519 -19 521 -19 ct 521 -2 l  517 0 514 1 510 1 ct 
506 2 501 2 496 2 ct p ef
540 -133 m  540 -154 l  569 -154 l  569 -133 l  540 -133 l  p
540 0 m  540 -112 l  569 -112 l  569 0 l  540 0 l  p ef
705 -56 m  705 -48 704 -40 702 -33 ct 699 -26 696 -19 691 -14 ct 686 -9 680 -5 673 -2 ct 
666 1 658 2 648 2 ct 639 2 631 1 624 -2 ct 617 -5 611 -9 607 -14 ct 602 -19 598 -25 596 -32 ct 
593 -40 592 -47 592 -56 ct 592 -64 593 -72 596 -79 ct 598 -86 602 -92 606 -98 ct 
611 -103 617 -107 624 -110 ct 631 -113 639 -114 649 -114 ct 659 -114 668 -113 675 -110 ct 
682 -107 688 -103 692 -98 ct 697 -92 700 -86 702 -79 ct 704 -72 705 -65 705 -56 ct 
p
675 -56 m  675 -69 673 -79 668 -85 ct 664 -91 658 -94 649 -94 ct 641 -94 634 -91 630 -85 ct 
625 -79 623 -69 623 -56 ct 623 -49 623 -44 625 -39 ct 626 -34 628 -30 630 -27 ct 
632 -24 635 -22 638 -20 ct 641 -19 644 -18 648 -18 ct 652 -18 656 -19 659 -20 ct 
663 -22 666 -24 668 -27 ct 670 -30 672 -34 673 -39 ct 674 -44 675 -49 675 -56 ct 
p ef
802 0 m  802 -63 l  802 -67 802 -71 801 -75 ct 801 -78 800 -81 798 -84 ct 796 -87 794 -89 792 -90 ct 
789 -91 786 -92 782 -92 ct 779 -92 776 -91 773 -90 ct 770 -88 767 -86 765 -83 ct 
763 -80 762 -77 761 -73 ct 759 -69 759 -65 759 -60 ct 759 0 l  730 0 l  730 -87 l 
730 -89 730 -92 730 -94 ct 730 -97 730 -99 730 -102 ct 729 -104 729 -106 729 -108 ct 
729 -110 729 -111 729 -112 ct 757 -112 l  757 -111 757 -110 757 -108 ct 757 -106 757 -104 758 -102 ct 
758 -100 758 -97 758 -95 ct 758 -93 758 -91 758 -90 ct 758 -90 l  762 -98 767 -104 773 -108 ct 
779 -112 786 -114 795 -114 ct 801 -114 807 -113 812 -111 ct 816 -108 820 -105 823 -102 ct 
826 -98 828 -93 829 -88 ct 831 -83 831 -77 831 -71 ct 831 0 l  802 0 l  p ef
956 -33 m  956 -27 955 -23 953 -18 ct 951 -14 947 -10 943 -7 ct 939 -4 934 -2 927 0 ct 
921 1 914 2 906 2 ct 899 2 893 1 887 0 ct 881 -1 876 -2 872 -5 ct 867 -7 864 -10 861 -14 ct 
858 -18 856 -22 854 -28 ct 880 -32 l  881 -29 882 -26 883 -24 ct 885 -22 887 -21 889 -20 ct 
891 -19 893 -18 896 -18 ct 899 -17 902 -17 906 -17 ct 909 -17 913 -17 915 -18 ct 
918 -18 921 -19 923 -20 ct 925 -21 927 -22 928 -24 ct 929 -25 930 -28 930 -30 ct 
930 -33 929 -35 927 -37 ct 925 -39 923 -40 920 -41 ct 917 -42 914 -43 910 -44 ct 
906 -45 901 -46 897 -47 ct 892 -48 888 -49 883 -50 ct 879 -52 875 -54 871 -56 ct 
867 -59 864 -62 862 -66 ct 860 -69 859 -74 859 -80 ct 859 -85 860 -90 862 -94 ct 
864 -99 867 -102 871 -105 ct 875 -108 880 -110 886 -112 ct 892 -113 899 -114 906 -114 ct 
912 -114 918 -113 923 -112 ct 929 -111 933 -109 937 -107 ct 942 -104 945 -101 948 -98 ct 
951 -94 953 -89 954 -84 ct 928 -81 l  927 -84 927 -86 925 -88 ct 924 -90 922 -91 921 -92 ct 
919 -93 917 -94 914 -94 ct 912 -94 909 -95 906 -95 ct 899 -95 894 -94 891 -92 ct 
887 -90 886 -87 886 -83 ct 886 -81 886 -79 888 -77 ct 889 -76 891 -74 894 -73 ct 
896 -72 899 -71 903 -71 ct 907 -70 910 -69 915 -68 ct 920 -67 925 -66 930 -64 ct 
935 -63 939 -61 943 -58 ct 947 -56 950 -52 953 -48 ct 955 -44 956 -39 956 -33 ct 
p ef
979 0 m  979 -32 l  1009 -32 l  1009 0 l  979 0 l  p ef
1145 -56 m  1145 -48 1144 -40 1142 -33 ct 1139 -26 1136 -19 1131 -14 ct 1126 -9 1120 -5 1113 -2 ct 
1106 1 1098 2 1088 2 ct 1079 2 1071 1 1064 -2 ct 1057 -5 1051 -9 1047 -14 ct 1042 -19 1038 -25 1036 -32 ct 
1033 -40 1032 -47 1032 -56 ct 1032 -64 1033 -72 1036 -79 ct 1038 -86 1042 -92 1046 -98 ct 
1051 -103 1057 -107 1064 -110 ct 1071 -113 1079 -114 1089 -114 ct 1099 -114 1108 -113 1115 -110 ct 
1122 -107 1128 -103 1132 -98 ct 1137 -92 1140 -86 1142 -79 ct 1144 -72 1145 -65 1145 -56 ct 
p
1115 -56 m  1115 -69 1113 -79 1108 -85 ct 1104 -91 1098 -94 1089 -94 ct 1081 -94 1074 -91 1070 -85 ct 
1065 -79 1063 -69 1063 -56 ct 1063 -49 1063 -44 1065 -39 ct 1066 -34 1068 -30 1070 -27 ct 
1072 -24 1075 -22 1078 -20 ct 1081 -19 1084 -18 1088 -18 ct 1092 -18 1096 -19 1099 -20 ct 
1103 -22 1106 -24 1108 -27 ct 1110 -30 1112 -34 1113 -39 ct 1114 -44 1115 -49 1115 -56 ct 
p ef
pom
0.273 0.511 0.683 c 5769 6014 m  6279 6819 l  5769 7625 l  5260 6819 l 
5769 6014 l  5769 6014 l  p
5260 6014 m  5260 6014 l  p
6279 7625 m  6279 7625 l  p ef
0.003 0.003 0.003 c 5769 6014 m  6279 6819 l  5769 7625 l  5260 6819 l  5769 6014 l 
5769 6014 l  pc
5260 6014 m  5260 6014 l  pc
6279 7625 m  6279 7625 l  pc
pum
5426 6891 t
0.230 0.226 0.210 c 81 0 m  81 -63 l  81 -67 80 -71 80 -75 ct 79 -78 78 -81 77 -84 ct 
76 -87 74 -89 72 -90 ct 70 -91 67 -92 64 -92 ct 61 -92 58 -91 56 -90 ct 53 -88 51 -86 49 -83 ct 
48 -80 46 -77 45 -73 ct 44 -69 44 -65 44 -60 ct 44 0 l  15 0 l  15 -87 l  15 -89 15 -92 15 -94 ct 
15 -97 15 -99 15 -102 ct 14 -104 14 -106 14 -108 ct 14 -110 14 -111 14 -112 ct 
42 -112 l  42 -111 42 -110 42 -108 ct 42 -106 42 -104 43 -102 ct 43 -100 43 -97 43 -95 ct 
43 -93 43 -91 43 -90 ct 43 -90 l  47 -98 52 -104 57 -108 ct 62 -112 69 -114 76 -114 ct 
85 -114 92 -112 97 -108 ct 102 -104 105 -98 107 -90 ct 108 -90 l  110 -94 112 -98 114 -101 ct 
117 -104 119 -107 122 -109 ct 125 -111 128 -112 131 -113 ct 134 -114 138 -114 142 -114 ct 
148 -114 153 -113 157 -111 ct 162 -108 165 -105 168 -102 ct 170 -98 172 -93 174 -88 ct 
175 -83 175 -77 175 -71 ct 175 0 l  146 0 l  146 -63 l  146 -67 146 -71 146 -75 ct 
145 -78 144 -81 143 -84 ct 141 -87 140 -89 137 -90 ct 135 -91 133 -92 130 -92 ct 
127 -92 124 -91 122 -90 ct 119 -88 117 -86 115 -84 ct 114 -81 112 -78 111 -74 ct 
110 -70 110 -66 110 -61 ct 110 0 l  81 0 l  p ef
227 2 m  221 2 216 1 212 0 ct 208 -2 204 -4 201 -7 ct 198 -10 196 -13 195 -17 ct 
193 -22 192 -27 192 -32 ct 192 -39 193 -44 196 -49 ct 198 -53 201 -57 205 -60 ct 
209 -63 214 -65 219 -66 ct 225 -67 230 -68 236 -68 ct 261 -68 l  261 -74 l  261 -78 260 -81 259 -84 ct 
259 -86 258 -89 256 -90 ct 255 -92 253 -93 251 -94 ct 249 -95 247 -95 244 -95 ct 
242 -95 240 -95 238 -94 ct 236 -94 234 -93 233 -92 ct 231 -91 230 -89 229 -88 ct 
229 -86 228 -83 228 -80 ct 197 -80 l  198 -85 200 -90 202 -94 ct 204 -98 207 -102 211 -105 ct 
215 -108 220 -110 225 -112 ct 231 -113 238 -114 245 -114 ct 252 -114 259 -113 264 -111 ct 
270 -110 274 -107 278 -104 ct 282 -100 285 -96 287 -91 ct 289 -86 290 -80 290 -74 ct 
290 -33 l  290 -31 290 -28 290 -26 ct 290 -24 291 -22 291 -21 ct 292 -19 293 -18 294 -18 ct 
295 -17 297 -17 299 -17 ct 301 -17 303 -17 305 -17 ct 305 -2 l  304 -1 302 -1 301 0 ct 
299 0 298 0 296 0 ct 295 1 294 1 292 1 ct 291 1 289 1 287 1 ct 279 1 274 -1 270 -4 ct 
267 -8 265 -13 264 -20 ct 264 -20 l  260 -13 255 -8 249 -4 ct 243 0 235 2 227 2 ct 
p
261 -52 m  246 -52 l  243 -52 240 -52 237 -51 ct 234 -51 232 -50 229 -49 ct 
227 -48 226 -46 224 -44 ct 223 -41 223 -38 223 -34 ct 223 -29 224 -25 226 -22 ct 
229 -20 232 -18 236 -18 ct 240 -18 243 -19 246 -21 ct 249 -22 252 -24 254 -27 ct 
256 -30 258 -33 259 -36 ct 260 -39 261 -43 261 -46 ct 261 -52 l  p ef
320 -133 m  320 -154 l  349 -154 l  349 -133 l  320 -133 l  p
320 0 m  320 -112 l  349 -112 l  349 0 l  320 0 l  p ef
451 0 m  451 -63 l  451 -67 451 -71 450 -75 ct 450 -78 449 -81 447 -84 ct 445 -87 443 -89 441 -90 ct 
438 -91 435 -92 431 -92 ct 428 -92 425 -91 422 -90 ct 419 -88 416 -86 414 -83 ct 
412 -80 411 -77 410 -73 ct 408 -69 408 -65 408 -60 ct 408 0 l  379 0 l  379 -87 l 
379 -89 379 -92 379 -94 ct 379 -97 379 -99 379 -102 ct 378 -104 378 -106 378 -108 ct 
378 -110 378 -111 378 -112 ct 406 -112 l  406 -111 406 -110 406 -108 ct 406 -106 406 -104 407 -102 ct 
407 -100 407 -97 407 -95 ct 407 -93 407 -91 407 -90 ct 407 -90 l  411 -98 416 -104 422 -108 ct 
428 -112 435 -114 444 -114 ct 450 -114 456 -113 461 -111 ct 465 -108 469 -105 472 -102 ct 
475 -98 477 -93 478 -88 ct 480 -83 480 -77 480 -71 ct 480 0 l  451 0 l  p ef
509 0 m  509 -32 l  539 -32 l  539 0 l  509 0 l  p ef
676 -56 m  676 -48 675 -40 673 -33 ct 670 -26 667 -19 662 -14 ct 657 -9 651 -5 644 -2 ct 
637 1 629 2 619 2 ct 610 2 602 1 595 -2 ct 588 -5 582 -9 578 -14 ct 573 -19 569 -25 567 -32 ct 
564 -40 563 -47 563 -56 ct 563 -64 564 -72 567 -79 ct 569 -86 573 -92 577 -98 ct 
582 -103 588 -107 595 -110 ct 602 -113 610 -114 620 -114 ct 630 -114 639 -113 646 -110 ct 
653 -107 659 -103 663 -98 ct 668 -92 671 -86 673 -79 ct 675 -72 676 -65 676 -56 ct 
p
646 -56 m  646 -69 644 -79 639 -85 ct 635 -91 629 -94 620 -94 ct 612 -94 605 -91 601 -85 ct 
596 -79 594 -69 594 -56 ct 594 -49 594 -44 596 -39 ct 597 -34 599 -30 601 -27 ct 
603 -24 606 -22 609 -20 ct 612 -19 615 -18 619 -18 ct 623 -18 627 -19 630 -20 ct 
634 -22 637 -24 639 -27 ct 641 -30 643 -34 644 -39 ct 645 -44 646 -49 646 -56 ct 
p ef
pom
1 lw 0 lj 0.003 0.003 0.003 c 5769 5292 m  5769 5654 l  ps
5769 6014 m  5919 5564 l  5619 5564 l  5769 6014 l  p ef
10936 3280 m  10936 5654 l  ps
10936 6014 m  11086 5564 l  10786 5564 l  10936 6014 l  p ef

pum
5593 2714 t
0.230 0.226 0.210 c 26 0 m  26 -194 l  52 -194 l  52 0 l  26 0 l  p ef
194 0 m  194 -95 l  194 -102 193 -108 192 -113 ct 191 -118 189 -122 187 -125 ct 
184 -128 181 -130 177 -131 ct 174 -132 169 -133 163 -133 ct 157 -133 152 -132 147 -130 ct 
142 -128 138 -125 135 -121 ct 132 -117 129 -112 127 -106 ct 125 -101 124 -94 124 -86 ct 
124 0 l  100 0 l  100 -117 l  100 -121 100 -124 99 -127 ct 99 -131 99 -134 99 -137 ct 
99 -140 99 -143 99 -145 ct 99 -147 99 -149 99 -149 ct 122 -149 l  122 -149 122 -148 122 -146 ct 
123 -144 123 -141 123 -139 ct 123 -136 123 -133 123 -131 ct 123 -128 123 -126 123 -124 ct 
124 -124 l  126 -128 129 -132 132 -135 ct 134 -139 138 -142 141 -144 ct 145 -147 150 -149 154 -150 ct 
159 -151 165 -152 171 -152 ct 180 -152 187 -151 193 -149 ct 199 -147 204 -144 207 -140 ct 
211 -135 214 -130 216 -123 ct 218 -117 219 -109 219 -99 ct 219 0 l  194 0 l 
p ef
275 -75 m  275 -67 275 -59 277 -52 ct 278 -44 280 -38 283 -33 ct 286 -28 290 -24 295 -21 ct 
299 -18 305 -17 312 -17 ct 321 -17 329 -19 335 -24 ct 340 -28 344 -35 346 -45 ct 
371 -45 l  370 -39 368 -33 365 -27 ct 362 -21 359 -16 354 -12 ct 349 -7 343 -4 337 -1 ct 
330 2 322 3 313 3 ct 301 3 292 1 283 -3 ct 275 -7 269 -12 264 -19 ct 258 -26 255 -34 252 -44 ct 
250 -53 249 -64 249 -75 ct 249 -85 250 -94 251 -101 ct 253 -109 255 -116 258 -121 ct 
261 -127 265 -132 269 -136 ct 273 -140 277 -143 282 -145 ct 287 -148 292 -149 297 -150 ct 
302 -151 308 -152 313 -152 ct 321 -152 329 -151 335 -149 ct 342 -146 347 -143 352 -139 ct 
357 -135 361 -130 364 -125 ct 366 -120 369 -114 370 -107 ct 344 -105 l  343 -114 340 -120 334 -125 ct 
329 -130 322 -133 312 -133 ct 305 -133 299 -131 294 -129 ct 290 -127 286 -123 283 -118 ct 
280 -114 278 -108 277 -100 ct 275 -93 275 -85 275 -75 ct p ef
400 0 m  400 -205 l  425 -205 l  425 0 l  400 0 l  p ef
488 -149 m  488 -54 l  488 -47 489 -41 490 -36 ct 491 -31 493 -27 495 -24 ct 
497 -21 501 -19 504 -18 ct 508 -17 513 -16 519 -16 ct 525 -16 530 -17 535 -19 ct 
540 -21 544 -24 547 -28 ct 550 -32 553 -37 555 -43 ct 557 -48 558 -55 558 -63 ct 
558 -149 l  582 -149 l  582 -32 l  582 -28 582 -25 582 -22 ct 582 -18 582 -15 583 -12 ct 
583 -9 583 -6 583 -4 ct 583 -2 583 0 583 0 ct 560 0 l  560 0 560 -1 559 -3 ct 559 -6 559 -8 559 -10 ct 
559 -13 559 -16 559 -18 ct 559 -21 559 -23 559 -25 ct 558 -25 l  556 -21 553 -17 550 -14 ct 
547 -10 544 -7 540 -5 ct 537 -2 532 0 527 1 ct 523 2 517 3 511 3 ct 502 3 495 2 489 0 ct 
483 -2 478 -5 474 -9 ct 471 -14 468 -19 466 -26 ct 464 -32 463 -40 463 -50 ct 463 -149 l 
488 -149 l  p ef
732 -41 m  732 -34 730 -28 728 -22 ct 725 -17 721 -12 716 -8 ct 711 -5 705 -2 697 0 ct 
690 2 681 3 671 3 ct 663 3 655 2 648 1 ct 641 0 635 -2 630 -5 ct 625 -8 620 -12 617 -17 ct 
613 -22 611 -28 609 -35 ct 631 -39 l  633 -31 637 -25 644 -21 ct 650 -18 660 -16 671 -16 ct 
677 -16 682 -16 686 -17 ct 690 -18 694 -19 698 -21 ct 701 -23 703 -25 705 -28 ct 
707 -31 708 -35 708 -39 ct 708 -44 707 -47 705 -50 ct 702 -53 700 -55 696 -57 ct 
692 -59 687 -61 682 -62 ct 677 -64 671 -65 664 -67 ct 658 -69 652 -70 647 -72 ct 
641 -74 635 -77 631 -80 ct 626 -83 622 -87 619 -92 ct 616 -96 615 -102 615 -109 ct 
615 -123 620 -133 629 -140 ct 639 -147 653 -151 672 -151 ct 688 -151 701 -148 711 -142 ct 
721 -137 727 -127 729 -115 ct 707 -112 l  706 -116 705 -119 702 -121 ct 700 -124 697 -126 694 -128 ct 
691 -129 688 -131 684 -131 ct 680 -132 676 -132 672 -132 ct 660 -132 652 -131 647 -127 ct 
642 -124 639 -119 639 -112 ct 639 -108 640 -104 642 -102 ct 644 -99 647 -97 650 -95 ct 
654 -93 658 -92 663 -90 ct 668 -89 673 -88 679 -86 ct 683 -85 687 -84 691 -83 ct 
695 -82 699 -81 703 -79 ct 707 -77 711 -75 714 -73 ct 718 -71 721 -69 723 -66 ct 
726 -62 728 -59 730 -55 ct 731 -51 732 -46 732 -41 ct p ef
764 -181 m  764 -205 l  789 -205 l  789 -181 l  764 -181 l  p
764 0 m  764 -149 l  789 -149 l  789 0 l  764 0 l  p ef
954 -75 m  954 -49 948 -29 937 -16 ct 925 -3 909 3 887 3 ct 876 3 867 1 859 -2 ct 
851 -5 844 -10 838 -16 ct 833 -23 828 -31 825 -40 ct 822 -50 821 -61 821 -75 ct 
821 -126 843 -152 888 -152 ct 899 -152 909 -150 918 -147 ct 926 -144 933 -139 938 -133 ct 
944 -126 948 -118 950 -108 ct 953 -99 954 -88 954 -75 ct p
928 -75 m  928 -86 927 -96 925 -103 ct 923 -111 921 -117 917 -122 ct 914 -126 910 -129 905 -131 ct 
900 -133 894 -134 888 -134 ct 882 -134 876 -133 871 -131 ct 866 -129 861 -126 858 -121 ct 
854 -117 852 -111 850 -103 ct 848 -95 847 -86 847 -75 ct 847 -63 848 -53 850 -46 ct 
852 -38 855 -32 858 -28 ct 862 -23 866 -20 871 -18 ct 876 -16 881 -15 887 -15 ct 
893 -15 899 -16 904 -18 ct 909 -20 913 -23 917 -28 ct 920 -32 923 -38 925 -46 ct 
927 -53 928 -63 928 -75 ct p ef
1079 0 m  1079 -95 l  1079 -102 1078 -108 1077 -113 ct 1076 -118 1074 -122 1072 -125 ct 
1069 -128 1066 -130 1062 -131 ct 1059 -132 1054 -133 1048 -133 ct 1042 -133 1037 -132 1032 -130 ct 
1027 -128 1023 -125 1020 -121 ct 1017 -117 1014 -112 1012 -106 ct 1010 -101 1009 -94 1009 -86 ct 
1009 0 l  985 0 l  985 -117 l  985 -121 985 -124 984 -127 ct 984 -131 984 -134 984 -137 ct 
984 -140 984 -143 984 -145 ct 984 -147 984 -149 984 -149 ct 1007 -149 l  1007 -149 1007 -148 1007 -146 ct 
1008 -144 1008 -141 1008 -139 ct 1008 -136 1008 -133 1008 -131 ct 1008 -128 1008 -126 1008 -124 ct 
1009 -124 l  1011 -128 1014 -132 1017 -135 ct 1019 -139 1023 -142 1026 -144 ct 
1030 -147 1035 -149 1039 -150 ct 1044 -151 1050 -152 1056 -152 ct 1065 -152 1072 -151 1078 -149 ct 
1084 -147 1089 -144 1092 -140 ct 1096 -135 1099 -130 1101 -123 ct 1103 -117 1104 -109 1104 -99 ct 
1104 0 l  1079 0 l  p ef
pom

pum
10166 4577 t
109 -175 m  98 -175 88 -174 80 -170 ct 71 -166 64 -161 58 -154 ct 53 -147 48 -139 45 -130 ct 
43 -120 41 -110 41 -98 ct 41 -86 43 -75 46 -66 ct 49 -56 53 -48 59 -41 ct 65 -34 73 -28 81 -24 ct 
90 -21 99 -19 110 -19 ct 118 -19 125 -20 131 -22 ct 137 -24 143 -26 148 -30 ct 
153 -34 157 -38 161 -43 ct 165 -48 168 -53 171 -59 ct 193 -48 l  189 -41 185 -34 180 -28 ct 
175 -22 169 -16 162 -12 ct 155 -7 147 -4 138 -1 ct 130 2 120 3 109 3 ct 93 3 79 0 68 -5 ct 
56 -10 46 -17 38 -25 ct 30 -34 24 -45 20 -57 ct 16 -70 14 -83 14 -98 ct 14 -113 16 -127 21 -139 ct 
25 -151 31 -162 39 -170 ct 47 -179 57 -185 69 -190 ct 80 -195 94 -197 109 -197 ct 
129 -197 147 -193 161 -185 ct 174 -177 185 -165 191 -149 ct 166 -141 l  164 -145 162 -150 159 -154 ct 
156 -158 152 -162 147 -165 ct 142 -168 137 -171 131 -173 ct 124 -175 117 -175 109 -175 ct 
p ef
348 -75 m  348 -49 342 -29 331 -16 ct 319 -3 303 3 281 3 ct 270 3 261 1 253 -2 ct 
245 -5 238 -10 232 -16 ct 227 -23 222 -31 219 -40 ct 216 -50 215 -61 215 -75 ct 
215 -126 237 -152 282 -152 ct 293 -152 303 -150 312 -147 ct 320 -144 327 -139 332 -133 ct 
338 -126 342 -118 344 -108 ct 347 -99 348 -88 348 -75 ct p
322 -75 m  322 -86 321 -96 319 -103 ct 317 -111 315 -117 311 -122 ct 308 -126 304 -129 299 -131 ct 
294 -133 288 -134 282 -134 ct 276 -134 270 -133 265 -131 ct 260 -129 255 -126 252 -121 ct 
248 -117 246 -111 244 -103 ct 242 -95 241 -86 241 -75 ct 241 -63 242 -53 244 -46 ct 
246 -38 249 -32 252 -28 ct 256 -23 260 -20 265 -18 ct 270 -16 275 -15 281 -15 ct 
287 -15 293 -16 298 -18 ct 303 -20 307 -23 311 -28 ct 314 -32 317 -38 319 -46 ct 
321 -53 322 -63 322 -75 ct p ef
466 0 m  466 -95 l  466 -102 465 -108 464 -113 ct 463 -118 462 -122 460 -125 ct 
458 -128 455 -130 451 -131 ct 448 -132 444 -133 438 -133 ct 433 -133 429 -132 424 -130 ct 
420 -128 416 -125 413 -121 ct 411 -117 408 -112 407 -106 ct 405 -101 404 -94 404 -86 ct 
404 0 l  380 0 l  380 -117 l  380 -121 380 -124 379 -127 ct 379 -131 379 -134 379 -137 ct 
379 -140 379 -143 379 -145 ct 379 -147 379 -149 379 -149 ct 402 -149 l  402 -149 402 -148 402 -146 ct 
403 -144 403 -141 403 -139 ct 403 -136 403 -133 403 -131 ct 403 -128 403 -126 403 -124 ct 
404 -124 l  406 -128 408 -132 411 -135 ct 413 -139 416 -142 420 -144 ct 423 -147 427 -149 432 -150 ct 
436 -151 441 -152 447 -152 ct 458 -152 467 -150 474 -145 ct 481 -141 485 -134 488 -124 ct 
488 -124 l  490 -128 493 -132 495 -135 ct 498 -139 501 -142 505 -144 ct 509 -147 513 -149 518 -150 ct 
522 -151 527 -152 533 -152 ct 541 -152 547 -151 553 -149 ct 558 -147 563 -144 566 -140 ct 
570 -135 572 -130 574 -123 ct 575 -117 576 -109 576 -99 ct 576 0 l  552 0 l 
552 -95 l  552 -102 551 -108 550 -113 ct 550 -118 548 -122 546 -125 ct 544 -128 541 -130 537 -131 ct 
534 -132 530 -133 525 -133 ct 519 -133 515 -132 510 -130 ct 506 -128 503 -125 500 -121 ct 
497 -117 494 -112 493 -107 ct 491 -101 490 -94 490 -86 ct 490 0 l  466 0 l  p ef
742 -75 m  742 -64 741 -53 739 -44 ct 737 -34 734 -26 730 -19 ct 726 -12 720 -7 713 -3 ct 
706 1 697 3 687 3 ct 677 3 667 1 659 -3 ct 651 -7 645 -14 641 -23 ct 640 -23 l 
640 -23 640 -22 640 -20 ct 640 -19 641 -17 641 -15 ct 641 -13 641 -10 641 -8 ct 
641 -5 641 -2 641 1 ct 641 59 l  616 59 l  616 -118 l  616 -122 616 -125 616 -129 ct 
616 -132 616 -135 616 -138 ct 616 -140 616 -143 615 -145 ct 615 -147 615 -148 615 -149 ct 
639 -149 l  639 -149 639 -148 639 -146 ct 640 -144 640 -142 640 -140 ct 640 -138 640 -135 640 -132 ct 
640 -130 641 -127 641 -125 ct 641 -125 l  643 -129 646 -133 649 -137 ct 652 -140 655 -143 659 -145 ct 
663 -147 667 -149 672 -150 ct 676 -151 681 -151 687 -151 ct 697 -151 706 -149 713 -146 ct 
720 -142 726 -137 730 -130 ct 734 -124 737 -116 739 -106 ct 741 -97 742 -86 742 -75 ct 
p
716 -74 m  716 -83 715 -92 714 -99 ct 713 -106 711 -112 709 -117 ct 706 -122 702 -126 698 -128 ct 
693 -131 688 -132 681 -132 ct 675 -132 670 -131 665 -130 ct 660 -128 656 -125 653 -121 ct 
649 -116 646 -110 644 -103 ct 642 -95 641 -85 641 -72 ct 641 -62 642 -53 643 -46 ct 
645 -38 648 -32 651 -28 ct 654 -24 659 -20 664 -18 ct 668 -16 674 -15 681 -15 ct 
687 -15 693 -17 698 -19 ct 702 -22 706 -26 709 -31 ct 711 -36 713 -42 714 -49 ct 
715 -57 716 -65 716 -74 ct p ef
773 -181 m  773 -205 l  798 -205 l  798 -181 l  773 -181 l  p
773 0 m  773 -149 l  798 -149 l  798 0 l  773 0 l  p ef
836 0 m  836 -205 l  861 -205 l  861 0 l  836 0 l  p ef
938 3 m  923 3 912 -1 904 -9 ct 897 -17 893 -28 893 -42 ct 893 -52 895 -60 899 -66 ct 
902 -72 907 -77 913 -81 ct 919 -84 926 -87 934 -88 ct 941 -90 949 -90 957 -90 ct 
991 -90 l  991 -99 l  991 -105 990 -110 989 -115 ct 988 -119 986 -122 983 -125 ct 
980 -128 977 -130 973 -131 ct 969 -132 964 -133 959 -133 ct 954 -133 950 -133 946 -132 ct 
942 -131 939 -130 936 -128 ct 933 -126 931 -124 929 -121 ct 927 -118 926 -114 925 -109 ct 
900 -112 l  901 -117 902 -123 905 -128 ct 907 -133 911 -137 916 -141 ct 921 -144 926 -147 934 -149 ct 
941 -151 949 -152 959 -152 ct 978 -152 992 -148 1002 -139 ct 1011 -130 1016 -118 1016 -102 ct 
1016 -37 l  1016 -30 1017 -24 1019 -21 ct 1021 -17 1024 -15 1030 -15 ct 1031 -15 1032 -15 1034 -15 ct 
1035 -15 1037 -16 1038 -16 ct 1038 -1 l  1035 0 1032 1 1029 1 ct 1025 1 1022 2 1019 2 ct 
1014 2 1010 1 1007 0 ct 1003 -1 1001 -3 998 -6 ct 996 -8 995 -12 994 -15 ct 993 -19 992 -23 992 -28 ct 
991 -28 l  988 -24 985 -19 982 -15 ct 979 -11 975 -8 971 -5 ct 967 -3 962 -1 957 1 ct 
951 2 945 3 938 3 ct p
944 -16 m  952 -16 958 -17 964 -20 ct 970 -23 975 -26 979 -31 ct 983 -35 986 -40 988 -46 ct 
990 -51 991 -56 991 -61 ct 991 -73 l  964 -73 l  958 -73 952 -73 946 -72 ct 
941 -71 936 -69 932 -67 ct 928 -65 925 -62 922 -57 ct 920 -53 918 -48 918 -41 ct 
918 -33 921 -27 925 -22 ct 929 -18 936 -16 944 -16 ct p ef
1113 -1 m  1110 0 1106 0 1102 1 ct 1098 2 1093 2 1088 2 ct 1068 2 1058 -9 1058 -32 ct 
1058 -131 l  1041 -131 l  1041 -149 l  1059 -149 l  1067 -183 l  1083 -183 l 
1083 -149 l  1111 -149 l  1111 -131 l  1083 -131 l  1083 -37 l  1083 -30 1084 -25 1087 -22 ct 
1089 -19 1093 -18 1099 -18 ct 1101 -18 1104 -18 1106 -18 ct 1108 -19 1111 -19 1113 -20 ct 
1113 -1 l  p ef
1137 -181 m  1137 -205 l  1162 -205 l  1162 -181 l  1137 -181 l  p
1137 0 m  1137 -149 l  1162 -149 l  1162 0 l  1137 0 l  p ef
1326 -75 m  1326 -49 1320 -29 1309 -16 ct 1297 -3 1281 3 1259 3 ct 1248 3 1239 1 1231 -2 ct 
1223 -5 1216 -10 1210 -16 ct 1205 -23 1200 -31 1197 -40 ct 1194 -50 1193 -61 1193 -75 ct 
1193 -126 1215 -152 1260 -152 ct 1271 -152 1281 -150 1290 -147 ct 1298 -144 1305 -139 1310 -133 ct 
1316 -126 1320 -118 1322 -108 ct 1325 -99 1326 -88 1326 -75 ct p
1300 -75 m  1300 -86 1299 -96 1297 -103 ct 1295 -111 1293 -117 1289 -122 ct 
1286 -126 1282 -129 1277 -131 ct 1272 -133 1266 -134 1260 -134 ct 1254 -134 1248 -133 1243 -131 ct 
1238 -129 1233 -126 1230 -121 ct 1226 -117 1224 -111 1222 -103 ct 1220 -95 1219 -86 1219 -75 ct 
1219 -63 1220 -53 1222 -46 ct 1224 -38 1227 -32 1230 -28 ct 1234 -23 1238 -20 1243 -18 ct 
1248 -16 1253 -15 1259 -15 ct 1265 -15 1271 -16 1276 -18 ct 1281 -20 1285 -23 1289 -28 ct 
1292 -32 1295 -38 1297 -46 ct 1299 -53 1300 -63 1300 -75 ct p ef
1452 0 m  1452 -95 l  1452 -102 1451 -108 1450 -113 ct 1449 -118 1447 -122 1445 -125 ct 
1442 -128 1439 -130 1435 -131 ct 1432 -132 1427 -133 1421 -133 ct 1415 -133 1410 -132 1405 -130 ct 
1400 -128 1396 -125 1393 -121 ct 1390 -117 1387 -112 1385 -106 ct 1383 -101 1382 -94 1382 -86 ct 
1382 0 l  1358 0 l  1358 -117 l  1358 -121 1358 -124 1357 -127 ct 1357 -131 1357 -134 1357 -137 ct 
1357 -140 1357 -143 1357 -145 ct 1357 -147 1357 -149 1357 -149 ct 1380 -149 l 
1380 -149 1380 -148 1380 -146 ct 1381 -144 1381 -141 1381 -139 ct 1381 -136 1381 -133 1381 -131 ct 
1381 -128 1381 -126 1381 -124 ct 1382 -124 l  1384 -128 1387 -132 1390 -135 ct 
1392 -139 1396 -142 1399 -144 ct 1403 -147 1408 -149 1412 -150 ct 1417 -151 1423 -152 1429 -152 ct 
1438 -152 1445 -151 1451 -149 ct 1457 -147 1462 -144 1465 -140 ct 1469 -135 1472 -130 1474 -123 ct 
1476 -117 1477 -109 1477 -99 ct 1477 0 l  1452 0 l  p ef
pom
0.402 0.800 0.402 c 8475 8067 m  8826 8067 9095 8335 9095 8686 ct 9095 9037 8826 9306 8475 9306 ct 
8124 9306 7856 9037 7856 8686 ct 7856 8335 8124 8067 8475 8067 ct p
7856 8067 m  7856 8067 l  p
9097 9308 m  9097 9308 l  p ef
0 lw 1 lj 0.003 0.003 0.003 c 8475 8067 m  8826 8067 9095 8335 9095 8686 ct 9095 9037 8826 9306 8475 9306 ct 
8124 9306 7856 9037 7856 8686 ct 7856 8335 8124 8067 8475 8067 ct pc
7856 8067 m  7856 8067 l  pc
9097 9308 m  9097 9308 l  pc
pum
8143 8786 t
0.230 0.226 0.210 c 107 0 m  107 -84 l  107 -90 107 -95 106 -100 ct 105 -104 104 -109 102 -112 ct 
101 -115 98 -118 95 -120 ct 92 -122 89 -123 85 -123 ct 81 -123 77 -122 74 -120 ct 
71 -118 68 -115 66 -111 ct 63 -107 62 -103 60 -97 ct 59 -92 58 -86 58 -80 ct 58 0 l 
20 0 l  20 -116 l  20 -119 20 -122 20 -126 ct 20 -129 19 -132 19 -136 ct 19 -139 19 -141 19 -144 ct 
19 -146 19 -148 19 -149 ct 55 -149 l  56 -148 56 -146 56 -144 ct 56 -141 56 -139 57 -136 ct 
57 -133 57 -130 57 -127 ct 57 -124 57 -122 57 -120 ct 58 -120 l  63 -131 69 -139 76 -144 ct 
83 -150 91 -152 101 -152 ct 113 -152 122 -149 129 -144 ct 136 -138 140 -130 143 -120 ct 
143 -120 l  146 -126 149 -131 152 -135 ct 155 -139 159 -142 162 -145 ct 166 -148 170 -149 174 -150 ct 
179 -152 184 -152 189 -152 ct 197 -152 204 -151 209 -148 ct 215 -145 220 -141 223 -136 ct 
227 -130 229 -124 231 -117 ct 232 -110 233 -103 233 -95 ct 233 0 l  195 0 l 
195 -84 l  195 -90 194 -95 194 -100 ct 193 -104 192 -109 190 -112 ct 188 -115 186 -118 183 -120 ct 
180 -122 176 -123 172 -123 ct 168 -123 165 -122 162 -120 ct 159 -118 156 -115 153 -112 ct 
151 -108 149 -104 148 -99 ct 147 -94 146 -88 146 -82 ct 146 0 l  107 0 l  p ef
308 3 m  301 3 295 2 289 0 ct 283 -2 278 -5 275 -9 ct 271 -13 268 -17 265 -23 ct 
263 -29 262 -35 262 -42 ct 262 -51 264 -59 267 -65 ct 270 -71 274 -76 279 -79 ct 
285 -83 291 -86 298 -87 ct 305 -89 313 -90 321 -90 ct 353 -90 l  353 -98 l  353 -103 353 -108 352 -111 ct 
351 -115 349 -118 347 -120 ct 346 -123 343 -124 341 -125 ct 338 -126 335 -127 331 -127 ct 
328 -127 325 -127 323 -126 ct 320 -125 318 -124 316 -123 ct 314 -121 313 -119 312 -117 ct 
311 -114 310 -111 309 -107 ct 269 -107 l  270 -113 272 -119 275 -125 ct 278 -130 282 -135 287 -139 ct 
292 -143 299 -146 306 -149 ct 314 -151 323 -152 333 -152 ct 342 -152 351 -151 358 -149 ct 
365 -146 371 -143 376 -138 ct 381 -134 385 -128 388 -121 ct 391 -115 392 -107 392 -98 ct 
392 -44 l  392 -40 392 -37 392 -35 ct 393 -32 393 -29 394 -28 ct 395 -26 396 -24 398 -23 ct 
399 -22 402 -22 404 -22 ct 407 -22 410 -22 413 -23 ct 413 -2 l  410 -1 408 -1 406 0 ct 
405 0 403 1 401 1 ct 399 1 397 1 395 2 ct 393 2 391 2 388 2 ct 378 2 371 -1 366 -5 ct 
362 -10 359 -17 358 -26 ct 357 -26 l  352 -17 345 -10 337 -5 ct 329 0 320 3 308 3 ct 
p
353 -69 m  333 -69 l  329 -69 325 -69 322 -68 ct 318 -67 315 -66 312 -65 ct 
309 -63 307 -61 305 -58 ct 303 -55 303 -51 303 -45 ct 303 -38 304 -33 308 -29 ct 
311 -26 315 -24 321 -24 ct 325 -24 330 -25 334 -27 ct 338 -29 341 -32 344 -36 ct 
347 -39 349 -43 351 -47 ct 352 -52 353 -57 353 -61 ct 353 -69 l  p ef
431 -176 m  431 -205 l  469 -205 l  469 -176 l  431 -176 l  p
431 0 m  431 -149 l  469 -149 l  469 0 l  431 0 l  p ef
607 0 m  607 -84 l  607 -90 607 -95 606 -100 ct 605 -104 603 -109 601 -112 ct 
599 -115 596 -118 593 -120 ct 590 -122 586 -123 581 -123 ct 576 -123 572 -122 568 -120 ct 
564 -118 561 -115 558 -111 ct 555 -107 553 -103 552 -97 ct 550 -92 549 -86 549 -80 ct 
549 0 l  511 0 l  511 -116 l  511 -119 511 -122 511 -126 ct 511 -129 510 -132 510 -136 ct 
510 -139 510 -141 510 -144 ct 510 -146 510 -148 510 -149 ct 546 -149 l  547 -148 547 -146 547 -144 ct 
547 -141 547 -139 548 -136 ct 548 -133 548 -130 548 -127 ct 548 -124 548 -122 548 -120 ct 
549 -120 l  554 -131 561 -139 569 -144 ct 576 -150 586 -152 597 -152 ct 606 -152 613 -151 620 -148 ct 
626 -145 631 -141 635 -136 ct 639 -130 641 -124 643 -117 ct 645 -110 646 -103 646 -95 ct 
646 0 l  607 0 l  p ef
pom
1 lw 0 lj 0.003 0.003 0.003 c 5768 7624 m  7689 8152 l  ps
8036 8247 m  7642 7983 l  7562 8272 l  8036 8247 l  p ef
10936 7624 m  9259 8142 l  ps
8915 8248 m  9389 8259 l  9301 7972 l  8915 8248 l  p ef

pum
7450 7981 t
0.230 0.226 0.210 c 23 0 m  23 -195 l  170 -195 l  170 -173 l  49 -173 l 
49 -110 l  162 -110 l  162 -89 l  49 -89 l  49 -22 l  176 -22 l  176 0 l 
23 0 l  p
76 -211 m  76 -214 l  106 -245 l  134 -245 l  134 -241 l  92 -211 l  76 -211 l 
p ef
304 -25 m  299 -15 293 -8 286 -4 ct 278 0 269 2 258 2 ct 239 2 225 -4 216 -17 ct 
207 -29 203 -49 203 -74 ct 203 -126 221 -152 258 -152 ct 269 -152 278 -150 286 -146 ct 
293 -142 299 -135 304 -126 ct 304 -126 l  304 -127 304 -129 304 -131 ct 304 -133 304 -135 304 -137 ct 
304 -139 304 -141 304 -143 ct 304 -145 304 -146 304 -147 ct 304 -205 l  329 -205 l 
329 -31 l  329 -27 329 -24 329 -21 ct 329 -17 329 -14 329 -12 ct 329 -9 329 -6 329 -5 ct 
329 -3 330 -1 330 0 ct 306 0 l  306 -1 306 -3 305 -4 ct 305 -6 305 -8 305 -10 ct 
305 -12 305 -15 305 -17 ct 305 -20 305 -22 305 -25 ct 304 -25 l  p
229 -75 m  229 -65 230 -56 231 -49 ct 232 -41 234 -35 237 -31 ct 240 -26 243 -23 248 -20 ct 
252 -18 258 -17 264 -17 ct 271 -17 276 -18 281 -20 ct 286 -22 290 -26 294 -30 ct 
297 -35 300 -41 301 -49 ct 303 -57 304 -66 304 -77 ct 304 -87 303 -96 301 -104 ct 
300 -111 297 -117 294 -121 ct 290 -126 286 -129 281 -131 ct 276 -133 271 -134 264 -134 ct 
258 -134 253 -133 249 -131 ct 244 -129 240 -125 238 -121 ct 235 -116 232 -110 231 -102 ct 
230 -95 229 -86 229 -75 ct p ef
366 -181 m  366 -205 l  391 -205 l  391 -181 l  366 -181 l  p
366 0 m  366 -149 l  391 -149 l  391 0 l  366 0 l  p ef
487 -1 m  484 0 480 0 476 1 ct 472 2 467 2 462 2 ct 442 2 432 -9 432 -32 ct 432 -131 l 
415 -131 l  415 -149 l  433 -149 l  441 -183 l  457 -183 l  457 -149 l 
485 -149 l  485 -131 l  457 -131 l  457 -37 l  457 -30 458 -25 461 -22 ct 
463 -19 467 -18 473 -18 ct 475 -18 478 -18 480 -18 ct 482 -19 485 -19 487 -20 ct 
487 -1 l  p ef
510 -181 m  510 -205 l  535 -205 l  535 -181 l  510 -181 l  p
510 0 m  510 -149 l  535 -149 l  535 0 l  510 0 l  p ef
700 -75 m  700 -49 694 -29 683 -16 ct 671 -3 655 3 633 3 ct 622 3 613 1 605 -2 ct 
597 -5 590 -10 584 -16 ct 579 -23 574 -31 571 -40 ct 568 -50 567 -61 567 -75 ct 
567 -126 589 -152 634 -152 ct 645 -152 655 -150 664 -147 ct 672 -144 679 -139 684 -133 ct 
690 -126 694 -118 696 -108 ct 699 -99 700 -88 700 -75 ct p
674 -75 m  674 -86 673 -96 671 -103 ct 669 -111 667 -117 663 -122 ct 660 -126 656 -129 651 -131 ct 
646 -133 640 -134 634 -134 ct 628 -134 622 -133 617 -131 ct 612 -129 607 -126 604 -121 ct 
600 -117 598 -111 596 -103 ct 594 -95 593 -86 593 -75 ct 593 -63 594 -53 596 -46 ct 
598 -38 601 -32 604 -28 ct 608 -23 612 -20 617 -18 ct 622 -16 627 -15 633 -15 ct 
639 -15 645 -16 650 -18 ct 655 -20 659 -23 663 -28 ct 666 -32 669 -38 671 -46 ct 
673 -53 674 -63 674 -75 ct p ef
825 0 m  825 -95 l  825 -102 824 -108 823 -113 ct 822 -118 820 -122 818 -125 ct 
815 -128 812 -130 808 -131 ct 805 -132 800 -133 794 -133 ct 788 -133 783 -132 778 -130 ct 
773 -128 769 -125 766 -121 ct 763 -117 760 -112 758 -106 ct 756 -101 755 -94 755 -86 ct 
755 0 l  731 0 l  731 -117 l  731 -121 731 -124 730 -127 ct 730 -131 730 -134 730 -137 ct 
730 -140 730 -143 730 -145 ct 730 -147 730 -149 730 -149 ct 753 -149 l  753 -149 753 -148 753 -146 ct 
754 -144 754 -141 754 -139 ct 754 -136 754 -133 754 -131 ct 754 -128 754 -126 754 -124 ct 
755 -124 l  757 -128 760 -132 763 -135 ct 765 -139 769 -142 772 -144 ct 776 -147 781 -149 785 -150 ct 
790 -151 796 -152 802 -152 ct 811 -152 818 -151 824 -149 ct 830 -147 835 -144 838 -140 ct 
842 -135 845 -130 847 -123 ct 849 -117 850 -109 850 -99 ct 850 0 l  825 0 l 
p ef
1061 -25 m  1056 -15 1050 -8 1043 -4 ct 1035 0 1026 2 1015 2 ct 996 2 982 -4 973 -17 ct 
964 -29 960 -49 960 -74 ct 960 -126 978 -152 1015 -152 ct 1026 -152 1035 -150 1043 -146 ct 
1050 -142 1056 -135 1061 -126 ct 1061 -126 l  1061 -127 1061 -129 1061 -131 ct 
1061 -133 1061 -135 1061 -137 ct 1061 -139 1061 -141 1061 -143 ct 1061 -145 1061 -146 1061 -147 ct 
1061 -205 l  1086 -205 l  1086 -31 l  1086 -27 1086 -24 1086 -21 ct 1086 -17 1086 -14 1086 -12 ct 
1086 -9 1086 -6 1086 -5 ct 1086 -3 1087 -1 1087 0 ct 1063 0 l  1063 -1 1063 -3 1062 -4 ct 
1062 -6 1062 -8 1062 -10 ct 1062 -12 1062 -15 1062 -17 ct 1062 -20 1062 -22 1062 -25 ct 
1061 -25 l  p
986 -75 m  986 -65 987 -56 988 -49 ct 989 -41 991 -35 994 -31 ct 997 -26 1000 -23 1005 -20 ct 
1009 -18 1015 -17 1021 -17 ct 1028 -17 1033 -18 1038 -20 ct 1043 -22 1047 -26 1051 -30 ct 
1054 -35 1057 -41 1058 -49 ct 1060 -57 1061 -66 1061 -77 ct 1061 -87 1060 -96 1058 -104 ct 
1057 -111 1054 -117 1051 -121 ct 1047 -126 1043 -129 1038 -131 ct 1033 -133 1028 -134 1021 -134 ct 
1015 -134 1010 -133 1006 -131 ct 1001 -129 997 -125 995 -121 ct 992 -116 989 -110 988 -102 ct 
987 -95 986 -86 986 -75 ct p ef
1143 -69 m  1143 -61 1144 -54 1145 -47 ct 1147 -41 1150 -35 1153 -31 ct 1156 -26 1160 -22 1166 -20 ct 
1171 -17 1177 -16 1185 -16 ct 1195 -16 1204 -18 1210 -22 ct 1217 -26 1221 -32 1224 -38 ct 
1245 -32 l  1244 -28 1242 -24 1239 -20 ct 1236 -16 1232 -12 1228 -9 ct 1223 -5 1217 -2 1210 0 ct 
1203 2 1195 3 1185 3 ct 1163 3 1146 -4 1134 -17 ct 1123 -30 1117 -50 1117 -75 ct 
1117 -89 1119 -101 1122 -111 ct 1126 -121 1130 -129 1137 -135 ct 1143 -141 1150 -145 1158 -148 ct 
1166 -151 1174 -152 1184 -152 ct 1196 -152 1207 -150 1215 -146 ct 1223 -142 1230 -136 1235 -129 ct 
1240 -122 1244 -113 1246 -104 ct 1248 -94 1249 -84 1249 -72 ct 1249 -69 l  1143 -69 l 
p
1224 -88 m  1222 -104 1218 -115 1212 -123 ct 1205 -130 1196 -134 1183 -134 ct 
1179 -134 1175 -133 1170 -132 ct 1166 -130 1161 -128 1158 -124 ct 1154 -121 1150 -116 1148 -111 ct 
1145 -105 1144 -97 1143 -88 ct 1224 -88 l  p ef
1361 0 m  1361 -205 l  1386 -205 l  1386 0 l  1361 0 l  p ef
1424 -181 m  1424 -205 l  1449 -205 l  1449 -181 l  1424 -181 l  p
1424 0 m  1424 -149 l  1449 -149 l  1449 0 l  1424 0 l  p ef
1507 -69 m  1507 -61 1508 -54 1509 -47 ct 1511 -41 1514 -35 1517 -31 ct 1520 -26 1524 -22 1530 -20 ct 
1535 -17 1541 -16 1549 -16 ct 1559 -16 1568 -18 1574 -22 ct 1581 -26 1585 -32 1588 -38 ct 
1609 -32 l  1608 -28 1606 -24 1603 -20 ct 1600 -16 1596 -12 1592 -9 ct 1587 -5 1581 -2 1574 0 ct 
1567 2 1559 3 1549 3 ct 1527 3 1510 -4 1498 -17 ct 1487 -30 1481 -50 1481 -75 ct 
1481 -89 1483 -101 1486 -111 ct 1490 -121 1494 -129 1501 -135 ct 1507 -141 1514 -145 1522 -148 ct 
1530 -151 1538 -152 1548 -152 ct 1560 -152 1571 -150 1579 -146 ct 1587 -142 1594 -136 1599 -129 ct 
1604 -122 1608 -113 1610 -104 ct 1612 -94 1613 -84 1613 -72 ct 1613 -69 l  1507 -69 l 
p
1588 -88 m  1586 -104 1582 -115 1576 -123 ct 1569 -130 1560 -134 1547 -134 ct 
1543 -134 1539 -133 1534 -132 ct 1530 -130 1525 -128 1522 -124 ct 1518 -121 1514 -116 1512 -111 ct 
1509 -105 1508 -97 1507 -88 ct 1588 -88 l  p ef
1740 0 m  1740 -95 l  1740 -102 1739 -108 1738 -113 ct 1737 -118 1735 -122 1733 -125 ct 
1730 -128 1727 -130 1723 -131 ct 1720 -132 1715 -133 1709 -133 ct 1703 -133 1698 -132 1693 -130 ct 
1688 -128 1684 -125 1681 -121 ct 1678 -117 1675 -112 1673 -106 ct 1671 -101 1670 -94 1670 -86 ct 
1670 0 l  1646 0 l  1646 -117 l  1646 -121 1646 -124 1645 -127 ct 1645 -131 1645 -134 1645 -137 ct 
1645 -140 1645 -143 1645 -145 ct 1645 -147 1645 -149 1645 -149 ct 1668 -149 l 
1668 -149 1668 -148 1668 -146 ct 1669 -144 1669 -141 1669 -139 ct 1669 -136 1669 -133 1669 -131 ct 
1669 -128 1669 -126 1669 -124 ct 1670 -124 l  1672 -128 1675 -132 1678 -135 ct 
1680 -139 1684 -142 1687 -144 ct 1691 -147 1696 -149 1700 -150 ct 1705 -151 1711 -152 1717 -152 ct 
1726 -152 1733 -151 1739 -149 ct 1745 -147 1750 -144 1753 -140 ct 1757 -135 1760 -130 1762 -123 ct 
1764 -117 1765 -109 1765 -99 ct 1765 0 l  1740 0 l  p ef
1913 -41 m  1913 -34 1911 -28 1909 -22 ct 1906 -17 1902 -12 1897 -8 ct 1892 -5 1886 -2 1878 0 ct 
1871 2 1862 3 1852 3 ct 1844 3 1836 2 1829 1 ct 1822 0 1816 -2 1811 -5 ct 1806 -8 1801 -12 1798 -17 ct 
1794 -22 1792 -28 1790 -35 ct 1812 -39 l  1814 -31 1818 -25 1825 -21 ct 1831 -18 1841 -16 1852 -16 ct 
1858 -16 1863 -16 1867 -17 ct 1871 -18 1875 -19 1879 -21 ct 1882 -23 1884 -25 1886 -28 ct 
1888 -31 1889 -35 1889 -39 ct 1889 -44 1888 -47 1886 -50 ct 1883 -53 1881 -55 1877 -57 ct 
1873 -59 1868 -61 1863 -62 ct 1858 -64 1852 -65 1845 -67 ct 1839 -69 1833 -70 1828 -72 ct 
1822 -74 1816 -77 1812 -80 ct 1807 -83 1803 -87 1800 -92 ct 1797 -96 1796 -102 1796 -109 ct 
1796 -123 1801 -133 1810 -140 ct 1820 -147 1834 -151 1853 -151 ct 1869 -151 1882 -148 1892 -142 ct 
1902 -137 1908 -127 1910 -115 ct 1888 -112 l  1887 -116 1886 -119 1883 -121 ct 
1881 -124 1878 -126 1875 -128 ct 1872 -129 1869 -131 1865 -131 ct 1861 -132 1857 -132 1853 -132 ct 
1841 -132 1833 -131 1828 -127 ct 1823 -124 1820 -119 1820 -112 ct 1820 -108 1821 -104 1823 -102 ct 
1825 -99 1828 -97 1831 -95 ct 1835 -93 1839 -92 1844 -90 ct 1849 -89 1854 -88 1860 -86 ct 
1864 -85 1868 -84 1872 -83 ct 1876 -82 1880 -81 1884 -79 ct 1888 -77 1892 -75 1895 -73 ct 
1899 -71 1902 -69 1904 -66 ct 1907 -62 1909 -59 1911 -55 ct 1912 -51 1913 -46 1913 -41 ct 
p ef
pom
0.914 0.894 0.832 c 5769 5292 m  5015 5292 l  5015 3360 l  6523 3360 l 
6523 5292 l  5769 5292 l  p ef
0 lw 1 lj 0.003 0.003 0.003 c 5769 5292 m  5015 5292 l  5015 3360 l  6523 3360 l 
6523 5292 l  5769 5292 l  pc
pum
5115 3676 t
0.230 0.226 0.210 c 80 0 m  80 -71 l  80 -76 79 -81 78 -85 ct 78 -88 77 -91 75 -93 ct 
73 -96 71 -97 69 -98 ct 66 -99 63 -100 59 -100 ct 55 -100 52 -99 48 -97 ct 45 -96 42 -94 40 -91 ct 
38 -88 36 -84 35 -80 ct 34 -75 33 -70 33 -65 ct 33 0 l  15 0 l  15 -88 l  15 -90 15 -93 15 -95 ct 
15 -98 15 -100 14 -103 ct 14 -105 14 -107 14 -109 ct 14 -110 14 -111 14 -112 ct 
32 -112 l  32 -112 32 -111 32 -109 ct 32 -108 32 -106 32 -104 ct 32 -102 32 -100 32 -98 ct 
32 -96 33 -94 33 -93 ct 33 -93 l  34 -96 36 -99 38 -102 ct 40 -104 42 -106 45 -108 ct 
48 -110 51 -112 54 -113 ct 57 -114 61 -114 66 -114 ct 74 -114 81 -112 86 -109 ct 
91 -106 94 -100 96 -93 ct 96 -93 l  98 -96 100 -99 102 -102 ct 104 -104 106 -106 109 -108 ct 
112 -110 115 -112 118 -113 ct 122 -114 126 -114 130 -114 ct 136 -114 141 -113 145 -112 ct 
149 -110 152 -108 155 -105 ct 158 -102 160 -97 161 -92 ct 162 -87 163 -81 163 -75 ct 
163 0 l  144 0 l  144 -71 l  144 -76 144 -81 143 -85 ct 142 -88 141 -91 140 -93 ct 
138 -96 136 -97 133 -98 ct 131 -99 128 -100 124 -100 ct 120 -100 116 -99 113 -97 ct 
110 -96 107 -94 105 -91 ct 103 -88 101 -84 100 -80 ct 99 -76 98 -71 98 -65 ct 98 0 l 
80 0 l  p ef
221 2 m  210 2 201 -1 195 -7 ct 190 -13 187 -21 187 -31 ct 187 -39 188 -45 191 -50 ct 
194 -54 198 -58 202 -61 ct 207 -64 212 -65 218 -66 ct 223 -68 229 -68 235 -68 ct 
261 -68 l  261 -74 l  261 -79 260 -83 259 -86 ct 258 -89 257 -92 255 -94 ct 
253 -96 250 -97 247 -98 ct 244 -99 241 -100 236 -100 ct 233 -100 230 -100 227 -99 ct 
224 -99 221 -98 219 -96 ct 217 -95 215 -93 214 -91 ct 213 -89 212 -86 211 -82 ct 
192 -84 l  193 -88 194 -92 196 -96 ct 198 -100 201 -103 204 -106 ct 208 -108 212 -110 217 -112 ct 
223 -113 229 -114 237 -114 ct 251 -114 262 -111 269 -104 ct 276 -98 279 -89 279 -76 ct 
279 -28 l  279 -23 280 -19 282 -16 ct 283 -13 286 -12 290 -12 ct 291 -12 292 -12 293 -12 ct 
294 -12 295 -12 296 -12 ct 296 -1 l  294 0 291 0 289 1 ct 287 1 284 1 282 1 ct 
278 1 275 1 272 0 ct 270 -1 268 -3 266 -5 ct 265 -7 264 -9 263 -12 ct 262 -14 261 -18 261 -21 ct 
261 -21 l  259 -18 256 -15 254 -12 ct 252 -9 249 -6 246 -4 ct 242 -2 239 -1 235 0 ct 
231 1 226 2 221 2 ct p
225 -12 m  231 -12 236 -13 241 -15 ct 245 -17 249 -20 252 -23 ct 255 -27 257 -30 258 -34 ct 
260 -38 261 -42 261 -46 ct 261 -55 l  240 -55 l  236 -55 231 -55 227 -54 ct 
223 -54 219 -52 216 -51 ct 213 -49 211 -46 209 -43 ct 207 -40 206 -36 206 -31 ct 
206 -25 208 -20 211 -17 ct 214 -14 219 -12 225 -12 ct p ef
310 -135 m  310 -153 l  329 -153 l  329 -135 l  310 -135 l  p
310 1 m  310 -111 l  329 -111 l  329 1 l  310 1 l  p ef
428 0 m  428 -71 l  428 -76 428 -81 427 -85 ct 426 -88 425 -91 423 -93 ct 422 -96 419 -97 416 -98 ct 
413 -99 410 -100 405 -100 ct 401 -100 397 -99 393 -97 ct 390 -96 387 -94 384 -91 ct 
382 -88 380 -84 378 -80 ct 377 -75 376 -70 376 -65 ct 376 0 l  358 0 l  358 -88 l 
358 -90 358 -93 358 -95 ct 358 -98 358 -100 357 -103 ct 357 -105 357 -107 357 -109 ct 
357 -110 357 -111 357 -112 ct 375 -112 l  375 -112 375 -111 375 -109 ct 375 -108 375 -106 375 -104 ct 
375 -102 375 -100 375 -98 ct 375 -96 376 -94 376 -93 ct 376 -93 l  378 -96 380 -99 382 -102 ct 
384 -104 386 -106 389 -108 ct 392 -110 395 -112 399 -113 ct 403 -114 407 -114 412 -114 ct 
418 -114 423 -113 428 -112 ct 432 -110 436 -108 439 -105 ct 442 -102 444 -97 445 -92 ct 
446 -87 447 -81 447 -75 ct 447 0 l  428 0 l  p ef
480 0 m  480 -23 l  501 -23 l  501 0 l  480 0 l  p ef
549 -57 m  549 -50 550 -44 551 -39 ct 552 -33 553 -29 556 -25 ct 558 -21 561 -18 564 -16 ct 
568 -14 572 -13 578 -13 ct 584 -13 590 -14 594 -18 ct 599 -21 602 -27 603 -34 ct 
621 -34 l  621 -29 619 -25 617 -20 ct 615 -16 612 -12 609 -9 ct 605 -6 601 -3 596 -1 ct 
591 1 585 2 578 2 ct 569 2 562 1 556 -2 ct 550 -5 545 -9 541 -15 ct 537 -20 534 -26 533 -33 ct 
531 -40 530 -48 530 -56 ct 530 -64 531 -70 532 -76 ct 533 -82 535 -87 537 -91 ct 
539 -95 542 -99 545 -102 ct 548 -105 551 -107 555 -109 ct 558 -111 562 -112 566 -113 ct 
570 -114 574 -114 578 -114 ct 584 -114 590 -113 595 -111 ct 600 -110 604 -107 607 -104 ct 
611 -101 614 -98 616 -94 ct 618 -90 620 -85 621 -81 ct 602 -79 l  601 -85 598 -90 594 -94 ct 
590 -98 585 -99 578 -99 ct 572 -99 568 -99 564 -97 ct 561 -95 558 -92 556 -89 ct 
553 -85 552 -81 551 -75 ct 550 -70 549 -64 549 -57 ct p ef
pom
0.003 0.003 0.003 c 5188 3891 m  5499 3891 l  ps
5189 3991 m  5500 3991 l  ps
5190 4091 m  5501 4091 l  ps
5391 4191 m  5702 4191 l  ps
5392 4291 m  5703 4291 l  ps
5393 4391 m  5704 4391 l  ps
5494 4491 m  5805 4491 l  ps
5495 4591 m  5806 4591 l  ps
5396 4691 m  5707 4691 l  ps
5397 4791 m  5708 4791 l  ps
5398 4891 m  5709 4891 l  ps
5199 4991 m  5510 4991 l  ps
5200 5091 m  5511 5091 l  ps
0.914 0.894 0.832 c 8136 3280 m  7382 3280 l  7382 1348 l  8890 1348 l 
8890 3280 l  8136 3280 l  p ef
0.003 0.003 0.003 c 8136 3280 m  7382 3280 l  7382 1348 l  8890 1348 l  8890 3280 l 
8136 3280 l  pc
pum
7482 1664 t
0.230 0.226 0.210 c 80 0 m  80 -71 l  80 -76 79 -81 78 -85 ct 78 -88 77 -91 75 -93 ct 
73 -96 71 -97 69 -98 ct 66 -99 63 -100 59 -100 ct 55 -100 52 -99 48 -97 ct 45 -96 42 -94 40 -91 ct 
38 -88 36 -84 35 -80 ct 34 -75 33 -70 33 -65 ct 33 0 l  15 0 l  15 -88 l  15 -90 15 -93 15 -95 ct 
15 -98 15 -100 14 -103 ct 14 -105 14 -107 14 -109 ct 14 -110 14 -111 14 -112 ct 
32 -112 l  32 -112 32 -111 32 -109 ct 32 -108 32 -106 32 -104 ct 32 -102 32 -100 32 -98 ct 
32 -96 33 -94 33 -93 ct 33 -93 l  34 -96 36 -99 38 -102 ct 40 -104 42 -106 45 -108 ct 
48 -110 51 -112 54 -113 ct 57 -114 61 -114 66 -114 ct 74 -114 81 -112 86 -109 ct 
91 -106 94 -100 96 -93 ct 96 -93 l  98 -96 100 -99 102 -102 ct 104 -104 106 -106 109 -108 ct 
112 -110 115 -112 118 -113 ct 122 -114 126 -114 130 -114 ct 136 -114 141 -113 145 -112 ct 
149 -110 152 -108 155 -105 ct 158 -102 160 -97 161 -92 ct 162 -87 163 -81 163 -75 ct 
163 0 l  144 0 l  144 -71 l  144 -76 144 -81 143 -85 ct 142 -88 141 -91 140 -93 ct 
138 -96 136 -97 133 -98 ct 131 -99 128 -100 124 -100 ct 120 -100 116 -99 113 -97 ct 
110 -96 107 -94 105 -91 ct 103 -88 101 -84 100 -80 ct 99 -76 98 -71 98 -65 ct 98 0 l 
80 0 l  p ef
221 2 m  210 2 201 -1 195 -7 ct 190 -13 187 -21 187 -31 ct 187 -39 188 -45 191 -50 ct 
194 -54 198 -58 202 -61 ct 207 -64 212 -65 218 -66 ct 223 -68 229 -68 235 -68 ct 
261 -68 l  261 -74 l  261 -79 260 -83 259 -86 ct 258 -89 257 -92 255 -94 ct 
253 -96 250 -97 247 -98 ct 244 -99 241 -100 236 -100 ct 233 -100 230 -100 227 -99 ct 
224 -99 221 -98 219 -96 ct 217 -95 215 -93 214 -91 ct 213 -89 212 -86 211 -82 ct 
192 -84 l  193 -88 194 -92 196 -96 ct 198 -100 201 -103 204 -106 ct 208 -108 212 -110 217 -112 ct 
223 -113 229 -114 237 -114 ct 251 -114 262 -111 269 -104 ct 276 -98 279 -89 279 -76 ct 
279 -28 l  279 -23 280 -19 282 -16 ct 283 -13 286 -12 290 -12 ct 291 -12 292 -12 293 -12 ct 
294 -12 295 -12 296 -12 ct 296 -1 l  294 0 291 0 289 1 ct 287 1 284 1 282 1 ct 
278 1 275 1 272 0 ct 270 -1 268 -3 266 -5 ct 265 -7 264 -9 263 -12 ct 262 -14 261 -18 261 -21 ct 
261 -21 l  259 -18 256 -15 254 -12 ct 252 -9 249 -6 246 -4 ct 242 -2 239 -1 235 0 ct 
231 1 226 2 221 2 ct p
225 -12 m  231 -12 236 -13 241 -15 ct 245 -17 249 -20 252 -23 ct 255 -27 257 -30 258 -34 ct 
260 -38 261 -42 261 -46 ct 261 -55 l  240 -55 l  236 -55 231 -55 227 -54 ct 
223 -54 219 -52 216 -51 ct 213 -49 211 -46 209 -43 ct 207 -40 206 -36 206 -31 ct 
206 -25 208 -20 211 -17 ct 214 -14 219 -12 225 -12 ct p ef
310 -135 m  310 -153 l  329 -153 l  329 -135 l  310 -135 l  p
310 1 m  310 -111 l  329 -111 l  329 1 l  310 1 l  p ef
428 0 m  428 -71 l  428 -76 428 -81 427 -85 ct 426 -88 425 -91 423 -93 ct 422 -96 419 -97 416 -98 ct 
413 -99 410 -100 405 -100 ct 401 -100 397 -99 393 -97 ct 390 -96 387 -94 384 -91 ct 
382 -88 380 -84 378 -80 ct 377 -75 376 -70 376 -65 ct 376 0 l  358 0 l  358 -88 l 
358 -90 358 -93 358 -95 ct 358 -98 358 -100 357 -103 ct 357 -105 357 -107 357 -109 ct 
357 -110 357 -111 357 -112 ct 375 -112 l  375 -112 375 -111 375 -109 ct 375 -108 375 -106 375 -104 ct 
375 -102 375 -100 375 -98 ct 375 -96 376 -94 376 -93 ct 376 -93 l  378 -96 380 -99 382 -102 ct 
384 -104 386 -106 389 -108 ct 392 -110 395 -112 399 -113 ct 403 -114 407 -114 412 -114 ct 
418 -114 423 -113 428 -112 ct 432 -110 436 -108 439 -105 ct 442 -102 444 -97 445 -92 ct 
446 -87 447 -81 447 -75 ct 447 0 l  428 0 l  p ef
480 0 m  480 -23 l  501 -23 l  501 0 l  480 0 l  p ef
549 -57 m  549 -50 550 -44 551 -39 ct 552 -33 553 -29 556 -25 ct 558 -21 561 -18 564 -16 ct 
568 -14 572 -13 578 -13 ct 584 -13 590 -14 594 -18 ct 599 -21 602 -27 603 -34 ct 
621 -34 l  621 -29 619 -25 617 -20 ct 615 -16 612 -12 609 -9 ct 605 -6 601 -3 596 -1 ct 
591 1 585 2 578 2 ct 569 2 562 1 556 -2 ct 550 -5 545 -9 541 -15 ct 537 -20 534 -26 533 -33 ct 
531 -40 530 -48 530 -56 ct 530 -64 531 -70 532 -76 ct 533 -82 535 -87 537 -91 ct 
539 -95 542 -99 545 -102 ct 548 -105 551 -107 555 -109 ct 558 -111 562 -112 566 -113 ct 
570 -114 574 -114 578 -114 ct 584 -114 590 -113 595 -111 ct 600 -110 604 -107 607 -104 ct 
611 -101 614 -98 616 -94 ct 618 -90 620 -85 621 -81 ct 602 -79 l  601 -85 598 -90 594 -94 ct 
590 -98 585 -99 578 -99 ct 572 -99 568 -99 564 -97 ct 561 -95 558 -92 556 -89 ct 
553 -85 552 -81 551 -75 ct 550 -70 549 -64 549 -57 ct p ef
pom
0.003 0.003 0.003 c 7555 1879 m  7866 1879 l  ps
7556 1979 m  7867 1979 l  ps
7557 2079 m  7868 2079 l  ps
7758 2179 m  8069 2179 l  ps
7759 2279 m  8070 2279 l  ps
7760 2379 m  8071 2379 l  ps
7861 2479 m  8172 2479 l  ps
7862 2579 m  8173 2579 l  ps
7763 2679 m  8074 2679 l  ps
7764 2779 m  8075 2779 l  ps
7765 2879 m  8076 2879 l  ps
7566 2979 m  7877 2979 l  ps
7567 3079 m  7878 3079 l  ps
0.914 0.894 0.832 c 10936 3280 m  10182 3280 l  10182 1348 l  11690 1348 l 
11690 3280 l  10936 3280 l  p ef
0.003 0.003 0.003 c 10936 3280 m  10182 3280 l  10182 1348 l  11690 1348 l 
11690 3280 l  10936 3280 l  pc
pum
10282 1664 t
0.230 0.226 0.210 c 80 0 m  80 -71 l  80 -76 79 -81 78 -85 ct 78 -88 77 -91 75 -93 ct 
73 -96 71 -97 69 -98 ct 66 -99 63 -100 59 -100 ct 55 -100 52 -99 48 -97 ct 45 -96 42 -94 40 -91 ct 
38 -88 36 -84 35 -80 ct 34 -75 33 -70 33 -65 ct 33 0 l  15 0 l  15 -88 l  15 -90 15 -93 15 -95 ct 
15 -98 15 -100 14 -103 ct 14 -105 14 -107 14 -109 ct 14 -110 14 -111 14 -112 ct 
32 -112 l  32 -112 32 -111 32 -109 ct 32 -108 32 -106 32 -104 ct 32 -102 32 -100 32 -98 ct 
32 -96 33 -94 33 -93 ct 33 -93 l  34 -96 36 -99 38 -102 ct 40 -104 42 -106 45 -108 ct 
48 -110 51 -112 54 -113 ct 57 -114 61 -114 66 -114 ct 74 -114 81 -112 86 -109 ct 
91 -106 94 -100 96 -93 ct 96 -93 l  98 -96 100 -99 102 -102 ct 104 -104 106 -106 109 -108 ct 
112 -110 115 -112 118 -113 ct 122 -114 126 -114 130 -114 ct 136 -114 141 -113 145 -112 ct 
149 -110 152 -108 155 -105 ct 158 -102 160 -97 161 -92 ct 162 -87 163 -81 163 -75 ct 
163 0 l  144 0 l  144 -71 l  144 -76 144 -81 143 -85 ct 142 -88 141 -91 140 -93 ct 
138 -96 136 -97 133 -98 ct 131 -99 128 -100 124 -100 ct 120 -100 116 -99 113 -97 ct 
110 -96 107 -94 105 -91 ct 103 -88 101 -84 100 -80 ct 99 -76 98 -71 98 -65 ct 98 0 l 
80 0 l  p ef
221 2 m  210 2 201 -1 195 -7 ct 190 -13 187 -21 187 -31 ct 187 -39 188 -45 191 -50 ct 
194 -54 198 -58 202 -61 ct 207 -64 212 -65 218 -66 ct 223 -68 229 -68 235 -68 ct 
261 -68 l  261 -74 l  261 -79 260 -83 259 -86 ct 258 -89 257 -92 255 -94 ct 
253 -96 250 -97 247 -98 ct 244 -99 241 -100 236 -100 ct 233 -100 230 -100 227 -99 ct 
224 -99 221 -98 219 -96 ct 217 -95 215 -93 214 -91 ct 213 -89 212 -86 211 -82 ct 
192 -84 l  193 -88 194 -92 196 -96 ct 198 -100 201 -103 204 -106 ct 208 -108 212 -110 217 -112 ct 
223 -113 229 -114 237 -114 ct 251 -114 262 -111 269 -104 ct 276 -98 279 -89 279 -76 ct 
279 -28 l  279 -23 280 -19 282 -16 ct 283 -13 286 -12 290 -12 ct 291 -12 292 -12 293 -12 ct 
294 -12 295 -12 296 -12 ct 296 -1 l  294 0 291 0 289 1 ct 287 1 284 1 282 1 ct 
278 1 275 1 272 0 ct 270 -1 268 -3 266 -5 ct 265 -7 264 -9 263 -12 ct 262 -14 261 -18 261 -21 ct 
261 -21 l  259 -18 256 -15 254 -12 ct 252 -9 249 -6 246 -4 ct 242 -2 239 -1 235 0 ct 
231 1 226 2 221 2 ct p
225 -12 m  231 -12 236 -13 241 -15 ct 245 -17 249 -20 252 -23 ct 255 -27 257 -30 258 -34 ct 
260 -38 261 -42 261 -46 ct 261 -55 l  240 -55 l  236 -55 231 -55 227 -54 ct 
223 -54 219 -52 216 -51 ct 213 -49 211 -46 209 -43 ct 207 -40 206 -36 206 -31 ct 
206 -25 208 -20 211 -17 ct 214 -14 219 -12 225 -12 ct p ef
310 -135 m  310 -153 l  329 -153 l  329 -135 l  310 -135 l  p
310 1 m  310 -111 l  329 -111 l  329 1 l  310 1 l  p ef
428 0 m  428 -71 l  428 -76 428 -81 427 -85 ct 426 -88 425 -91 423 -93 ct 422 -96 419 -97 416 -98 ct 
413 -99 410 -100 405 -100 ct 401 -100 397 -99 393 -97 ct 390 -96 387 -94 384 -91 ct 
382 -88 380 -84 378 -80 ct 377 -75 376 -70 376 -65 ct 376 0 l  358 0 l  358 -88 l 
358 -90 358 -93 358 -95 ct 358 -98 358 -100 357 -103 ct 357 -105 357 -107 357 -109 ct 
357 -110 357 -111 357 -112 ct 375 -112 l  375 -112 375 -111 375 -109 ct 375 -108 375 -106 375 -104 ct 
375 -102 375 -100 375 -98 ct 375 -96 376 -94 376 -93 ct 376 -93 l  378 -96 380 -99 382 -102 ct 
384 -104 386 -106 389 -108 ct 392 -110 395 -112 399 -113 ct 403 -114 407 -114 412 -114 ct 
418 -114 423 -113 428 -112 ct 432 -110 436 -108 439 -105 ct 442 -102 444 -97 445 -92 ct 
446 -87 447 -81 447 -75 ct 447 0 l  428 0 l  p ef
480 0 m  480 -23 l  501 -23 l  501 0 l  480 0 l  p ef
549 -57 m  549 -50 550 -44 551 -39 ct 552 -33 553 -29 556 -25 ct 558 -21 561 -18 564 -16 ct 
568 -14 572 -13 578 -13 ct 584 -13 590 -14 594 -18 ct 599 -21 602 -27 603 -34 ct 
621 -34 l  621 -29 619 -25 617 -20 ct 615 -16 612 -12 609 -9 ct 605 -6 601 -3 596 -1 ct 
591 1 585 2 578 2 ct 569 2 562 1 556 -2 ct 550 -5 545 -9 541 -15 ct 537 -20 534 -26 533 -33 ct 
531 -40 530 -48 530 -56 ct 530 -64 531 -70 532 -76 ct 533 -82 535 -87 537 -91 ct 
539 -95 542 -99 545 -102 ct 548 -105 551 -107 555 -109 ct 558 -111 562 -112 566 -113 ct 
570 -114 574 -114 578 -114 ct 584 -114 590 -113 595 -111 ct 600 -110 604 -107 607 -104 ct 
611 -101 614 -98 616 -94 ct 618 -90 620 -85 621 -81 ct 602 -79 l  601 -85 598 -90 594 -94 ct 
590 -98 585 -99 578 -99 ct 572 -99 568 -99 564 -97 ct 561 -95 558 -92 556 -89 ct 
553 -85 552 -81 551 -75 ct 550 -70 549 -64 549 -57 ct p ef
pom
0.003 0.003 0.003 c 10355 1879 m  10666 1879 l  ps
10356 1979 m  10667 1979 l  ps
10357 2079 m  10668 2079 l  ps
10558 2179 m  10869 2179 l  ps
10559 2279 m  10870 2279 l  ps
10560 2379 m  10871 2379 l  ps
10661 2479 m  10972 2479 l  ps
10662 2579 m  10973 2579 l  ps
10563 2679 m  10874 2679 l  ps
10564 2779 m  10875 2779 l  ps
10565 2879 m  10876 2879 l  ps
10366 2979 m  10677 2979 l  ps
10367 3079 m  10678 3079 l  ps
0 7963 t 
pom
count op_count sub {pop} repeat countdictstack dict_count sub {end} repeat b4_inc_state restore
%%PageTrailer
%%Trailer
%%EOF
