%!PS-Adobe-3.0 EPSF-3.0 
%%BoundingBox: 0 0 69 118
%%Pages: 0
%%Creator: Sun Microsystems, Inc.
%%Title: none
%%CreationDate: none
%%LanguageLevel: 2
%%EndComments
%%BeginProlog
%%BeginResource: procset SDRes-Prolog 1.0 0
/b4_inc_state save def
/dict_count countdictstack def
/op_count count 1 sub def
userdict begin
0 setgray 0 setlinecap 1 setlinewidth 0 setlinejoin 10 setmiterlimit[] 0 setdash newpath
/languagelevel where {pop languagelevel 1 ne {false setstrokeadjust false setoverprint} if} if
/bdef {bind def} bind def
/c {setrgbcolor} bdef
/l {neg lineto} bdef
/rl {neg rlineto} bdef
/lc {setlinecap} bdef
/lj {setlinejoin} bdef
/lw {setlinewidth} bdef
/ml {setmiterlimit} bdef
/ld {setdash} bdef
/m {neg moveto} bdef
/ct {6 2 roll neg 6 2 roll neg 6 2 roll neg curveto} bdef
/r {rotate} bdef
/t {neg translate} bdef
/s {scale} bdef
/sw {show} bdef
/gs {gsave} bdef
/gr {grestore} bdef
/f {findfont dup length dict begin
{1 index /FID ne {def} {pop pop} ifelse} forall /Encoding ISOLatin1Encoding def
currentdict end /NFont exch definefont pop /NFont findfont} bdef
/p {closepath} bdef
/sf {scalefont setfont} bdef
/ef {eofill}bdef
/pc {closepath stroke}bdef
/ps {stroke}bdef
/pum {matrix currentmatrix}bdef
/pom {setmatrix}bdef
/bs {/aString exch def /nXOfs exch def /nWidth exch def currentpoint nXOfs 0 rmoveto pum nWidth aString stringwidth pop div 1 scale aString show pom moveto} bdef
%%EndResource
%%EndProlog
%%BeginSetup
%%EndSetup
%%Page: 1 1
%%BeginPageSetup
%%EndPageSetup
pum
0.0284 0.0284 s 
0 -4154 t
/tm matrix currentmatrix def
tm setmatrix
-9257 -12655 t 
1 1 s 
1.000 1.000 0.601 c 10471 16807 m  9258 16807 l  9258 13169 l  11684 13169 l 
11684 16807 l  10471 16807 l  p ef
0 lw 1 lj 0.003 0.003 0.003 c 10471 16807 m  9258 16807 l  9258 13169 l  11684 13169 l 
11684 16807 l  10471 16807 l  pc
9258 13472 m  11682 13472 l  ps
9258 13772 m  11682 13772 l  ps
9258 14078 m  11682 14078 l  ps
9258 14377 m  11682 14377 l  ps
9258 14684 m  11682 14684 l  ps
9258 14987 m  11682 14987 l  ps
9258 15289 m  11682 15289 l  ps
9258 15593 m  11682 15593 l  ps
9258 15894 m  11682 15894 l  ps
9258 16200 m  11682 16200 l  ps
9258 16499 m  11682 16499 l  ps
1 lw 0 lj 9618 12805 m  11322 12805 l  ps
9258 12805 m  9708 12955 l  9708 12655 l  9258 12805 l  p ef
11682 12805 m  11232 12655 l  11232 12955 l  11682 12805 l  p ef
pum
10051 12924 t
0.230 0.226 0.210 c 138 -132 m  164 -147 172 -160 172 -183 ct 172 -223 142 -250 97 -250 ct 
53 -250 22 -223 22 -183 ct 22 -160 30 -148 56 -132 ct 27 -118 13 -97 13 -70 ct 
13 -24 48 8 97 8 ct 147 8 181 -24 181 -69 ct 181 -97 167 -118 138 -132 ct p
97 -223 m  124 -223 141 -207 141 -183 ct 141 -159 123 -144 97 -144 ct 71 -144 54 -159 54 -183 ct 
54 -207 71 -223 97 -223 ct p
97 -118 m  128 -118 149 -98 149 -69 ct 149 -39 128 -20 96 -20 ct 66 -20 45 -40 45 -69 ct 
45 -98 66 -118 97 -118 ct p ef
311 -257 m  311 0 l  338 0 l  338 -24 l  352 -2 370 8 396 8 ct 445 8 477 -32 477 -93 ct 
477 -153 446 -190 398 -190 ct 372 -190 354 -180 340 -160 ct 340 -257 l  311 -257 l 
p
392 -163 m  425 -163 446 -134 446 -90 ct 446 -48 424 -20 392 -20 ct 361 -20 340 -48 340 -91 ct 
340 -134 361 -163 392 -163 ct p ef
540 -185 m  511 -185 l  511 0 l  540 0 l  540 -185 l  p
540 -257 m  510 -257 l  510 -220 l  540 -220 l  540 -257 l  p ef
653 -185 m  622 -185 l  622 -236 l  593 -236 l  593 -185 l  568 -185 l 
568 -161 l  593 -161 l  593 -21 l  593 -3 606 8 629 8 ct 636 8 643 7 653 6 ct 
653 -19 l  649 -18 644 -18 639 -18 ct 626 -18 622 -21 622 -34 ct 622 -161 l 
653 -161 l  653 -185 l  p ef
815 -133 m  814 -170 790 -190 748 -190 ct 704 -190 677 -168 677 -134 ct 677 -105 691 -91 735 -81 ct 
763 -74 l  783 -69 791 -61 791 -48 ct 791 -31 774 -19 748 -19 ct 732 -19 719 -24 712 -31 ct 
707 -37 705 -42 703 -55 ct 672 -55 l  673 -12 697 8 746 8 ct 792 8 822 -15 822 -51 ct 
822 -78 807 -93 770 -102 ct 742 -109 l  718 -114 707 -122 707 -135 ct 707 -152 722 -163 746 -163 ct 
770 -163 783 -153 784 -133 ct 815 -133 l  p ef
pom
0.601 0.800 1.000 c 10317 14205 m  10701 14205 l  10701 15573 l  10893 15573 l 
10509 16029 l  10126 15573 l  10317 15573 l  10317 14205 l  p
10126 14205 m  10126 14205 l  p
10893 16029 m  10893 16029 l  p ef
0 lw 1 lj 0.003 0.003 0.003 c 10317 14205 m  10317 15573 l  10126 15573 l 
10509 16029 l  10893 15573 l  10701 15573 l  10701 14205 l  10317 14205 l 
pc
10126 14205 m  10126 14205 l  pc
10893 16029 m  10893 16029 l  pc
0 4154 t 
pom
count op_count sub {pop} repeat countdictstack dict_count sub {end} repeat b4_inc_state restore
%%PageTrailer
%%Trailer
%%EOF
