%!PS-Adobe-3.0 EPSF-3.0 
%%BoundingBox: 0 0 135 53
%%Pages: 0
%%Creator: LibreOffice 3.3
%%Title: none
%%CreationDate: none
%%LanguageLevel: 2
%%EndComments
%%BeginProlog
%%BeginResource: procset SDRes-Prolog 1.0 0
/b4_inc_state save def
/dict_count countdictstack def
/op_count count 1 sub def
userdict begin
0 setgray 0 setlinecap 1 setlinewidth 0 setlinejoin 10 setmiterlimit[] 0 setdash newpath
/languagelevel where {pop languagelevel 1 ne {false setstrokeadjust false setoverprint} if} if
/bdef {bind def} bind def
/c {setrgbcolor} bdef
/l {neg lineto} bdef
/rl {neg rlineto} bdef
/lc {setlinecap} bdef
/lj {setlinejoin} bdef
/lw {setlinewidth} bdef
/ml {setmiterlimit} bdef
/ld {setdash} bdef
/m {neg moveto} bdef
/ct {6 2 roll neg 6 2 roll neg 6 2 roll neg curveto} bdef
/r {rotate} bdef
/t {neg translate} bdef
/s {scale} bdef
/sw {show} bdef
/gs {gsave} bdef
/gr {grestore} bdef
/f {findfont dup length dict begin
{1 index /FID ne {def} {pop pop} ifelse} forall /Encoding ISOLatin1Encoding def
currentdict end /NFont exch definefont pop /NFont findfont} bdef
/p {closepath} bdef
/sf {scalefont setfont} bdef
/ef {eofill}bdef
/pc {closepath stroke}bdef
/ps {stroke}bdef
/pum {matrix currentmatrix}bdef
/pom {setmatrix}bdef
/bs {/aString exch def /nXOfs exch def /nWidth exch def currentpoint nXOfs 0 rmoveto pum nWidth aString stringwidth pop div 1 scale aString show pom moveto} bdef
%%EndResource
%%EndProlog
%%BeginSetup
%%EndSetup
%%Page: 1 1
%%BeginPageSetup
%%EndPageSetup
pum
0.02845 0.0284 s 
0 -1866 t
/tm matrix currentmatrix def
tm setmatrix
-1152 -16484 t 
1 1 s 
1.000 1.000 1.000 c 2645 17101 m  2395 17101 l  2395 16601 l  2895 16601 l 
2895 17101 l  2645 17101 l  p ef
0 lw 1 lj 0.003 0.003 0.003 c 2645 17101 m  2395 17101 l  2395 16601 l  2895 16601 l 
2895 17101 l  2645 17101 l  pc
pum
2547 16972 t
0.105 0.105 0.105 c 182 -122 m  182 -99 180 -79 175 -63 ct 171 -47 165 -34 157 -25 ct 
150 -15 141 -8 130 -3 ct 120 1 109 3 97 3 ct 86 3 75 1 64 -3 ct 54 -8 45 -15 38 -24 ct 
30 -34 24 -47 20 -63 ct 16 -79 14 -99 14 -122 ct 14 -146 16 -167 20 -183 ct 24 -199 30 -212 38 -221 ct 
46 -231 54 -237 65 -241 ct 75 -245 86 -247 98 -247 ct 110 -247 121 -245 131 -241 ct 
141 -237 150 -231 158 -221 ct 165 -212 171 -199 175 -183 ct 180 -167 182 -146 182 -122 ct 
p
151 -122 m  151 -141 149 -157 147 -170 ct 145 -183 141 -193 137 -201 ct 133 -209 127 -214 121 -217 ct 
114 -220 107 -222 98 -222 ct 90 -222 82 -220 75 -217 ct 69 -214 63 -208 59 -201 ct 
54 -193 51 -183 48 -170 ct 46 -157 45 -141 45 -122 ct 45 -103 46 -88 49 -75 ct 
51 -62 54 -52 59 -44 ct 63 -36 69 -31 75 -27 ct 82 -24 89 -22 98 -22 ct 106 -22 113 -24 120 -27 ct 
126 -31 132 -36 136 -44 ct 141 -52 144 -62 147 -75 ct 149 -88 151 -103 151 -122 ct 
p ef
pom
1.000 1.000 1.000 c 3145 17101 m  2895 17101 l  2895 16601 l  3395 16601 l 
3395 17101 l  3145 17101 l  p ef
0.003 0.003 0.003 c 3145 17101 m  2895 17101 l  2895 16601 l  3395 16601 l 
3395 17101 l  3145 17101 l  pc
pum
3047 16972 t
0.105 0.105 0.105 c 18 0 m  18 -22 l  24 -35 31 -47 39 -57 ct 48 -68 56 -77 66 -85 ct 
75 -94 84 -101 93 -109 ct 102 -116 111 -123 118 -130 ct 125 -137 131 -145 136 -152 ct 
140 -160 142 -169 142 -179 ct 142 -186 141 -192 139 -197 ct 137 -202 134 -207 130 -210 ct 
127 -214 122 -217 116 -218 ct 111 -220 105 -221 98 -221 ct 92 -221 86 -220 81 -218 ct 
75 -217 71 -214 66 -211 ct 62 -207 59 -203 56 -198 ct 53 -193 52 -187 51 -180 ct 
19 -183 l  20 -192 23 -200 26 -208 ct 30 -215 35 -222 42 -228 ct 49 -234 57 -238 66 -242 ct 
75 -245 86 -247 98 -247 ct 110 -247 121 -245 130 -242 ct 140 -239 148 -235 154 -229 ct 
161 -224 166 -217 169 -209 ct 173 -200 174 -191 174 -180 ct 174 -172 173 -164 170 -157 ct 
167 -149 163 -142 158 -136 ct 153 -129 148 -123 141 -116 ct 135 -110 128 -104 121 -98 ct 
114 -92 107 -86 100 -81 ct 93 -75 86 -69 80 -63 ct 74 -57 68 -51 63 -45 ct 58 -39 54 -33 52 -26 ct 
178 -26 l  178 0 l  18 0 l  p ef
pom
1.000 1.000 1.000 c 3645 17101 m  3395 17101 l  3395 16601 l  3895 16601 l 
3895 17101 l  3645 17101 l  p ef
0.003 0.003 0.003 c 3645 17101 m  3395 17101 l  3395 16601 l  3895 16601 l 
3895 17101 l  3645 17101 l  pc
pum
3547 16972 t
0.105 0.105 0.105 c 151 -55 m  151 0 l  122 0 l  122 -55 l  8 -55 l  8 -79 l 
119 -243 l  151 -243 l  151 -79 l  185 -79 l  185 -55 l  151 -55 l  p
122 -208 m  122 -207 121 -206 120 -205 ct 120 -203 119 -201 117 -199 ct 116 -197 115 -195 114 -193 ct 
113 -191 112 -189 111 -187 ct 49 -96 l  48 -95 47 -94 46 -92 ct 45 -91 44 -89 43 -88 ct 
42 -86 41 -84 39 -83 ct 38 -81 37 -80 37 -79 ct 122 -79 l  122 -208 l  p ef
pom
1.000 1.000 1.000 c 4145 17101 m  3895 17101 l  3895 16601 l  4395 16601 l 
4395 17101 l  4145 17101 l  p ef
0.003 0.003 0.003 c 4145 17101 m  3895 17101 l  3895 16601 l  4395 16601 l 
4395 17101 l  4145 17101 l  pc
pum
4047 16972 t
0.105 0.105 0.105 c 180 -80 m  180 -68 179 -57 175 -47 ct 172 -36 167 -28 160 -20 ct 
154 -13 146 -7 136 -3 ct 126 1 115 3 102 3 ct 88 3 76 0 65 -5 ct 55 -11 46 -18 39 -28 ct 
32 -39 27 -51 23 -66 ct 20 -81 18 -97 18 -116 ct 18 -138 20 -157 24 -173 ct 28 -190 33 -203 41 -214 ct 
48 -225 57 -233 68 -239 ct 79 -244 91 -247 105 -247 ct 113 -247 120 -246 128 -244 ct 
135 -243 141 -240 147 -236 ct 153 -232 158 -227 163 -221 ct 167 -215 171 -207 174 -198 ct 
144 -192 l  141 -203 136 -210 129 -215 ct 122 -220 113 -222 104 -222 ct 96 -222 88 -220 81 -216 ct 
74 -212 68 -206 64 -198 ct 59 -190 55 -180 53 -168 ct 50 -156 49 -142 49 -126 ct 
54 -136 62 -144 72 -150 ct 83 -155 94 -158 107 -158 ct 118 -158 128 -156 137 -153 ct 
146 -149 154 -144 160 -137 ct 167 -130 172 -122 175 -113 ct 179 -103 180 -92 180 -80 ct 
p
149 -79 m  149 -87 148 -95 146 -102 ct 144 -108 141 -114 136 -119 ct 132 -124 127 -128 121 -130 ct 
115 -133 108 -134 100 -134 ct 94 -134 89 -133 83 -131 ct 77 -130 72 -127 67 -123 ct 
63 -120 59 -115 56 -109 ct 53 -102 52 -95 52 -86 ct 52 -77 53 -69 55 -61 ct 57 -53 61 -46 65 -41 ct 
69 -35 75 -30 81 -27 ct 87 -24 94 -22 101 -22 ct 109 -22 115 -23 121 -26 ct 127 -29 132 -32 136 -37 ct 
140 -42 143 -48 146 -55 ct 148 -62 149 -70 149 -79 ct p ef
pom
1.000 1.000 1.000 c 4645 17101 m  4395 17101 l  4395 16601 l  4895 16601 l 
4895 17101 l  4645 17101 l  p ef
0.003 0.003 0.003 c 4645 17101 m  4395 17101 l  4395 16601 l  4895 16601 l 
4895 17101 l  4645 17101 l  pc
pum
4547 16972 t
0.105 0.105 0.105 c 180 -68 m  180 -58 179 -48 176 -40 ct 172 -31 167 -24 161 -17 ct 
154 -11 145 -6 135 -2 ct 125 1 112 3 98 3 ct 84 3 71 1 61 -2 ct 51 -6 42 -11 35 -17 ct 
29 -23 23 -31 20 -40 ct 17 -48 15 -58 15 -68 ct 15 -77 17 -85 19 -92 ct 22 -98 26 -104 30 -109 ct 
35 -114 40 -118 46 -121 ct 51 -125 57 -127 64 -128 ct 64 -128 l  57 -130 51 -132 45 -136 ct 
40 -140 36 -144 32 -149 ct 28 -154 26 -159 24 -165 ct 22 -172 21 -178 21 -185 ct 
21 -193 23 -201 26 -209 ct 29 -216 34 -223 40 -229 ct 47 -234 55 -239 64 -242 ct 
74 -245 85 -247 97 -247 ct 110 -247 122 -245 132 -242 ct 141 -239 149 -234 156 -228 ct 
162 -223 167 -216 170 -209 ct 173 -201 174 -193 174 -184 ct 174 -178 174 -171 172 -165 ct 
170 -159 167 -154 163 -149 ct 160 -144 155 -139 150 -136 ct 145 -132 138 -130 131 -129 ct 
131 -128 l  138 -127 145 -125 151 -122 ct 157 -119 162 -115 166 -110 ct 171 -105 174 -99 177 -92 ct 
179 -85 180 -77 180 -68 ct p
142 -183 m  142 -189 142 -194 140 -199 ct 138 -204 136 -209 132 -212 ct 129 -216 124 -219 118 -221 ct 
113 -223 106 -224 97 -224 ct 89 -224 82 -223 77 -221 ct 71 -219 66 -216 63 -212 ct 
59 -209 57 -204 55 -199 ct 53 -194 53 -189 53 -183 ct 53 -178 53 -173 54 -168 ct 
56 -163 58 -158 61 -154 ct 65 -150 69 -147 75 -144 ct 81 -141 88 -140 98 -140 ct 
107 -140 115 -141 121 -144 ct 127 -147 132 -150 135 -154 ct 138 -158 140 -163 141 -168 ct 
142 -173 142 -178 142 -183 ct p
148 -71 m  148 -77 148 -83 146 -88 ct 144 -94 142 -98 138 -103 ct 134 -107 129 -110 122 -113 ct 
115 -115 107 -117 97 -117 ct 88 -117 81 -115 74 -113 ct 68 -110 63 -107 59 -103 ct 
55 -98 52 -93 50 -88 ct 48 -82 47 -76 47 -70 ct 47 -63 48 -56 50 -50 ct 52 -44 55 -39 59 -34 ct 
63 -30 68 -26 75 -24 ct 81 -21 89 -20 98 -20 ct 108 -20 116 -21 122 -24 ct 128 -26 134 -30 138 -34 ct 
141 -39 144 -44 146 -50 ct 148 -56 148 -63 148 -71 ct p ef
pom
1.000 1.000 1.000 c 5145 17101 m  4895 17101 l  4895 16601 l  5395 16601 l 
5395 17101 l  5145 17101 l  p ef
0.003 0.003 0.003 c 5145 17101 m  4895 17101 l  4895 16601 l  5395 16601 l 
5395 17101 l  5145 17101 l  pc
pum
4950 16972 t
0.105 0.105 0.105 c 27 0 m  27 -26 l  89 -26 l  89 -213 l  34 -174 l  34 -204 l 
91 -243 l  120 -243 l  120 -26 l  179 -26 l  179 0 l  27 0 l  p ef
377 -122 m  377 -99 375 -79 370 -63 ct 366 -47 360 -34 352 -25 ct 345 -15 336 -8 325 -3 ct 
315 1 304 3 292 3 ct 281 3 270 1 259 -3 ct 249 -8 240 -15 233 -24 ct 225 -34 219 -47 215 -63 ct 
211 -79 209 -99 209 -122 ct 209 -146 211 -167 215 -183 ct 219 -199 225 -212 233 -221 ct 
241 -231 249 -237 260 -241 ct 270 -245 281 -247 293 -247 ct 305 -247 316 -245 326 -241 ct 
336 -237 345 -231 353 -221 ct 360 -212 366 -199 370 -183 ct 375 -167 377 -146 377 -122 ct 
p
346 -122 m  346 -141 344 -157 342 -170 ct 340 -183 336 -193 332 -201 ct 328 -209 322 -214 316 -217 ct 
309 -220 302 -222 293 -222 ct 285 -222 277 -220 270 -217 ct 264 -214 258 -208 254 -201 ct 
249 -193 246 -183 243 -170 ct 241 -157 240 -141 240 -122 ct 240 -103 241 -88 244 -75 ct 
246 -62 249 -52 254 -44 ct 258 -36 264 -31 270 -27 ct 277 -24 284 -22 293 -22 ct 
301 -22 308 -24 315 -27 ct 321 -31 327 -36 331 -44 ct 336 -52 339 -62 342 -75 ct 
344 -88 346 -103 346 -122 ct p ef
pom
1.000 1.000 1.000 c 5645 17101 m  5395 17101 l  5395 16601 l  5895 16601 l 
5895 17101 l  5645 17101 l  p ef
0.003 0.003 0.003 c 5645 17101 m  5395 17101 l  5395 16601 l  5895 16601 l 
5895 17101 l  5645 17101 l  pc
pum
5450 16972 t
0.105 0.105 0.105 c 27 0 m  27 -26 l  89 -26 l  89 -213 l  34 -174 l  34 -204 l 
91 -243 l  120 -243 l  120 -26 l  179 -26 l  179 0 l  27 0 l  p ef
213 0 m  213 -22 l  219 -35 226 -47 234 -57 ct 243 -68 251 -77 261 -85 ct 270 -94 279 -101 288 -109 ct 
297 -116 306 -123 313 -130 ct 320 -137 326 -145 331 -152 ct 335 -160 337 -169 337 -179 ct 
337 -186 336 -192 334 -197 ct 332 -202 329 -207 325 -210 ct 322 -214 317 -217 311 -218 ct 
306 -220 300 -221 293 -221 ct 287 -221 281 -220 276 -218 ct 270 -217 266 -214 261 -211 ct 
257 -207 254 -203 251 -198 ct 248 -193 247 -187 246 -180 ct 214 -183 l  215 -192 218 -200 221 -208 ct 
225 -215 230 -222 237 -228 ct 244 -234 252 -238 261 -242 ct 270 -245 281 -247 293 -247 ct 
305 -247 316 -245 325 -242 ct 335 -239 343 -235 349 -229 ct 356 -224 361 -217 364 -209 ct 
368 -200 369 -191 369 -180 ct 369 -172 368 -164 365 -157 ct 362 -149 358 -142 353 -136 ct 
348 -129 343 -123 336 -116 ct 330 -110 323 -104 316 -98 ct 309 -92 302 -86 295 -81 ct 
288 -75 281 -69 275 -63 ct 269 -57 263 -51 258 -45 ct 253 -39 249 -33 247 -26 ct 
373 -26 l  373 0 l  213 0 l  p ef
pom

pum
1402 17024 t
124 -1 m  118 0 112 2 105 3 ct 99 4 92 4 83 4 ct 51 4 35 -14 35 -51 ct 35 -213 l 
7 -213 l  7 -242 l  36 -242 l  48 -297 l  75 -297 l  75 -242 l  120 -242 l 
120 -213 l  75 -213 l  75 -60 l  75 -48 77 -40 81 -35 ct 85 -30 91 -28 101 -28 ct 
105 -28 108 -28 112 -29 ct 116 -30 120 -30 124 -31 ct 124 -1 l  p ef
220 4 m  195 4 177 -2 165 -15 ct 153 -28 146 -46 146 -69 ct 146 -85 149 -98 156 -108 ct 
162 -118 169 -127 179 -132 ct 189 -138 200 -142 213 -145 ct 225 -147 238 -148 251 -148 ct 
305 -148 l  305 -161 l  305 -171 304 -180 302 -187 ct 300 -194 297 -200 292 -204 ct 
288 -209 283 -212 276 -214 ct 270 -216 262 -217 253 -217 ct 246 -217 239 -216 232 -215 ct 
226 -214 221 -212 216 -209 ct 211 -206 208 -202 205 -197 ct 202 -192 200 -186 199 -178 ct 
157 -182 l  159 -192 162 -201 166 -209 ct 170 -217 176 -224 183 -229 ct 191 -235 201 -240 212 -243 ct 
224 -246 238 -248 254 -248 ct 285 -248 308 -241 323 -227 ct 338 -213 346 -192 346 -166 ct 
346 -61 l  346 -49 348 -40 351 -34 ct 354 -28 360 -25 369 -25 ct 371 -25 373 -25 375 -26 ct 
377 -26 380 -26 382 -27 ct 382 -2 l  377 0 372 1 367 1 ct 362 2 356 2 351 2 ct 
343 2 337 1 331 -1 ct 326 -3 321 -6 318 -10 ct 314 -14 312 -20 310 -26 ct 308 -32 307 -39 307 -47 ct 
305 -47 l  301 -39 296 -32 291 -26 ct 286 -20 280 -14 273 -10 ct 266 -5 258 -2 250 0 ct 
241 3 231 4 220 4 ct p
229 -26 m  242 -26 253 -29 262 -33 ct 272 -38 280 -44 286 -51 ct 293 -59 297 -67 301 -75 ct 
304 -84 305 -92 305 -100 ct 305 -120 l  261 -120 l  251 -120 242 -119 233 -118 ct 
224 -117 216 -114 210 -110 ct 203 -106 198 -101 194 -94 ct 190 -88 188 -79 188 -68 ct 
188 -55 191 -44 198 -37 ct 206 -30 216 -26 229 -26 ct p ef
616 -122 m  616 -37 587 5 527 5 ct 509 5 494 2 482 -5 ct 470 -12 460 -22 452 -37 ct 
452 -37 l  452 -33 452 -29 451 -25 ct 451 -21 451 -17 451 -13 ct 450 -10 450 -7 450 -4 ct 
450 -2 450 0 449 1 ct 411 1 l  411 -1 411 -3 411 -6 ct 411 -9 411 -13 411 -18 ct 
412 -22 412 -27 412 -33 ct 412 -38 412 -44 412 -49 ct 412 -332 l  452 -332 l 
452 -237 l  452 -233 452 -228 452 -224 ct 452 -220 452 -216 452 -213 ct 452 -210 451 -206 451 -203 ct 
452 -203 l  460 -218 469 -229 482 -236 ct 494 -243 509 -246 527 -246 ct 558 -246 581 -236 595 -215 ct 
609 -195 616 -163 616 -122 ct p
574 -120 m  574 -137 573 -151 571 -163 ct 569 -175 566 -185 561 -193 ct 556 -200 551 -206 543 -210 ct 
536 -213 527 -215 517 -215 ct 507 -215 497 -213 489 -210 ct 481 -206 474 -201 469 -193 ct 
463 -186 459 -176 456 -163 ct 454 -151 452 -136 452 -118 ct 452 -101 454 -86 456 -74 ct 
459 -62 463 -53 469 -46 ct 474 -38 481 -33 489 -30 ct 497 -26 506 -25 517 -25 ct 
527 -25 535 -27 542 -30 ct 549 -33 555 -39 560 -47 ct 565 -54 568 -64 571 -76 ct 
573 -88 574 -103 574 -120 ct p ef
pom

pum
1480 18126 t
124 -1 m  118 0 112 2 105 3 ct 99 4 92 4 83 4 ct 51 4 35 -14 35 -51 ct 35 -213 l 
7 -213 l  7 -242 l  36 -242 l  48 -297 l  75 -297 l  75 -242 l  120 -242 l 
120 -213 l  75 -213 l  75 -60 l  75 -48 77 -40 81 -35 ct 85 -30 91 -28 101 -28 ct 
105 -28 108 -28 112 -29 ct 116 -30 120 -30 124 -31 ct 124 -1 l  p ef
220 4 m  195 4 177 -2 165 -15 ct 153 -28 146 -46 146 -69 ct 146 -85 149 -98 156 -108 ct 
162 -118 169 -127 179 -132 ct 189 -138 200 -142 213 -145 ct 225 -147 238 -148 251 -148 ct 
305 -148 l  305 -161 l  305 -171 304 -180 302 -187 ct 300 -194 297 -200 292 -204 ct 
288 -209 283 -212 276 -214 ct 270 -216 262 -217 253 -217 ct 246 -217 239 -216 232 -215 ct 
226 -214 221 -212 216 -209 ct 211 -206 208 -202 205 -197 ct 202 -192 200 -186 199 -178 ct 
157 -182 l  159 -192 162 -201 166 -209 ct 170 -217 176 -224 183 -229 ct 191 -235 201 -240 212 -243 ct 
224 -246 238 -248 254 -248 ct 285 -248 308 -241 323 -227 ct 338 -213 346 -192 346 -166 ct 
346 -61 l  346 -49 348 -40 351 -34 ct 354 -28 360 -25 369 -25 ct 371 -25 373 -25 375 -26 ct 
377 -26 380 -26 382 -27 ct 382 -2 l  377 0 372 1 367 1 ct 362 2 356 2 351 2 ct 
343 2 337 1 331 -1 ct 326 -3 321 -6 318 -10 ct 314 -14 312 -20 310 -26 ct 308 -32 307 -39 307 -47 ct 
305 -47 l  301 -39 296 -32 291 -26 ct 286 -20 280 -14 273 -10 ct 266 -5 258 -2 250 0 ct 
241 3 231 4 220 4 ct p
229 -26 m  242 -26 253 -29 262 -33 ct 272 -38 280 -44 286 -51 ct 293 -59 297 -67 301 -75 ct 
304 -84 305 -92 305 -100 ct 305 -120 l  261 -120 l  251 -120 242 -119 233 -118 ct 
224 -117 216 -114 210 -110 ct 203 -106 198 -101 194 -94 ct 190 -88 188 -79 188 -68 ct 
188 -55 191 -44 198 -37 ct 206 -30 216 -26 229 -26 ct p ef
616 -122 m  616 -37 587 5 527 5 ct 509 5 494 2 482 -5 ct 470 -12 460 -22 452 -37 ct 
452 -37 l  452 -33 452 -29 451 -25 ct 451 -21 451 -17 451 -13 ct 450 -10 450 -7 450 -4 ct 
450 -2 450 0 449 1 ct 411 1 l  411 -1 411 -3 411 -6 ct 411 -9 411 -13 411 -18 ct 
412 -22 412 -27 412 -33 ct 412 -38 412 -44 412 -49 ct 412 -332 l  452 -332 l 
452 -237 l  452 -233 452 -228 452 -224 ct 452 -220 452 -216 452 -213 ct 452 -210 451 -206 451 -203 ct 
452 -203 l  460 -218 469 -229 482 -236 ct 494 -243 509 -246 527 -246 ct 558 -246 581 -236 595 -215 ct 
609 -195 616 -163 616 -122 ct p
574 -120 m  574 -137 573 -151 571 -163 ct 569 -175 566 -185 561 -193 ct 556 -200 551 -206 543 -210 ct 
536 -213 527 -215 517 -215 ct 507 -215 497 -213 489 -210 ct 481 -206 474 -201 469 -193 ct 
463 -186 459 -176 456 -163 ct 454 -151 452 -136 452 -118 ct 452 -101 454 -86 456 -74 ct 
459 -62 463 -53 469 -46 ct 474 -38 481 -33 489 -30 ct 497 -26 506 -25 517 -25 ct 
527 -25 535 -27 542 -30 ct 549 -33 555 -39 560 -47 ct 565 -54 568 -64 571 -76 ct 
573 -88 574 -103 574 -120 ct p ef
658 0 m  658 -28 l  666 -46 675 -61 686 -75 ct 697 -88 708 -100 720 -111 ct 
733 -122 744 -132 756 -141 ct 768 -150 779 -160 788 -169 ct 798 -178 806 -188 812 -198 ct 
817 -208 820 -220 820 -232 ct 820 -241 819 -249 816 -256 ct 814 -263 810 -268 805 -273 ct 
800 -278 794 -281 787 -284 ct 779 -286 772 -287 763 -287 ct 755 -287 747 -286 740 -284 ct 
733 -281 727 -278 721 -274 ct 716 -269 711 -264 708 -257 ct 704 -250 702 -243 701 -234 ct 
660 -238 l  661 -249 664 -260 669 -270 ct 674 -280 681 -288 690 -296 ct 698 -303 709 -309 721 -314 ct 
733 -318 747 -320 763 -320 ct 779 -320 793 -318 805 -315 ct 817 -311 827 -305 836 -298 ct 
844 -291 851 -282 855 -271 ct 860 -260 862 -248 862 -234 ct 862 -223 860 -213 856 -204 ct 
852 -194 847 -185 841 -176 ct 835 -168 827 -159 819 -151 ct 810 -143 802 -135 793 -128 ct 
784 -120 774 -112 765 -105 ct 756 -97 747 -90 739 -82 ct 731 -74 724 -67 717 -59 ct 
711 -51 706 -43 702 -34 ct 867 -34 l  867 0 l  658 0 l  p ef
pom
1.000 1.000 1.000 c 2846 18173 m  2596 18173 l  2596 17673 l  3096 17673 l 
3096 18173 l  2846 18173 l  p ef
0.003 0.003 0.003 c 2846 18173 m  2596 18173 l  2596 17673 l  3096 17673 l 
3096 18173 l  2846 18173 l  pc
pum
2748 18044 t
0.105 0.105 0.105 c 27 0 m  27 -26 l  89 -26 l  89 -213 l  34 -174 l  34 -204 l 
91 -243 l  120 -243 l  120 -26 l  179 -26 l  179 0 l  27 0 l  p ef
pom
1.000 1.000 1.000 c 3346 18173 m  3096 18173 l  3096 17673 l  3596 17673 l 
3596 18173 l  3346 18173 l  p ef
0.003 0.003 0.003 c 3346 18173 m  3096 18173 l  3096 17673 l  3596 17673 l 
3596 18173 l  3346 18173 l  pc
pum
3248 18044 t
0.105 0.105 0.105 c 180 -68 m  180 -57 178 -47 175 -38 ct 171 -29 166 -22 159 -16 ct 
152 -10 144 -5 133 -2 ct 123 1 111 3 98 3 ct 83 3 71 1 60 -3 ct 50 -6 42 -11 35 -17 ct 
28 -24 23 -31 20 -39 ct 17 -46 14 -55 13 -63 ct 45 -66 l  46 -60 48 -54 50 -48 ct 
53 -43 56 -38 61 -35 ct 65 -31 70 -28 76 -26 ct 82 -24 90 -23 98 -23 ct 114 -23 126 -27 135 -34 ct 
144 -42 148 -54 148 -69 ct 148 -78 146 -85 142 -90 ct 138 -96 133 -100 127 -103 ct 
122 -106 115 -108 108 -109 ct 101 -110 95 -111 89 -111 ct 72 -111 l  72 -138 l 
88 -138 l  94 -138 100 -138 107 -140 ct 113 -141 119 -143 124 -146 ct 129 -149 133 -154 137 -159 ct 
140 -164 142 -171 142 -180 ct 142 -193 138 -203 130 -210 ct 123 -218 111 -221 96 -221 ct 
83 -221 72 -218 63 -211 ct 55 -204 50 -194 49 -181 ct 18 -184 l  19 -195 22 -204 26 -212 ct 
31 -220 37 -226 44 -231 ct 51 -237 59 -241 68 -243 ct 77 -246 87 -247 97 -247 ct 
110 -247 122 -245 132 -242 ct 141 -239 149 -234 156 -228 ct 162 -222 166 -216 169 -208 ct 
172 -200 174 -192 174 -183 ct 174 -176 173 -169 171 -163 ct 169 -157 166 -151 162 -146 ct 
157 -141 152 -137 146 -134 ct 139 -130 132 -127 123 -125 ct 123 -125 l  133 -124 141 -122 148 -118 ct 
156 -115 162 -111 166 -105 ct 171 -100 174 -95 177 -88 ct 179 -82 180 -75 180 -68 ct 
p ef
pom
1.000 1.000 1.000 c 3846 18173 m  3596 18173 l  3596 17673 l  4096 17673 l 
4096 18173 l  3846 18173 l  p ef
0.003 0.003 0.003 c 3846 18173 m  3596 18173 l  3596 17673 l  4096 17673 l 
4096 18173 l  3846 18173 l  pc
pum
3748 18044 t
0.105 0.105 0.105 c 181 -80 m  181 -67 179 -56 175 -46 ct 172 -36 166 -27 159 -20 ct 
152 -13 143 -7 132 -3 ct 122 1 109 3 95 3 ct 82 3 71 1 62 -1 ct 52 -4 44 -9 38 -14 ct 
31 -19 26 -25 22 -32 ct 18 -39 16 -47 14 -55 ct 45 -58 l  47 -54 48 -49 51 -45 ct 
53 -41 56 -37 60 -33 ct 64 -30 69 -27 75 -25 ct 80 -23 87 -22 96 -22 ct 104 -22 111 -24 118 -26 ct 
124 -29 130 -32 134 -37 ct 139 -42 143 -48 145 -55 ct 148 -62 149 -70 149 -79 ct 
149 -86 148 -93 145 -99 ct 143 -106 139 -111 135 -116 ct 130 -120 125 -124 119 -126 ct 
112 -129 105 -130 96 -130 ct 91 -130 87 -130 82 -129 ct 78 -128 74 -126 70 -125 ct 
66 -123 63 -121 60 -119 ct 57 -117 54 -115 51 -113 ct 21 -113 l  29 -243 l  167 -243 l 
167 -217 l  57 -217 l  53 -140 l  58 -144 65 -148 73 -151 ct 82 -154 91 -155 103 -155 ct 
115 -155 126 -154 135 -150 ct 145 -146 153 -141 160 -134 ct 167 -128 172 -120 175 -110 ct 
179 -101 181 -91 181 -80 ct p ef
pom
1.000 1.000 1.000 c 4346 18173 m  4096 18173 l  4096 17673 l  4596 17673 l 
4596 18173 l  4346 18173 l  p ef
0.003 0.003 0.003 c 4346 18173 m  4096 18173 l  4096 17673 l  4596 17673 l 
4596 18173 l  4346 18173 l  pc
pum
4248 18044 t
0.105 0.105 0.105 c 178 -218 m  166 -200 155 -182 145 -165 ct 134 -147 126 -130 118 -113 ct 
111 -95 105 -77 101 -59 ct 97 -41 95 -21 95 -1 ct 63 -1 l  63 -20 65 -39 70 -58 ct 
74 -76 80 -95 88 -113 ct 96 -131 105 -148 115 -166 ct 126 -183 137 -200 148 -217 ct 
18 -217 l  18 -243 l  178 -243 l  178 -218 l  p ef
pom
1.000 1.000 1.000 c 4846 18173 m  4596 18173 l  4596 17673 l  5096 17673 l 
5096 18173 l  4846 18173 l  p ef
0.003 0.003 0.003 c 4846 18173 m  4596 18173 l  4596 17673 l  5096 17673 l 
5096 18173 l  4846 18173 l  pc
pum
4748 18044 t
0.105 0.105 0.105 c 179 -127 m  179 -105 177 -86 173 -70 ct 169 -54 163 -40 156 -29 ct 
148 -19 139 -11 128 -5 ct 117 0 105 3 91 3 ct 82 3 74 2 66 0 ct 59 -2 52 -5 46 -9 ct 
41 -13 36 -18 31 -24 ct 27 -31 24 -39 21 -48 ct 51 -52 l  54 -42 59 -34 66 -29 ct 
73 -24 82 -22 92 -22 ct 100 -22 108 -24 115 -28 ct 122 -32 128 -38 133 -46 ct 137 -54 141 -64 144 -76 ct 
147 -88 148 -102 149 -118 ct 146 -112 143 -108 139 -103 ct 134 -99 130 -96 124 -93 ct 
119 -90 113 -87 107 -86 ct 101 -84 95 -84 88 -84 ct 77 -84 67 -86 59 -89 ct 50 -93 42 -99 36 -106 ct 
30 -113 25 -122 22 -132 ct 18 -142 17 -153 17 -165 ct 17 -178 18 -189 22 -199 ct 
26 -209 31 -218 38 -225 ct 45 -232 53 -238 63 -241 ct 73 -245 84 -247 97 -247 ct 
124 -247 144 -237 158 -217 ct 172 -197 179 -167 179 -127 ct p
145 -157 m  145 -166 144 -174 142 -182 ct 140 -190 137 -197 133 -203 ct 129 -209 123 -213 117 -217 ct 
111 -220 104 -222 96 -222 ct 89 -222 82 -221 76 -218 ct 70 -215 65 -211 61 -207 ct 
57 -202 54 -196 51 -189 ct 49 -182 48 -174 48 -165 ct 48 -157 49 -150 51 -143 ct 
53 -136 56 -130 60 -124 ct 64 -119 69 -115 75 -112 ct 81 -109 88 -108 96 -108 ct 
101 -108 107 -109 113 -111 ct 119 -113 124 -116 129 -120 ct 134 -124 138 -129 141 -135 ct 
144 -141 145 -149 145 -157 ct p ef
pom
1.000 1.000 1.000 c 5346 18173 m  5096 18173 l  5096 17673 l  5596 17673 l 
5596 18173 l  5346 18173 l  p ef
0.003 0.003 0.003 c 5346 18173 m  5096 18173 l  5096 17673 l  5596 17673 l 
5596 18173 l  5346 18173 l  pc
pum
5164 18044 t
0.105 0.105 0.105 c 27 0 m  27 -26 l  89 -26 l  89 -213 l  34 -174 l  34 -204 l 
91 -243 l  120 -243 l  120 -26 l  179 -26 l  179 0 l  27 0 l  p ef
196 0 m  196 -26 l  258 -26 l  258 -213 l  203 -174 l  203 -204 l  260 -243 l 
289 -243 l  289 -26 l  348 -26 l  348 0 l  196 0 l  p ef
pom
1 lw 0.003 0.003 0.003 c 2645 17101 m  2806 17560 l  ps
2846 17673 m  2843 17515 l  2749 17548 l  2846 17673 l  p ef
3145 17101 m  2902 17567 l  ps
2847 17673 m  2961 17563 l  2872 17517 l  2847 17673 l  p ef
3145 17101 m  3306 17560 l  ps
3346 17673 m  3343 17515 l  3249 17548 l  3346 17673 l  p ef
3645 17101 m  3402 17567 l  ps
3346 17673 m  3460 17563 l  3371 17517 l  3346 17673 l  p ef
0 1866 t 
pom
count op_count sub {pop} repeat countdictstack dict_count sub {end} repeat b4_inc_state restore
%%PageTrailer
%%Trailer
%%EOF
