%!PS-Adobe-3.0 EPSF-3.0 
%%BoundingBox: 0 0 299 299
%%Pages: 0
%%Creator: LibreOffice 3.3
%%Title: none
%%CreationDate: none
%%LanguageLevel: 2
%%EndComments
%%BeginProlog
%%BeginResource: procset SDRes-Prolog 1.0 0
/b4_inc_state save def
/dict_count countdictstack def
/op_count count 1 sub def
userdict begin
0 setgray 0 setlinecap 1 setlinewidth 0 setlinejoin 10 setmiterlimit[] 0 setdash newpath
/languagelevel where {pop languagelevel 1 ne {false setstrokeadjust false setoverprint} if} if
/bdef {bind def} bind def
/c {setgray} bdef
/l {neg lineto} bdef
/rl {neg rlineto} bdef
/lc {setlinecap} bdef
/lj {setlinejoin} bdef
/lw {setlinewidth} bdef
/ml {setmiterlimit} bdef
/ld {setdash} bdef
/m {neg moveto} bdef
/ct {6 2 roll neg 6 2 roll neg 6 2 roll neg curveto} bdef
/r {rotate} bdef
/t {neg translate} bdef
/s {scale} bdef
/sw {show} bdef
/gs {gsave} bdef
/gr {grestore} bdef
/f {findfont dup length dict begin
{1 index /FID ne {def} {pop pop} ifelse} forall /Encoding ISOLatin1Encoding def
currentdict end /NFont exch definefont pop /NFont findfont} bdef
/p {closepath} bdef
/sf {scalefont setfont} bdef
/ef {eofill}bdef
/pc {closepath stroke}bdef
/ps {stroke}bdef
/pum {matrix currentmatrix}bdef
/pom {setmatrix}bdef
/bs {/aString exch def /nXOfs exch def /nWidth exch def currentpoint nXOfs 0 rmoveto pum nWidth aString stringwidth pop div 1 scale aString show pom moveto} bdef
%%EndResource
%%EndProlog
%%BeginSetup
%%EndSetup
%%Page: 1 1
%%BeginPageSetup
%%EndPageSetup
pum
0.02833 0.02833 s 
0 -10553 t
/tm matrix currentmatrix def
tm setmatrix
-4039 -1707 t 
1 1 s 

pum
6292 11474 t
45.0 r 0.898 c 2093 -1090 m  2093 -912 2066 -755 2013 -619 ct 1959 -483 1886 -370 1793 -278 ct 
1700 -187 1590 -117 1463 -70 ct 1337 -23 1200 0 1053 0 ct 255 0 l  255 -2136 l 
961 -2136 l  1126 -2136 1277 -2115 1416 -2074 ct 1555 -2033 1675 -1970 1775 -1885 ct 
1875 -1799 1953 -1691 2009 -1560 ct 2065 -1428 2093 -1272 2093 -1090 ct p
1802 -1090 m  1802 -1234 1781 -1358 1740 -1460 ct 1699 -1563 1640 -1647 1566 -1713 ct 
1491 -1778 1401 -1827 1297 -1857 ct 1193 -1888 1079 -1904 955 -1904 ct 544 -1904 l 
544 -232 l  1020 -232 l  1132 -232 1236 -250 1331 -286 ct 1427 -323 1510 -377 1579 -449 ct 
1649 -520 1704 -610 1743 -717 ct 1782 -824 1802 -948 1802 -1090 ct p ef
4003 0 m  3448 -887 l  2783 -887 l  2783 0 l  2494 0 l  2494 -2136 l  3498 -2136 l 
3620 -2136 3727 -2122 3821 -2094 ct 3914 -2066 3993 -2026 4056 -1973 ct 4120 -1921 4168 -1857 4202 -1781 ct 
4235 -1705 4252 -1620 4252 -1525 ct 4252 -1457 4242 -1390 4222 -1325 ct 4202 -1259 4171 -1199 4129 -1144 ct 
4087 -1090 4032 -1043 3967 -1003 ct 3901 -964 3822 -936 3730 -920 ct 4337 0 l 
4003 0 l  p
3961 -1522 m  3961 -1586 3950 -1642 3927 -1690 ct 3905 -1737 3873 -1777 3830 -1809 ct 
3788 -1841 3736 -1864 3676 -1880 ct 3615 -1896 3546 -1904 3470 -1904 ct 2783 -1904 l 
2783 -1116 l  3482 -1116 l  3565 -1116 3636 -1126 3697 -1147 ct 3758 -1167 3807 -1196 3846 -1232 ct 
3885 -1269 3914 -1312 3933 -1361 ct 3951 -1411 3961 -1464 3961 -1522 ct p ef
6248 0 m  6004 -624 l  5031 -624 l  4785 0 l  4485 0 l  5357 -2136 l  5685 -2136 l 
6543 0 l  6248 0 l  p
5643 -1555 m  5627 -1595 5611 -1636 5597 -1678 ct 5582 -1719 5569 -1757 5558 -1791 ct 
5547 -1825 5538 -1853 5530 -1876 ct 5523 -1898 5518 -1912 5517 -1917 ct 5515 -1912 5511 -1898 5504 -1875 ct 
5496 -1852 5487 -1823 5476 -1788 ct 5464 -1754 5451 -1716 5436 -1675 ct 5421 -1633 5407 -1592 5391 -1552 ct 
5119 -850 l  5917 -850 l  5643 -1555 l  p ef
7093 -1899 m  7093 -1105 l  8284 -1105 l  8284 -865 l  7093 -865 l  7093 0 l 
6804 0 l  6804 -2136 l  8321 -2136 l  8321 -1899 l  7093 -1899 l  p ef
9537 -1899 m  9537 0 l  9249 0 l  9249 -1899 l  8516 -1899 l  8516 -2136 l 
10271 -2136 l  10271 -1899 l  9537 -1899 l  p ef
pom
0 10553 t 
pom
count op_count sub {pop} repeat countdictstack dict_count sub {end} repeat b4_inc_state restore
%%PageTrailer
%%Trailer
%%EOF
