%!PS-Adobe-3.0 EPSF-3.0 
%%BoundingBox: 0 0 601 74
%%Pages: 0
%%Creator: Sun Microsystems, Inc.
%%Title: none
%%CreationDate: none
%%LanguageLevel: 2
%%EndComments
%%BeginProlog
%%BeginResource: procset SDRes-Prolog 1.0 0
/b4_inc_state save def
/dict_count countdictstack def
/op_count count 1 sub def
userdict begin
0 setgray 0 setlinecap 1 setlinewidth 0 setlinejoin 10 setmiterlimit[] 0 setdash newpath
/languagelevel where {pop languagelevel 1 ne {false setstrokeadjust false setoverprint} if} if
/bdef {bind def} bind def
/c {setrgbcolor} bdef
/l {neg lineto} bdef
/rl {neg rlineto} bdef
/lc {setlinecap} bdef
/lj {setlinejoin} bdef
/lw {setlinewidth} bdef
/ml {setmiterlimit} bdef
/ld {setdash} bdef
/m {neg moveto} bdef
/ct {6 2 roll neg 6 2 roll neg 6 2 roll neg curveto} bdef
/r {rotate} bdef
/t {neg translate} bdef
/s {scale} bdef
/sw {show} bdef
/gs {gsave} bdef
/gr {grestore} bdef
/f {findfont dup length dict begin
{1 index /FID ne {def} {pop pop} ifelse} forall /Encoding ISOLatin1Encoding def
currentdict end /NFont exch definefont pop /NFont findfont} bdef
/p {closepath} bdef
/sf {scalefont setfont} bdef
/ef {eofill}bdef
/pc {closepath stroke}bdef
/ps {stroke}bdef
/pum {matrix currentmatrix}bdef
/pom {setmatrix}bdef
/bs {/aString exch def /nXOfs exch def /nWidth exch def currentpoint nXOfs 0 rmoveto pum nWidth aString stringwidth pop div 1 scale aString show pom moveto} bdef
%%EndResource
%%EndProlog
%%BeginSetup
%%EndSetup
%%Page: 1 1
%%BeginPageSetup
%%EndPageSetup
pum
0.02834 0.02842 s 
0 -2603 t
/tm matrix currentmatrix def
tm setmatrix
701 -2399 t 
1 1 s 
0 lw 1 lj 0.003 0.003 0.003 c -700 4000 m  20500 4000 l  ps
-700 3400 m  20500 3400 l  ps
500 4000 m  200 4000 l  200 3400 l  800 3400 l  800 4000 l  500 4000 l 
pc
1100 4000 m  800 4000 l  800 3400 l  1400 3400 l  1400 4000 l  1100 4000 l 
pc
1700 4000 m  1400 4000 l  1400 3400 l  2000 3400 l  2000 4000 l  1700 4000 l 
pc
2300 4000 m  2000 4000 l  2000 3400 l  2600 3400 l  2600 4000 l  2300 4000 l 
pc
2900 4000 m  2600 4000 l  2600 3400 l  3200 3400 l  3200 4000 l  2900 4000 l 
pc
3500 4000 m  3200 4000 l  3200 3400 l  3800 3400 l  3800 4000 l  3500 4000 l 
pc
4100 4000 m  3800 4000 l  3800 3400 l  4400 3400 l  4400 4000 l  4100 4000 l 
pc
4700 4000 m  4400 4000 l  4400 3400 l  5000 3400 l  5000 4000 l  4700 4000 l 
pc
5300 4000 m  5000 4000 l  5000 3400 l  5600 3400 l  5600 4000 l  5300 4000 l 
pc
5900 4000 m  5600 4000 l  5600 3400 l  6200 3400 l  6200 4000 l  5900 4000 l 
pc
6500 4000 m  6200 4000 l  6200 3400 l  6800 3400 l  6800 4000 l  6500 4000 l 
pc
7100 4000 m  6800 4000 l  6800 3400 l  7400 3400 l  7400 4000 l  7100 4000 l 
pc
7700 4000 m  7400 4000 l  7400 3400 l  8000 3400 l  8000 4000 l  7700 4000 l 
pc
8300 4000 m  8000 4000 l  8000 3400 l  8600 3400 l  8600 4000 l  8300 4000 l 
pc
8900 4000 m  8600 4000 l  8600 3400 l  9200 3400 l  9200 4000 l  8900 4000 l 
pc
9500 4000 m  9200 4000 l  9200 3400 l  9800 3400 l  9800 4000 l  9500 4000 l 
pc
10100 4000 m  9800 4000 l  9800 3400 l  10400 3400 l  10400 4000 l  10100 4000 l 
pc
10700 4000 m  10400 4000 l  10400 3400 l  11000 3400 l  11000 4000 l  10700 4000 l 
pc
11300 4000 m  11000 4000 l  11000 3400 l  11600 3400 l  11600 4000 l  11300 4000 l 
pc
11900 4000 m  11600 4000 l  11600 3400 l  12200 3400 l  12200 4000 l  11900 4000 l 
pc
12500 4000 m  12200 4000 l  12200 3400 l  12800 3400 l  12800 4000 l  12500 4000 l 
pc
13100 4000 m  12800 4000 l  12800 3400 l  13400 3400 l  13400 4000 l  13100 4000 l 
pc
13700 4000 m  13400 4000 l  13400 3400 l  14000 3400 l  14000 4000 l  13700 4000 l 
pc
14300 4000 m  14000 4000 l  14000 3400 l  14600 3400 l  14600 4000 l  14300 4000 l 
pc
200 lw 0.945 0.355 0.136 c 2600 4100 m  700 4100 l  700 3300 l  4500 3300 l 
4500 4100 l  2600 4100 l  pc
0.402 0.800 0.402 c 6800 4100 m  4900 4100 l  4900 3300 l  8700 3300 l 
8700 4100 l  6800 4100 l  pc

pum
849 3101 t
0.945 0.355 0.136 c 172 -2 m  163 0 155 2 146 3 ct 137 4 127 5 115 5 ct 71 5 48 -20 48 -71 ct 
48 -295 l  10 -295 l  10 -336 l  51 -336 l  67 -411 l  104 -411 l  104 -336 l 
166 -336 l  166 -295 l  104 -295 l  104 -83 l  104 -67 107 -56 112 -49 ct 
117 -43 127 -39 140 -39 ct 145 -39 150 -40 155 -41 ct 160 -41 166 -42 172 -44 ct 
172 -2 l  p ef
226 0 m  226 -47 l  338 -47 l  338 -384 l  239 -314 l  239 -366 l  342 -438 l 
394 -438 l  394 -47 l  500 -47 l  500 0 l  226 0 l  p ef
pom

pum
5150 3101 t
0.402 0.800 0.402 c 172 -2 m  163 0 155 2 146 3 ct 137 4 127 5 115 5 ct 71 5 48 -20 48 -71 ct 
48 -295 l  10 -295 l  10 -336 l  51 -336 l  67 -411 l  104 -411 l  104 -336 l 
166 -336 l  166 -295 l  104 -295 l  104 -83 l  104 -67 107 -56 112 -49 ct 
117 -43 127 -39 140 -39 ct 145 -39 150 -40 155 -41 ct 160 -41 166 -42 172 -44 ct 
172 -2 l  p ef
210 0 m  210 -39 l  220 -64 233 -85 249 -104 ct 264 -122 280 -139 296 -154 ct 
313 -169 330 -183 346 -196 ct 363 -208 377 -221 391 -234 ct 404 -247 415 -260 423 -274 ct 
431 -289 435 -304 435 -322 ct 435 -335 433 -346 429 -355 ct 426 -364 420 -372 413 -379 ct 
406 -385 398 -390 388 -393 ct 378 -396 367 -398 355 -398 ct 344 -398 334 -396 324 -393 ct 
314 -390 305 -386 298 -379 ct 290 -373 284 -365 279 -356 ct 274 -347 271 -336 269 -324 ct 
212 -329 l  214 -345 219 -360 225 -374 ct 232 -388 242 -400 254 -410 ct 266 -421 280 -429 297 -435 ct 
314 -441 333 -444 355 -444 ct 377 -444 396 -441 413 -436 ct 430 -431 445 -423 456 -413 ct 
468 -403 477 -391 483 -376 ct 489 -361 492 -344 492 -324 ct 492 -309 490 -295 485 -282 ct 
479 -269 472 -256 463 -244 ct 455 -232 444 -221 433 -210 ct 421 -198 409 -187 397 -177 ct 
384 -166 371 -156 358 -145 ct 346 -135 334 -124 322 -114 ct 311 -103 301 -92 292 -81 ct 
283 -71 276 -59 271 -47 ct 499 -47 l  499 0 l  210 0 l  p ef
pom
0.910 0.882 0.800 c 10100 4100 m  9700 4100 l  9700 3300 l  10500 3300 l 
10500 4100 l  10100 4100 l  pc

pum
9650 3101 t
0.003 0.003 0.003 c 326 -170 m  326 -144 324 -121 320 -99 ct 316 -78 309 -59 300 -43 ct 
290 -28 277 -16 262 -7 ct 246 2 226 6 203 6 ct 179 6 158 2 140 -7 ct 122 -17 108 -31 99 -52 ct 
97 -52 l  98 -52 98 -50 98 -47 ct 98 -43 98 -39 98 -34 ct 98 -29 98 -24 98 -17 ct 
99 -11 99 -5 99 1 ct 99 132 l  43 132 l  43 -267 l  43 -275 43 -283 43 -290 ct 
43 -298 42 -305 42 -311 ct 42 -317 42 -322 42 -326 ct 41 -331 41 -334 41 -336 ct 
95 -336 l  95 -335 95 -333 96 -329 ct 96 -326 96 -321 97 -316 ct 97 -311 97 -305 98 -299 ct 
98 -293 98 -287 98 -282 ct 99 -282 l  104 -293 110 -302 117 -310 ct 124 -317 131 -323 140 -328 ct 
148 -333 157 -337 168 -339 ct 178 -341 190 -342 203 -342 ct 226 -342 246 -338 262 -330 ct 
277 -321 290 -310 300 -295 ct 309 -280 316 -261 320 -240 ct 324 -219 326 -195 326 -170 ct 
p
268 -168 m  268 -189 267 -207 264 -224 ct 262 -240 257 -253 251 -265 ct 245 -276 237 -284 227 -290 ct 
217 -296 204 -299 189 -299 ct 176 -299 165 -297 154 -294 ct 143 -290 133 -283 125 -273 ct 
117 -263 110 -250 106 -232 ct 101 -215 99 -192 99 -164 ct 99 -140 101 -120 104 -104 ct 
108 -87 114 -74 122 -64 ct 129 -53 139 -46 150 -42 ct 161 -37 174 -35 188 -35 ct 
204 -35 217 -38 227 -44 ct 237 -50 245 -59 251 -70 ct 257 -82 262 -95 264 -112 ct 
267 -128 268 -147 268 -168 ct p ef
523 -2 m  514 0 506 2 497 3 ct 488 4 478 5 466 5 ct 422 5 399 -20 399 -71 ct 399 -295 l 
361 -295 l  361 -336 l  402 -336 l  418 -411 l  455 -411 l  455 -336 l 
517 -336 l  517 -295 l  455 -295 l  455 -83 l  455 -67 458 -56 463 -49 ct 
468 -43 478 -39 491 -39 ct 496 -39 501 -40 506 -41 ct 511 -41 517 -42 523 -44 ct 
523 -2 l  p ef
577 0 m  577 -47 l  689 -47 l  689 -384 l  590 -314 l  590 -366 l  693 -438 l 
745 -438 l  745 -47 l  851 -47 l  851 0 l  577 0 l  p ef
pom
0.101 0.500 0.750 c 11901 4100 m  11501 4100 l  11501 3300 l  12301 3300 l 
12301 4100 l  11901 4100 l  pc

pum
11451 3101 t
0.003 0.003 0.003 c 326 -170 m  326 -144 324 -121 320 -99 ct 316 -78 309 -59 300 -43 ct 
290 -28 277 -16 262 -7 ct 246 2 226 6 203 6 ct 179 6 158 2 140 -7 ct 122 -17 108 -31 99 -52 ct 
97 -52 l  98 -52 98 -50 98 -47 ct 98 -43 98 -39 98 -34 ct 98 -29 98 -24 98 -17 ct 
99 -11 99 -5 99 1 ct 99 132 l  43 132 l  43 -267 l  43 -275 43 -283 43 -290 ct 
43 -298 42 -305 42 -311 ct 42 -317 42 -322 42 -326 ct 41 -331 41 -334 41 -336 ct 
95 -336 l  95 -335 95 -333 96 -329 ct 96 -326 96 -321 97 -316 ct 97 -311 97 -305 98 -299 ct 
98 -293 98 -287 98 -282 ct 99 -282 l  104 -293 110 -302 117 -310 ct 124 -317 131 -323 140 -328 ct 
148 -333 157 -337 168 -339 ct 178 -341 190 -342 203 -342 ct 226 -342 246 -338 262 -330 ct 
277 -321 290 -310 300 -295 ct 309 -280 316 -261 320 -240 ct 324 -219 326 -195 326 -170 ct 
p
268 -168 m  268 -189 267 -207 264 -224 ct 262 -240 257 -253 251 -265 ct 245 -276 237 -284 227 -290 ct 
217 -296 204 -299 189 -299 ct 176 -299 165 -297 154 -294 ct 143 -290 133 -283 125 -273 ct 
117 -263 110 -250 106 -232 ct 101 -215 99 -192 99 -164 ct 99 -140 101 -120 104 -104 ct 
108 -87 114 -74 122 -64 ct 129 -53 139 -46 150 -42 ct 161 -37 174 -35 188 -35 ct 
204 -35 217 -38 227 -44 ct 237 -50 245 -59 251 -70 ct 257 -82 262 -95 264 -112 ct 
267 -128 268 -147 268 -168 ct p ef
523 -2 m  514 0 506 2 497 3 ct 488 4 478 5 466 5 ct 422 5 399 -20 399 -71 ct 399 -295 l 
361 -295 l  361 -336 l  402 -336 l  418 -411 l  455 -411 l  455 -336 l 
517 -336 l  517 -295 l  455 -295 l  455 -83 l  455 -67 458 -56 463 -49 ct 
468 -43 478 -39 491 -39 ct 496 -39 501 -40 506 -41 ct 511 -41 517 -42 523 -44 ct 
523 -2 l  p ef
561 0 m  561 -39 l  571 -64 584 -85 600 -104 ct 615 -122 631 -139 647 -154 ct 
664 -169 681 -183 697 -196 ct 714 -208 728 -221 742 -234 ct 755 -247 766 -260 774 -274 ct 
782 -289 786 -304 786 -322 ct 786 -335 784 -346 780 -355 ct 777 -364 771 -372 764 -379 ct 
757 -385 749 -390 739 -393 ct 729 -396 718 -398 706 -398 ct 695 -398 685 -396 675 -393 ct 
665 -390 656 -386 649 -379 ct 641 -373 635 -365 630 -356 ct 625 -347 622 -336 620 -324 ct 
563 -329 l  565 -345 570 -360 576 -374 ct 583 -388 593 -400 605 -410 ct 617 -421 631 -429 648 -435 ct 
665 -441 684 -444 706 -444 ct 728 -444 747 -441 764 -436 ct 781 -431 796 -423 807 -413 ct 
819 -403 828 -391 834 -376 ct 840 -361 843 -344 843 -324 ct 843 -309 841 -295 836 -282 ct 
830 -269 823 -256 814 -244 ct 806 -232 795 -221 784 -210 ct 772 -198 760 -187 748 -177 ct 
735 -166 722 -156 709 -145 ct 697 -135 685 -124 673 -114 ct 662 -103 652 -92 643 -81 ct 
634 -71 627 -59 622 -47 ct 850 -47 l  850 0 l  561 0 l  p ef
pom
1 lw 0 lj 11901 4100 m  11901 4700 l  5301 4700 l  5301 4360 l  ps
5301 4000 m  5151 4450 l  5451 4450 l  5301 4000 l  p ef
10100 4100 m  10100 5000 l  800 5000 l  800 4360 l  ps
800 4000 m  650 4450 l  950 4450 l  800 4000 l  p ef
0 lw 1 lj 14900 4000 m  14600 4000 l  14600 3400 l  15200 3400 l  15200 4000 l 
14900 4000 l  pc
15500 4000 m  15200 4000 l  15200 3400 l  15800 3400 l  15800 4000 l  15500 4000 l 
pc
16100 4000 m  15800 4000 l  15800 3400 l  16400 3400 l  16400 4000 l  16100 4000 l 
pc
16700 4000 m  16400 4000 l  16400 3400 l  17000 3400 l  17000 4000 l  16700 4000 l 
pc
17300 4000 m  17000 4000 l  17000 3400 l  17600 3400 l  17600 4000 l  17300 4000 l 
pc
17900 4000 m  17600 4000 l  17600 3400 l  18200 3400 l  18200 4000 l  17900 4000 l 
pc
18500 4000 m  18200 4000 l  18200 3400 l  18800 3400 l  18800 4000 l  18500 4000 l 
pc
19100 4000 m  18800 4000 l  18800 3400 l  19400 3400 l  19400 4000 l  19100 4000 l 
pc
19700 4000 m  19400 4000 l  19400 3400 l  20000 3400 l  20000 4000 l  19700 4000 l 
pc
0 2603 t 
pom
count op_count sub {pop} repeat countdictstack dict_count sub {end} repeat b4_inc_state restore
%%PageTrailer
%%Trailer
%%EOF
