%!PS-Adobe-3.0 EPSF-3.0
%%Creator: GIMP PostScript file plugin V 1,17 by Peter Kirchgessner
%%Title: pi.eps
%%CreationDate: Sun Mar 20 14:33:14 2011
%%DocumentData: Clean7Bit
%%LanguageLevel: 2
%%Pages: 1
%%BoundingBox: 14 14 144 142
%%EndComments
%%BeginProlog
% Use own dictionary to avoid conflicts
10 dict begin
%%EndProlog
%%Page: 1 1
% Translate for offset
14.173228346456694 14.173228346456694 translate
% Translate to begin of first scanline
0 126.92443295334353 translate
129.62495280341466 -126.92443295334353 scale
% Image geometry
144 141 8
% Transformation matrix
[ 144 0 0 141 0 0 ]
% Strings to hold RGB-samples per scanline
/rstr 144 string def
/gstr 144 string def
/bstr 144 string def
{currentfile /ASCII85Decode filter /RunLengthDecode filter rstr readstring pop}
{currentfile /ASCII85Decode filter /RunLengthDecode filter gstr readstring pop}
{currentfile /ASCII85Decode filter /RunLengthDecode filter bstr readstring pop}
true 3
%%BeginData:         5880 ASCII Bytes
colorimage
b5_D?XT*e~>
b5_D?XT*e~>
b5_D?XT*e~>
aoDA@X8d\~>
aoDA@X8d\~>
aoDA@X8d\~>
aoDA@ZMsn)qu;0~>
aoDA@ZMsn)qu;0~>
aoDA@ZMsn)qu;0~>
aoDA@ZiC%*qu;0~>
aoDA@ZiC%*qu;0~>
aoDA@ZiC%*qu;0~>
aoDA@ZiC")r;V9~>
aoDA@ZiC")r;V9~>
aoDA@ZiC")r;V9~>
aoDA@[/U4.rr<&ss*t~>
aoDA@[/U4.rr<&ss*t~>
aoDA@[/U4.rr<&ss*t~>
aoDA@[/U4.s8N)ss*t~>
aoDA@[/U4.s8N)ss*t~>
aoDA@[/U4.s8N)ss*t~>
aoDA@[/U7/s8N'!rVqB~>
aoDA@[/U7/s8N'!rVqB~>
aoDA@[/U7/s8N'!rVqB~>
bPqYErr<&,s8)fps*t~>
bPqYErr<&,s8)fps*t~>
bPqYErr<&,s8)fps*t~>
bQ%PA[/U++rVultrr7K~>
bQ%PA[/U++rVultrr7K~>
bQ%PA[/U++rVultrr7K~>
JcGZJrrE#trrE&uJ,~>
JcGZJrrE#trrE&uJ,~>
JcGZJrrE#trrE&uJ,~>
JcGZJrrE#trW)uuJ,~>
JcGZJrrE#trW)uuJ,~>
JcGZJrrE#trW)uuJ,~>
JcG9?J,~>
JcG9?J,~>
JcG9?J,~>
JcG9?J,~>
JcG9?J,~>
JcG9?J,~>
JcG9?J,~>
JcG9?J,~>
JcG9?J,~>
JcG9?J,~>
_uIOQn,In~>
_uIOQn,In~>
^Al4Rmf.e~>
_uB]:rVsk;n,In~>
a8bo7a8Z,>n,In~>
[K"SRmf.e~>
_uB]:o`*5;n,In~>
d/W5.d/O(Gn,In~>
ZN&ARmf.e~>
_uB]:nc.#;n,In~>
e,S>+e,KCJn,In~>
YQ*/Rmf.e~>
_uB]:mf1f;n,In~>
f)OG(f)G^Mn,In~>
XT-rRmf.e~>
_uB]:li5T;n,In~>
g&KP%g&D$Pn,In~>
WW1`Rmf.e~>
_uB]:kl9B;n,In~>
h#GY"h#@?Sn,In~>
VuPTRmf.e~>
_uB]:k5X6;n,In~>
hZ(^uhZ!QUn,In~>
VZ5NRmf.e~>
_uB]:jo=0;n,In~>
huCathu<ZVn,In~>
V#TBRmf.e~>
_uB]:j8\$;n,In~>
iW$griVrlXn,In~>
UAs6Rmf.e~>
_uB]:iW%m;n,In~>
j8Zmpj8T)Zn,In~>
T`=*Rmf.e~>
_uB]:huDa;n,In~>
jo;snjo5;\n,In~>
TE"$Rmf.e~>
_uB]:hZ)[;n,In~>
k5W!mk5PD]n,In~>
T)[sRmf.e~>
_uB]:h>cU;n,In~>
kPr$lkPkM^n,In~>
SH%gRmf.e~>
_uB]:g]-I;n,In~>
l2S*jl2L_`n,In~>
S,_aRmf.e~>
_uB]:gAgC;n,In~>
lMn-ilMghan,In~>
RfD[Rmf.e~>
_uB]:g&L=;n,In~>
li40hli-qbn,In~>
RK)URmf.e~>
_uB]:f`17;n,In~>
m/O3gm/I%cn,In~>
QiHIRmf.e~>
_uB]:f)P+;n,In~>
mf09emf*7en,In~>
QN-CRmf.e~>
_uB]:ec5%;n,In~>
n,K<dn,E@fn,In~>
Q2g=Rmf.e~>
_uB]:eGnt;n,In~>
nGf?cnG`Ign,In~>
Q2g=Rmf.e~>
_uB]:eGnt;n,In~>
nGf?cnG`Ign,In~>
PlL7Rmf.e~>
_uB]:e,Sn;n,In~>
nc,Bbnc&Rhn,In~>
PQ11Rmf.e~>
_uB]:df8h;n,In~>
o)GEao)A[in,In~>
P5k+Rmf.e~>
_uB]:dJrb;n,In~>
oDbH`oD\djn,In~>
OoP%Rmf.e~>
_uB]:d/W\;n,In~>
o`(K_o`"mkn,In~>
OT4tRmf.e~>
_uB]:ci<V;n,In~>
o`(H^p&>!ln,In~>
OT4tRmf.e~>
_uB]:ci<V;n,In~>
p&CN^p&>!ln,In~>
O8nnRmf.e~>
_uB]:cN!P;n,In~>
pA^Q]pAY*mn,In~>
NrShRmf.e~>
_uB]:c2[J;n,In~>
p]$T\p\t3nn,In~>
NrShRmf.e~>
_uB]:c2[J;n,In~>
p]$T\p\t3nn,In~>
NW8bRmf.e~>
_uB]:bl@D;n,In~>
q#?W[q#:<on,In~>
NW8bRmf.e~>
_uB]:bl@D;n,In~>
q#?W[q#:<on,In~>
N;r\Rmf.e~>
_uB]:bQ%>;n,In~>
q>ZZZq>UEpn,In~>
MuWVRmf.e~>
_uB]:b5_8;n,In~>
q>ZWYqYpNqn,In~>
MuWVRmf.e~>
_uB]:b5_8;n,In~>
qYu]YqYpNqn,In~>
MZ<PRmf.e~>
_uB]:aoD2;n,In~>
qu;`Xqu6Wrn,In~>
MZ<PRmf.e~>
_uB]:aoD2;n,In~>
qu;`Xqu6Wrn,In~>
M?!JRmf.e~>
_uB]:aT),;n,In~>
r;VcWr;Q`sn,In~>
M?!JRmf.e~>
_uB]:aT),;n,In~>
r;VcWr;Q`sn,In~>
M#[DRmf.e~>
_uB]:a8c&;n,In~>
r;V`VrVlitn,In~>
M#[DRmf.e~>
_uB]:a8c&;n,In~>
rVqfVrVlitn,In~>
M#[DRmf.e~>
_uB]:a8c&;n,In~>
rVqfVrVlitn,In~>
M#[DRmf.e~>
_uB]:a8c&;n,In~>
rVqfVrVlitn,In~>
L]@>Rmf.e~>
_uB]:`rGu;n,In~>
rr7iUrr2run,In~>
L]@>Rmf.e~>
_uB]:`rGu;n,In~>
rr7iUrr2run,In~>
L]@>Rmf.e~>
_uB]:`rGu;n,In~>
rr7iUrr2run,In~>
LB%8Rmf.e~>
_uB]:`W,o;n,In~>
s8RlTs8N'!n,In~>
LB%8Rmf.e~>
_uB]:`W,o;n,In~>
s8RlTs8N'!n,In~>
LB%8Rmf.e~>
_uB]:`W,o;n,In~>
s8RlTs8N'!n,In~>
L&V,Qmf.e~>
_uB]:`;fi;n,In~>
!<7cR!WN/gs*t~>
L&V,Qmf.e~>
_uB]:`;fi;n,In~>
!<7cR!WN/gs*t~>
L&V,Qmf.e~>
_uB]:`;fi;n,In~>
!<7cR!WN/gs*t~>
L&V,Qmf.e~>
_uB]:`;fi;n,In~>
!<7cR!WN/gs*t~>
L&V,Qmf.e~>
_uB]:`;fi;n,In~>
!<7cR!WN/gs*t~>
L&V,Qmf.e~>
_uB]:`;fi;n,In~>
!<7cR!WN/gs*t~>
L&V,Qmf.e~>
_uB]:`;fi;n,In~>
!<7cR!WN/gs*t~>
L&V,Qmf.e~>
_uB]:`;fi;n,In~>
!<7cR!WN/gs*t~>
JcG9?J,~>
_uB]:_uB]:n,In~>
!<7]Pn,In~>
JcG9?J,~>
_uB]:_uB]:n,In~>
K)kB?J,~>
JcG9?J,~>
_uB]:_uB]:n,In~>
K)kB?J,~>
JcG9?J,~>
_uB]:_uB]:n,In~>
K)kB?J,~>
JcG9?J,~>
_uB]:_uB]:n,In~>
K)kB?J,~>
JcG9?J,~>
_uIOQn,In~>
K)kB?J,~>
JcGZJr;c]oJ,~>
JcGZJr;c]oJ,~>
KE1iJr;c]oJ,~>
JcGWIrrDlpJ,~>
JcGWIrrDlpJ,~>
KE1fIrrDlpJ,~>
JcGWIrrDlpJ,~>
JcGWIrrDlpJ,~>
KE1fIrrDlpJ,~>
JcGWIrrDlpJ,~>
JcGWIrrDlpJ,~>
KE1fIrrDlpJ,~>
JcGWIrrDlpJ,~>
JcGWIrrDlpJ,~>
!<7`Qq#C?oq>Ys~>
JcGWIrrDlpJ,~>
JcGWIrrDlpJ,~>
!<7cRp](6nq>Ys~>
JcGWIrrDlpJ,~>
JcGWIrrDlpJ,~>
!<7cRp](6nq>Ys~>
cN!eBZiC%*q>Ys~>
cN!eBZiC%*q>Ys~>
!<7cRp](6nq>Ys~>
ci3tFrVult[/^.+q>Ys~>
ci3tFrVult[/^.+q>Ys~>
!<7cRp](6nq>Ys~>
d/X+Gr;Zcs[K$1*qu;0~>
d/X+Gr;Zcs[K$1*qu;0~>
!<7cRp](0lqu;0~>
dJs4Hqu?ZrX8d\~>
dJs4Hqu?ZrX8d\~>
!<7cRmJh\~>
dJs4Hqu?ZrX8d\~>
dJs4Hqu?ZrX8d\~>
!<7cRmJh\~>
dJs4Hqu?ZrX8d\~>
dJs4Hqu?ZrX8d\~>
!<7cRmJh\~>
dJs4Hqu?ZrX8d\~>
dJs4Hqu?ZrX8d\~>
s8RlTm/MS~>
d/X+Gr;ZcsX8d\~>
d/X+Gr;ZcsX8d\~>
s8RlTm/MS~>
ci3tFrVultWrIS~>
ci3tFrVultWrIS~>
s8RlTm/MS~>
cN!eBWW.J~>
cN!eBWW.J~>
rr7iUli2J~>
JcG9?J,~>
JcG9?J,~>
rr7iUli2J~>
JcG9?J,~>
JcG9?J,~>
rr7iUli2J~>
JcG9?J,~>
JcG9?J,~>
rVqfVlMlA~>
JcG9?J,~>
JcG9?J,~>
rVqfVlMlA~>
JcG9?J,~>
JcG9?J,~>
rVqfVlMlA~>
JcG9?J,~>
JcG9?J,~>
r;V`VlMlA~>
JcG9?J,~>
JcG9?J,~>
r;VcWl2Q8~>
JcG9?J,~>
JcG9?J,~>
r;VcWl2Q8~>
JcG9?J,~>
JcG9?J,~>
qu;`Xkl6/~>
JcG9?J,~>
JcG9?J,~>
qu;`Xkl6/~>
JcG9?J,~>
JcG9?J,~>
qYu]YkPp&~>
JcG9?J,~>
JcG9?J,~>
q>ZWYkPp&~>
JcG9?J,~>
JcG9?J,~>
q>ZZZk5Tr~>
JcG9?J,~>
JcG9?J,~>
q#?W[jo9i~>
JcG9?J,~>
JcG9?J,~>
q#?W[jo9i~>
JcG9?J,~>
JcG9?J,~>
p]$T\jSs`~>
JcG9?J,~>
JcG9?J,~>
p]$T\jSs`~>
JcG9?J,~>
JcG9?J,~>
pA^Q]j8XW~>
JcG9?J,~>
JcG9?J,~>
p&CN^ir=N~>
JcG9?J,~>
JcG9?J,~>
o`(H^ir=N~>
JcG9?J,~>
JcG9?J,~>
o`(K_iW"E~>
JcG9?J,~>
JcG9?J,~>
oDbH`i;\<~>
JcG9?J,~>
JcG9?J,~>
o)GEahuA3~>
JcG9?J,~>
JcG9?J,~>
nc,BbhZ&*~>
JcG9?J,~>
JcG9?J,~>
nGf?ch>`!~>
JcG9?J,~>
JcG9?J,~>
nGf?ch>`!~>
JcG9?J,~>
JcG9?J,~>
n,K<dh#Dm~>
JcG9?J,~>
JcG9?J,~>
mf09eg])d~>
JcG9?J,~>
JcG9?J,~>
m/O3gg&HR~>
JcG9?J,~>
JcG9?J,~>
li40hf`-I~>
JcG9?J,~>
JcG9?J,~>
lMn-ifDg@~>
JcG9?J,~>
JcG9?J,~>
l2S*jf)L7~>
JcG9?J,~>
JcG9?J,~>
kl8'kec1.~>
JcG9?J,~>
JcG9?J,~>
k5W!me,Op~>
JcG9?J,~>
JcG9?J,~>
jo;sndf4g~>
JcG9?J,~>
JcG9?J,~>
j8Zmpd/SU~>
JcG9?J,~>
JcG9?J,~>
iW$grcMrC~>
JcG9?J,~>
JcG9?J,~>
i;^dsc2W:~>
JcG9?J,~>
JcG9?J,~>
hZ(^ubQ!(~>
JcG9?J,~>
JcG9?J,~>
h#GY"ao?k~>
JcG9?J,~>
JcG9?J,~>
gAfS$a8^Y~>
JcG9?J,~>
JcG9?J,~>
f)OG(_uG5~>
JcG9?J,~>
JcG9?J,~>
e,S>+_#Jo~>
JcG9?J,~>
JcG9?J,~>
d/W5.^&NT~>
JcG9?J,~>
JcG9?J,~>
aT(r6[Jta~>
%%EndData
showpage
%%Trailer
end
%%EOF
